# Fnode
-0.00347222	-0.0628878	0.0331947	-1.29324e-15	-0.0663894	-0.125776
5.90416e-17	-0.00201927	-0.000252834	0.0235908	-8.35854e-15	2.02099e-14
-3.5637e-16	-0.00112713	-0.00071121	0.0235908	3.6341e-15	-3.34198e-14
-0.00347222	-0.0628878	-0.0331947	-3.97772e-15	0.0663894	-0.125776
7.83444e-16	-0.00201927	0.000252834	-0.0235908	1.17924e-14	1.5748e-15
7.71464e-16	0.00112713	-0.00071121	0.0235908	9.03295e-15	1.30934e-14
-0.00347222	0.0628878	0.0331947	5.47479e-15	-0.0663894	0.125776
-1.12432e-16	-0.00201927	0.000252834	0.0235908	9.73407e-15	1.16827e-14
-2.42651e-16	0.00112713	-0.00071121	-0.0235908	8.0434e-15	9.89942e-15
-0.00347222	0.0628878	-0.0331947	8.19136e-15	0.0663894	0.125776
4.36696e-17	-0.00201927	-0.000252834	-0.0235908	-5.74811e-15	3.63316e-14
-1.67631e-16	-0.00112713	-0.00071121	-0.0235908	1.75778e-15	-2.57563e-14
-0.00694444	-0.125767	-0.0576585	-1.48145e-15	0.115317	-0.251534
-1.26188e-16	-0.00316861	0.000386753	-0.0288783	1.5547e-14	4.0972e-15
7.8791e-17	0.00223345	-0.00331695	0.0760598	-2.37522e-15	9.29974e-15
-0.00694444	-0.125793	-0.0461307	-2.26555e-15	0.0922614	-0.251585
2.77529e-16	-0.00251685	0.000279792	-0.0150178	1.14037e-14	2.56381e-14
6.06137e-17	0.00294527	-0.00597944	0.119956	-2.27975e-15	1.05326e-14
-0.00694444	-0.125806	-0.0345971	-4.54498e-16	0.0691943	-0.251612
-5.48132e-17	-0.00221679	0.000203769	-0.00841761	9.58542e-15	2.74542e-14
6.9826e-17	0.00270427	-0.0080155	0.143391	-7.60974e-15	7.94184e-15
-0.00694444	-0.12581	-0.0230641	-3.65506e-15	0.0461282	-0.25162
-3.05244e-16	-0.00205431	0.000134281	-0.00450808	7.9145e-15	1.17601e-14
-7.26119e-17	0.00200027	-0.00946245	0.156317	-7.94043e-15	7.39832e-15
-0.00694444	-0.125811	-0.0115319	-2.5752e-15	0.0230637	-0.251621
4.87525e-16	-0.00197347	6.68561e-05	-0.00196324	4.48309e-15	1.80862e-14
-3.99774e-17	0.00105282	-0.0103289	0.162788	-5.98989e-15	5.90825e-15
-0.00694444	-0.125811	1.09179e-16	-3.06244e-15	6.66846e-16	-0.251622
1.98253e-16	-0.00194897	2.42258e-16	-3.19704e-15	1.56798e-15	6.16521e-15
7.0301e-17	-2.70058e-16	-0.0106175	0.164752	-5.69922e-15	4.62847e-15
-0.00694444	-0.125811	0.0115319	-5.27009e-15	-0.0230637	-0.251621
-1.4262e-16	-0.00197347	-6.68561e-05	0.00196324	-7.08594e-16	1.39645e-14
4.74919e-17	-0.00105282	-0.0103289	0.162788	-8.34754e-15	3.032e-15
-0.00694444	-0.12581	0.0230641	-3.76435e-15	-0.0461282	-0.25162
4.44631e-16	-0.00205431	-0.000134281	0.00450808	-2.31273e-15	3.1075e-14
7.97846e-17	-0.00200027	-0.00946245	0.156317	-1.98713e-15	2.62214e-16
-0.00694444	-0.125806	0.0345971	-3.46945e-18	-0.0691943	-0.251612
1.14844e-16	-0.00221679	-0.000203769	0.00841761	-5.05494e-15	9.1563e-15
6.21858e-17	-0.00270427	-0.0080155	0.143391	-6.78727e-15	-3.75925e-15
-0.00694444	-0.125793	0.0461307	-5.77316e-15	-0.0922614	-0.251585
-1.56606e-16	-0.00251685	-0.000279792	0.0150178	-6.21955e-15	2.20113e-14
1.64324e-18	-0.00294527	-0.00597944	0.119956	-5.12616e-15	-2.00312e-15
-0.00694444	-0.125767	0.0576585	-1.67227e-15	-0.115317	-0.251534
8.66278e-17	-0.00316861	-0.000386753	0.0288783	-1.01e-14	2.66512e-14
-4.71289e-18	-0.00223345	-0.00331695	0.0760598	-3.85288e-15	-9.32766e-15
-0.00694444	-0.0912376	0.0663874	1.45153e-15	-0.132775	-0.182475
9.53386e-17	-0.00791879	-0.000149714	0.0751532	-5.87461e-15	-3.01235e-15
-1.09626e-16	-0.001337	-0.00131517	0.0279717	5.95766e-15	-3.29782e-14
-0.00694444	-0.0456322	0.0663941	1.63281e-16	-0.132788	-0.0912644
2.0025e-16	-0.0124318	-0.000119856	0.11449	-4.46847e-15	-2.30819e-14
-2.57539e-16	-0.000544029	-0.00124283	0.0113649	5.06976e-15	-1.72549e-14
-0.00694444	1.08324e-15	0.0663967	1.03563e-15	-0.132793	6.28351e-15
9.28935e-17	-0.0138535	3.31202e-16	0.125855	-6.12784e-16	-1.84163e-14
1.10304e-16	-7.23806e-16	-0.00122539	-3.689e-16	7.65384e-15	-9.12017e-15
-0.00694444	0.0456322	0.0663941	1.50823e-15	-0.132788	0.0912644
-3.0865e-17	-0.0124318	0.000119856	0.11449	-1.85121e-15	-2.36273e-14
8.96229e-17	0.000544029	-0.00124283	-0.0113649	1.14434e-14	-6.1252e-16
-0.00694444	0.0912376	0.0663874	2.0383e-16	-0.132775	0.182475
-4.18536e-17	-0.00791879	0.000149714	0.0751532	-1.81912e-16	-8.68457e-15
-2.83593e-16	0.001337	-0.00131517	-0.0279717	1.08318e-14	1.16465e-14
-0.00694444	0.125767	-0.0576585	3.88925e-15	0.115317	0.251534
1.90704e-16	-0.00316861	-0.000386753	-0.0288783	-3.67007e-15	1.89937e-14
-4.5174e-17	-0.00223345	-0.00331695	-0.0760598	-1.72369e-15	-7.31376e-15
-0.00694444	0.125793	-0.0461307	2.668e-15	0.0922614	0.251585
2.62241e-16	-0.00251685	-0.000279792	-0.0150178	-3.43979e-15	3.02351e-14
-3.16807e-17	-0.00294527	-0.00597944	-0.119956	9.5464e-16	-2.00951e-15
-0.00694444	0.125806	-0.0345971	5.21458e-15	0.0691943	0.251612
1.67103e-17	-0.00221679	-0.000203769	-0.00841761	-1.49762e-16	1.15079e-14
-5.60278e-17	-0.00270427	-0.0080155	-0.143391	-7.24681e-16	1.13722e-15
-0.00694444	0.12581	-0.0230641	4.7063e-15	0.0461282	0.25162
-1.94743e-16	-0.00205431	-0.000134281	-0.00450808	2.90851e-16	2.10032e-14
-5.27718e-17	-0.00200027	-0.00946245	-0.156317	2.50451e-17	3.00777e-15
-0.00694444	0.125811	-0.0115319	4.26048e-15	0.0230637	0.251621
-1.74089e-16	-0.00197347	-6.68561e-05	-0.00196324	1.82722e-15	8.41905e-15
-5.88349e-18	-0.00105282	-0.0103289	-0.162788	2.00377e-15	2.43494e-15
-0.00694444	0.125811	-6.58094e-17	3.39344e-15	-2.81874e-15	0.251622
-2.61693e-16	-0.00194897	-2.50379e-17	-2.02808e-15	2.42437e-15	1.45127e-14
2.82892e-17	6.51255e-16	-0.0106175	-0.164752	1.92766e-15	-5.8377e-16
-0.00694444	0.125811	0.0115319	2.58214e-15	-0.0230637	0.251621
-9.42578e-17	-0.00197347	6.68561e-05	0.00196324	3.24958e-15	1.98522e-14
3.35755e-17	0.00105282	-0.0103289	-0.162788	-1.94457e-15	6.15564e-15
-0.00694444	0.12581	0.0230641	4.47732e-15	-0.0461282	0.25162
-5.26854e-17	-0.00205431	0.000134281	0.00450808	4.05166e-15	-4.48946e-15
3.55915e-17	0.00200027	-0.00946245	-0.156317	-1.09656e-15	4.02057e-15
-0.00694444	0.125806	0.0345971	6.09929e-15	-0.0691943	0.251612
1.21729e-16	-0.00221679	0.000203769	0.00841761	4.65954e-15	-1.47412e-14
-1.32544e-17	0.00270427	-0.0080155	-0.143391	-3.94487e-16	9.73332e-15
-0.00694444	0.125793	0.0461307	2.68535e-15	-0.0922614	0.251585
1.6776e-16	-0.00251685	0.000279792	0.0150178	5.98108e-15	1.13152e-14
-3.72305e-17	0.00294527	-0.00597944	-0.119956	-3.71014e-16	1.11362e-14
-0.00694444	0.125767	0.0576585	-3.15373e-15	-0.115317	0.251534
1.57995e-16	-0.00316861	0.000386753	0.0288783	9.74277e-15	2.99392e-15
-7.11101e-17	0.00223345	-0.00331695	-0.0760598	4.19573e-15	1.37073e-14
-0.00694444	-0.0912376	-0.0663874	-5.46872e-16	0.132775	-0.182475
-2.45978e-17	-0.00791879	0.000149714	-0.0751532	4.70167e-15	-1.25655e-14
2.0093e-16	0.001337	-0.00131517	0.0279717	9.51621e-15	1.924e-14
-0.00694444	-0.0456322	-0.0663941	6.11024e-16	0.132788	-0.0912644
-1.74523e-17	-0.0124318	0.000119856	-0.11449	2.01322e-15	-1.85074e-14
1.8117e-16	0.000544029	-0.00124283	0.0113649	7.681e-15	5.48053e-15
-0.00694444	1.69775e-16	-0.0663967	7.53141e-16	0.132793	-6.57533e-15
-4.2236e-17	-0.0138535	1.67258e-16	-0.125855	1.32078e-15	-1.32358e-14
2.39419e-16	-6.21894e-16	-0.00122539	-4.15168e-16	8.63928e-15	-6.19331e-15
-0.00694444	0.0456322	-0.0663941	2.31098e-15	0.132788	0.0912644
-2.85179e-17	-0.0124318	-0.000119856	-0.11449	-2.81408e-16	-5.5696e-15
1.41353e-17	-0.000544029	-0.00124283	-0.0113649	6.16439e-15	-1.71288e-14
-0.00694444	0.0912376	-0.0663874	5.02636e-15	0.132775	0.182475
-1.45537e-17	-0.00791879	-0.000149714	-0.0751532	-2.50043e-15	-1.69472e-14
-2.27981e-16	-0.001337	-0.00131517	-0.0279717	2.76203e-15	-3.14004e-14
-0.0138889	-0.182392	-0.115296	-2.35922e-16	0.230591	-0.364784
3.90279e-17	-0.0134795	0.000143695	-0.100587	6.1807e-15	-1.70842e-14
4.04678e-17	0.00262532	-0.00634639	0.0987737	-4.10392e-15	1.38209e-14
-0.0138889	-0.091212	-0.115287	2.92214e-15	0.230574	-0.182424
-2.47334e-17	-0.0217666	0.000129144	-0.163535	3.8201e-15	-3.66781e-14
1.05899e-16	0.00100407	-0.00611587	0.0428472	6.62664e-16	9.19284e-15
-0.0138889	1.01511e-15	-0.115286	1.16769e-15	0.230572	3.88253e-15
6.67462e-18	-0.0244893	7.4171e-16	-0.183652	2.50924e-15	-1.37973e-14
8.48388e-18	-5.81608e-17	-0.00605207	2.91705e-16	-1.82845e-15	-5.04639e-16
-0.0138889	0.091212	-0.115287	2.14238e-16	0.230574	0.182424
8.79034e-17	-0.0217666	-0.000129144	-0.163535	4.78133e-16	-2.44796e-14
5.82623e-17	-0.00100407	-0.00611587	-0.0428472	-3.67772e-15	-8.30949e-15
-0.0138889	0.182392	-0.115296	-6.26235e-16	0.230591	0.364784
6.99243e-17	-0.0134795	-0.000143695	-0.100587	-2.92166e-15	2.14381e-14
-8.9799e-17	-0.00262532	-0.00634639	-0.0987737	1.56976e-15	-9.49317e-15
-0.0138889	-0.18236	-0.0922458	1.88217e-15	0.184492	-0.36472
-4.52722e-17	-0.0113645	4.18807e-05	-0.0555659	5.11493e-15	-1.09023e-14
1.22921e-16	0.00382324	-0.0115851	0.167134	6.62231e-16	1.27518e-14
-0.0138889	-0.0911897	-0.0922379	1.16487e-15	0.184476	-0.182379
-1.54634e-17	-0.0185513	4.22029e-05	-0.0950012	3.83381e-15	-8.1738e-15
1.17961e-16	0.00160094	-0.0112397	0.0768696	3.39903e-15	8.03323e-15
-0.0138889	-1.51862e-16	-0.0922357	1.26994e-15	0.184471	4.11134e-15
1.62664e-17	-0.0209854	1.1492e-16	-0.108906	1.08919e-15	-8.43011e-15
6.61905e-17	1.02595e-15	-0.0111332	-5.14291e-15	-1.66967e-15	-6.03253e-16
-0.0138889	0.0911897	-0.0922379	-2.41213e-15	0.184476	0.182379
2.27344e-18	-0.0185513	-4.22029e-05	-0.0950012	-4.91753e-17	-2.10149e-14
-1.27766e-17	-0.00160094	-0.0112397	-0.0768696	-1.0121e-15	-5.43389e-15
-0.0138889	0.18236	-0.0922458	-1.66013e-15	0.184492	0.36472
2.76268e-17	-0.0113645	-4.18807e-05	-0.0555659	-2.04506e-15	-1.19659e-14
-4.51875e-17	-0.00382324	-0.0115851	-0.167134	1.15907e-14	-7.86567e-15
-0.0138889	-0.182358	-0.0691874	1.69309e-15	0.138375	-0.364716
-1.93079e-16	-0.0102614	1.26702e-05	-0.0313212	1.87675e-15	3.60389e-15
-1.89532e-17	0.00370733	-0.0156397	0.207151	-1.07195e-15	7.14538e-15
-0.0138889	-0.0911824	-0.0691819	1.01655e-15	0.138364	-0.182365
-1.19154e-16	-0.01669	1.2807e-05	-0.0540834	8.12203e-16	-1.81845e-14
5.75474e-17	0.00165461	-0.0152568	0.0990509	1.7293e-16	4.20483e-15
-0.0138889	2.7662e-16	-0.0691804	1.26242e-15	0.138361	4.65584e-16
-9.94209e-17	-0.0188689	1.30556e-16	-0.0623596	-1.31436e-16	-3.56919e-15
-9.29703e-18	2.23712e-16	-0.015132	2.18472e-15	3.22702e-15	-1.44982e-15
-0.0138889	0.0911824	-0.0691819	-2.25514e-15	0.138364	0.182365
-1.18393e-16	-0.01669	-1.2807e-05	-0.0540834	-4.64892e-16	-1.06768e-14
7.39629e-18	-0.00165461	-0.0152568	-0.0990509	-2.47491e-15	-2.91607e-15
-0.0138889	0.182358	-0.0691874	8.69096e-16	0.138375	0.364716
-9.23876e-17	-0.0102614	-1.26702e-05	-0.0313212	-9.75401e-16	5.00598e-15
-1.13204e-16	-0.00370733	-0.0156397	-0.207151	-1.80596e-15	-7.11161e-15
-0.0138889	-0.18236	-0.0461254	7.77156e-16	0.0922508	-0.364719
-5.14996e-19	-0.00965866	3.73544e-06	-0.0168149	2.28436e-15	1.93771e-14
-1.14991e-16	0.00281067	-0.0185282	0.229435	-5.1634e-15	2.2897e-15
-0.0138889	-0.0911805	-0.0461227	1.69049e-15	0.0922454	-0.182361
4.70612e-18	-0.0156522	3.78395e-06	-0.0291039	1.20881e-15	-8.71048e-16
-1.8855e-17	0.00129616	-0.018134	0.111817	-2.33028e-15	2.75789e-15
-0.0138889	2.44684e-16	-0.0461217	-1.18774e-16	0.0922434	4.50161e-16
2.39181e-17	-0.0176739	6.71257e-17	-0.033594	5.29843e-16	1.17293e-14
-3.23516e-17	-4.88638e-16	-0.0180034	-7.24247e-16	8.70463e-15	-1.95313e-15
-0.0138889	0.0911805	-0.0461227	-4.96998e-16	0.0922454	0.182361
-3.30512e-17	-0.0156522	-3.78395e-06	-0.0291039	4.38379e-16	-1.21021e-14
-2.64664e-17	-0.00129616	-0.018134	-0.111817	7.3162e-16	-2.60718e-15
-0.0138889	0.18236	-0.0461254	-2.19096e-15	0.0922508	0.364719
-3.54161e-17	-0.00965866	-3.73544e-06	-0.0168149	-8.94092e-16	-1.506e-14
-1.0356e-16	-0.00281067	-0.0185282	-0.229435	3.44386e-15	1.10407e-15
-0.0138889	-0.18236	-0.0230627	1.57513e-15	0.0461255	-0.364721
6.95041e-17	-0.00935729	1.0025e-06	-0.00732556	1.04419e-16	-5.70464e-15
-8.56503e-17	0.0014964	-0.0202595	0.240633	-2.77209e-15	1.4968e-15
-0.0138889	-0.0911803	-0.0230617	7.56773e-16	0.0461233	-0.182361
2.24565e-17	-0.0151308	1.01716e-06	-0.0126856	-1.221e-16	-1.42406e-14
-1.97587e-17	0.00070041	-0.019862	0.118268	3.93999e-16	1.23843e-15
-0.0138889	-5.99848e-17	-0.0230612	3.73508e-17	0.0461225	9.19431e-16
-2.27822e-17	-0.0170723	-2.03425e-16	-0.0146466	-4.79531e-16	-2.30551e-14
1.12698e-17	3.14449e-16	-0.0197297	8.33968e-16	-2.25677e-15	-1.64705e-15
-0.0138889	0.0911803	-0.0230617	-1.06273e-15	0.0461233	0.182361
4.58533e-17	-0.0151308	-1.01716e-06	-0.0126856	-1.13892e-15	-1.19262e-15
2.85492e-17	-0.00070041	-0.019862	-0.118268	2.48781e-15	-2.30463e-15
-0.0138889	0.18236	-0.0230627	-2.09121e-15	0.0461255	0.364721
-6.49132e-17	-0.00935729	-1.0025e-06	-0.00732556	-7.82431e-16	-3.37848e-14
-3.0511e-17	-0.0014964	-0.0202595	-0.240633	3.47075e-15	-3.23877e-15
-0.0138889	-0.182361	-1.66327e-16	2.20895e-15	-3.08478e-15	-0.364721
2.19754e-17	-0.00926588	-1.75629e-16	-3.29793e-15	-7.15283e-16	2.4143e-15
5.03486e-17	-1.49171e-15	-0.0208364	0.244032	-3.11274e-16	4.21802e-15
-0.0138889	-0.0911803	-6.72104e-17	3.97143e-16	-1.0177e-15	-0.182361
-7.86385e-18	-0.0149726	2.7443e-17	1.87372e-15	-1.52667e-15	-5.27421e-15
-2.27676e-18	-3.63801e-16	-0.0204382	0.120229	-3.13768e-15	5.85299e-16
-0.0138889	1.21047e-16	-2.28631e-16	-5.13803e-16	-1.1264e-15	9.41033e-16
3.25684e-19	-0.0168897	4.25321e-17	1.96184e-15	-8.26906e-16	-1.12555e-14
2.95891e-17	-2.18514e-16	-0.0203056	9.13386e-16	-3.14429e-15	-5.42338e-16
-0.0138889	0.0911803	-4.4684e-17	-1.70892e-15	1.24229e-15	0.182361
-1.18974e-17	-0.0149726	1.62762e-17	8.16594e-16	-1.3945e-15	-8.18811e-15
8.5305e-18	-7.45076e-16	-0.0204382	-0.120229	-4.20378e-15	-3.58633e-16
-0.0138889	0.182361	-1.81444e-16	-2.41739e-15	2.84456e-15	0.364721
-5.13404e-17	-0.00926588	6.83155e-17	3.42798e-16	2.50235e-16	5.91476e-15
-1.32816e-17	-2.57406e-16	-0.0208364	-0.244032	-6.94323e-16	3.17294e-15
-0.0138889	-0.18236	0.0230627	1.90559e-15	-0.0461255	-0.364721
-8.45441e-17	-0.00935729	-1.0025e-06	0.00732556	-1.52452e-15	2.99706e-14
5.85207e-17	-0.0014964	-0.0202595	0.240633	-3.27624e-15	-2.10417e-15
-0.0138889	-0.0911803	0.0230617	1.9494e-16	-0.0461233	-0.182361
-1.28654e-16	-0.0151308	-1.01716e-06	0.0126856	-2.26483e-15	6.74374e-17
7.98396e-17	-0.00070041	-0.019862	0.118268	-5.94511e-15	7.597e-16
-0.0138889	-8.43497e-16	0.0230612	-5.5419e-16	-0.0461225	1.08382e-15
-1.135e-16	-0.0170723	-4.82385e-18	0.0146466	-2.02453e-15	-7.32053e-16
1.06303e-17	-2.10841e-16	-0.0197297	-6.49871e-16	-6.28837e-16	-6.55959e-16
-0.0138889	0.0911803	0.0230617	-2.30241e-15	-0.0461233	0.182361
-1.24043e-16	-0.0151308	1.01716e-06	0.0126856	-1.90964e-15	-1.24531e-15
5.61109e-17	0.00070041	-0.019862	-0.118268	1.24889e-15	2.50437e-15
-0.0138889	0.18236	0.0230627	-3.77649e-15	-0.0461255	0.364721
-1.65564e-16	-0.00935729	1.0025e-06	0.00732556	-2.30872e-16	-1.30464e-14
8.53581e-17	0.0014964	-0.0202595	-0.240633	1.86537e-15	6.48109e-16
-0.0138889	-0.18236	0.0461254	2.71918e-15	-0.0922508	-0.364719
5.84385e-17	-0.00965866	-3.73544e-06	0.0168149	-2.83403e-15	-6.74699e-15
4.53756e-17	-0.00281067	-0.0185282	0.229435	7.58942e-18	-5.18349e-15
-0.0138889	-0.0911805	0.0461227	-4.2414e-16	-0.0922454	-0.182361
5.50233e-18	-0.0156522	-3.78395e-06	0.0291039	-3.27805e-15	-2.45507e-15
6.75068e-17	-0.00129616	-0.018134	0.111817	1.17159e-15	-2.18494e-16
-0.0138889	-4.63343e-16	0.0461217	-1.06496e-15	-0.0922434	-4.72617e-16
4.77472e-18	-0.0176739	-1.19597e-17	0.033594	-2.18499e-15	-1.8045e-14
1.4735e-17	-6.8856e-16	-0.0180034	2.85145e-16	8.55544e-16	2.67459e-15
-0.0138889	0.0911805	0.0461227	-9.87491e-16	-0.0922454	0.182361
1.02679e-16	-0.0156522	3.78395e-06	0.0291039	-2.70294e-15	-1.62524e-14
2.5555e-17	0.00129616	-0.018134	-0.111817	-3.48365e-15	6.44242e-15
-0.0138889	0.18236	0.0461254	-5.3204e-15	-0.0922508	0.364719
-2.70373e-18	-0.00965866	3.73544e-06	0.0168149	-1.07856e-16	-5.84407e-15
7.37647e-17	0.00281067	-0.0185282	-0.229435	-2.90783e-16	6.02681e-15
-0.0138889	-0.182358	0.0691874	2.69229e-15	-0.138375	-0.364716
-7.64125e-17	-0.0102614	-1.26702e-05	0.0313212	-3.66867e-15	-3.72142e-15
1.19161e-17	-0.00370733	-0.0156397	0.207151	-7.58324e-15	-4.49646e-15
-0.0138889	-0.0911824	0.0691819	1.83881e-15	-0.138364	-0.182365
-3.87399e-17	-0.01669	-1.2807e-05	0.0540834	-4.35333e-15	-1.04615e-14
-1.113e-17	-0.00165461	-0.0152568	0.0990509	-9.65807e-16	2.01607e-16
-0.0138889	1.50787e-16	0.0691804	-4.09937e-16	-0.138361	1.56261e-15
-7.26661e-17	-0.0188689	-5.55679e-16	0.0623596	-3.50633e-15	-1.68698e-14
2.38524e-17	7.57315e-17	-0.015132	-8.19223e-16	-1.03867e-16	-8.96208e-16
-0.0138889	0.0911824	0.0691819	-2.74347e-15	-0.138364	0.182365
-8.24163e-17	-0.01669	1.2807e-05	0.0540834	-2.50607e-15	-3.25803e-15
-8.5818e-17	0.00165461	-0.0152568	-0.0990509	1.01676e-15	6.20467e-15
-0.0138889	0.182358	0.0691874	-2.87444e-15	-0.138375	0.364716
-1.44256e-16	-0.0102614	1.26702e-05	0.0313212	5.39626e-16	2.874e-15
-3.70831e-17	0.00370733	-0.0156397	-0.207151	6.67879e-15	7.57331e-15
-0.0138889	-0.18236	0.0922458	5.75581e-15	-0.184492	-0.36472
-1.26936e-16	-0.0113645	-4.18807e-05	0.0555659	-5.54746e-15	1.11044e-15
-6.59805e-17	-0.00382324	-0.0115851	0.167134	-5.54168e-15	-1.11336e-14
-0.0138889	-0.0911897	0.0922379	1.84748e-15	-0.184476	-0.182379
-1.04558e-16	-0.0185513	-4.22029e-05	0.0950012	-5.8673e-15	3.30053e-15
-1.74014e-17	-0.00160094	-0.0112397	0.0768696	2.28187e-15	-4.72734e-15
-0.0138889	-9.892e-16	0.0922357	-2.35489e-15	-0.184471	-2.80823e-15
-1.28085e-16	-0.0209854	-1.54081e-16	0.108906	-4.6405e-15	-1.75381e-15
-3.87738e-17	-8.84284e-16	-0.0111332	-7.36878e-16	-2.03451e-15	3.38839e-15
-0.0138889	0.0911897	0.0922379	-3.19883e-15	-0.184476	0.182379
-1.63584e-16	-0.0185513	4.22029e-05	0.0950012	-2.44987e-15	-2.09156e-14
-4.71154e-17	0.00160094	-0.0112397	-0.0768696	-2.33656e-15	7.03452e-15
-0.0138889	0.18236	0.0922458	-8.78464e-15	-0.184492	0.36472
-1.14085e-16	-0.0113645	4.18807e-05	0.0555659	1.15764e-15	-5.287e-15
-1.11422e-16	0.00382324	-0.0115851	-0.167134	8.70343e-16	1.09178e-14
-0.0138889	-0.182392	0.115296	2.97852e-15	-0.230591	-0.364784
2.8833e-17	-0.0134795	-0.000143695	0.100587	-8.03788e-15	-9.04832e-15
-1.01732e-16	-0.00262532	-0.00634639	0.0987737	-5.28511e-15	-1.55889e-14
-0.0138889	-0.091212	0.115287	9.31547e-16	-0.230574	-0.182424
1.09952e-16	-0.0217666	-0.000129144	0.163535	-6.20708e-15	-1.36414e-14
-4.93719e-17	-0.00100407	-0.00611587	0.0428472	-2.02724e-15	-3.78983e-15
-0.0138889	-3.01032e-16	0.115286	2.16407e-16	-0.230572	-1.00304e-14
6.88341e-17	-0.0244893	5.41701e-16	0.183652	-5.24962e-15	-2.13985e-14
4.79488e-17	-2.47657e-16	-0.00605207	-1.32007e-15	3.73497e-15	5.20864e-16
-0.0138889	0.091212	0.115287	-3.1572e-15	-0.230574	0.182424
-1.65868e-16	-0.0217666	0.000129144	0.163535	-2.70578e-15	-1.48872e-14
-2.65968e-17	0.00100407	-0.00611587	-0.0428472	9.58554e-15	4.32819e-15
-0.0138889	0.182392	0.115296	-7.89299e-15	-0.230591	0.364784
-6.27211e-17	-0.0134795	0.000143695	0.100587	1.25886e-15	-3.20486e-14
-1.00302e-16	0.00262532	-0.00634639	-0.0987737	3.05284e-15	1.25326e-14
0.00347222	6.23774e-15	-9.74156e-17	-8.5626e-15	0.0663894	0.125776
-6.76542e-17	0.00201927	0.000252834	-0.0235908	4.43395e-15	-1.25455e-14
9.1073e-17	0.00112713	0.00071121	-0.0235908	-5.27529e-15	1.59595e-14
0.00347222	9.74156e-16	-7.04393e-16	-8.77076e-15	-0.0663894	0.125776
-1.51788e-17	0.00201927	-0.000252834	0.0235908	-6.87991e-15	-1.0783e-14
-2.51535e-17	-0.00112713	0.00071121	-0.0235908	-7.15053e-15	-5.16254e-15
0.00347222	-4.04407e-17	8.18518e-16	1.15324e-14	0.0663894	-0.125776
-3.77302e-17	0.00201927	-0.000252834	-0.0235908	-4.76008e-15	-8.66668e-15
-2.9924e-17	-0.00112713	0.00071121	0.0235908	-6.55032e-15	-4.82947e-15
0.00347222	-5.52813e-15	-6.50521e-17	7.10543e-15	-0.0663894	-0.125776
-6.93889e-17	0.00201927	0.000252834	0.0235908	1.40166e-15	-1.3177e-14
7.63278e-17	0.00112713	0.00071121	0.0235908	-4.95784e-15	1.385e-14
0.00694444	3.28123e-15	-5.81132e-16	-7.49401e-15	-0.115317	0.251534
-3.64292e-17	0.00316861	-0.000386753	0.0288783	-9.86711e-15	-1.69725e-14
-2.77556e-17	-0.00223345	0.00331695	-0.0760598	-2.47545e-15	-9.71445e-16
0.00694444	3.26735e-15	-3.96384e-16	-7.32747e-15	-0.0922614	0.251585
-3.98986e-17	0.00251685	-0.000279792	0.0150178	-8.43769e-15	-1.57097e-14
-1.7022e-17	-0.00294527	0.00597944	-0.119956	-1.07987e-15	2.2482e-15
0.00694444	4.32553e-15	-3.20056e-16	-8.07687e-15	-0.0691943	0.251612
-5.76796e-17	0.00221679	-0.000203769	0.00841761	-7.04298e-15	-1.64591e-14
-1.51788e-18	-0.00270427	0.0080155	-0.143391	-1.40513e-16	2.43902e-15
0.00694444	4.40273e-15	-2.89265e-16	-9.35363e-15	-0.0461282	0.25162
-4.64039e-17	0.00205431	-0.000134281	0.00450808	-5.2354e-15	-1.43913e-14
-8.89046e-18	-0.00200027	0.00946245	-0.156317	1.16226e-16	3.92741e-15
0.00694444	4.96304e-15	-1.9082e-16	-9.39526e-15	-0.0230637	0.251621
-5.29091e-17	0.00197347	-6.68561e-05	0.00196324	-3.6169e-15	-1.53211e-14
-5.61075e-18	-0.00105282	0.0103289	-0.162788	1.73472e-16	4.74794e-15
0.00694444	5.3681e-15	-1.37758e-16	-9.07846e-15	1.06589e-14	0.251622
-7.67615e-17	0.00194897	8.41273e-18	3.09345e-15	-2.19746e-15	-1.34059e-14
-6.12947e-18	3.77068e-16	0.0106175	-0.164752	3.36536e-16	5.06918e-15
0.00694444	6.7832e-15	-1.21431e-16	-1.0103e-14	0.0230637	0.251621
-9.71445e-17	0.00197347	6.68561e-05	-0.00196324	-6.33174e-16	-1.41553e-14
-4.52654e-18	0.00105282	0.0103289	-0.162788	5.91541e-16	5.23713e-15
0.00694444	6.14959e-15	-1.23599e-16	-9.65894e-15	0.0461282	0.25162
-7.37257e-17	0.00205431	0.000134281	-0.00450808	8.29198e-16	-1.51407e-14
2.49366e-18	0.00200027	0.00946245	-0.156317	-5.20417e-17	6.3248e-15
0.00694444	7.62845e-15	-2.37657e-16	-1.04916e-14	0.0691943	0.251612
-8.58688e-17	0.00221679	0.000203769	-0.00841761	2.39392e-15	-1.43635e-14
1.30104e-18	0.00270427	0.0080155	-0.143391	3.81639e-17	6.70991e-15
0.00694444	6.72639e-15	8.84709e-17	-1.08802e-14	0.0922614	0.251585
-1.03216e-16	0.00251685	0.000279792	-0.0150178	3.9968e-15	-1.40027e-14
2.05998e-18	0.00294527	0.00597944	-0.119956	-5.51642e-16	7.9034e-15
0.00694444	7.22252e-15	2.89048e-16	-9.9365e-15	0.115317	0.251534
-1.2837e-16	0.00316861	0.000386753	-0.0288783	5.48173e-15	-1.68893e-14
2.55872e-17	0.00223345	0.00331695	-0.0760598	-1.71911e-15	7.82707e-15
0.00694444	6.32046e-15	2.06432e-16	-6.13398e-15	0.132775	0.182475
-1.99493e-17	0.00791879	0.000149714	-0.0751532	2.58127e-15	-2.27596e-15
8.97719e-17	0.001337	0.00131517	-0.0279717	-6.91808e-15	1.75554e-14
0.00694444	4.82687e-15	1.63064e-16	-1.7833e-15	0.132788	0.0912644
-4.55365e-18	0.0124318	0.000119856	-0.11449	2.62637e-15	9.64506e-16
9.80119e-17	0.000544029	0.00124283	-0.0113649	-6.93889e-15	1.14214e-14
0.00694444	3.21857e-15	-2.18575e-16	1.09851e-15	0.132793	2.54356e-14
5.0822e-18	0.0138535	-8.9247e-17	-0.125855	2.12048e-15	1.58207e-15
5.20417e-17	1.19914e-15	0.00122539	4.57262e-16	-7.22339e-15	6.52192e-15
0.00694444	1.50314e-15	4.02456e-16	4.17895e-15	0.132788	-0.0912644
9.54098e-18	0.0124318	-0.000119856	-0.11449	1.03563e-15	1.13104e-15
2.08167e-17	-0.000544029	0.00124283	0.0113649	-7.50788e-15	3.00454e-15
0.00694444	-6.33174e-16	1.33574e-16	7.57727e-15	0.132775	-0.182475
8.23994e-18	0.00791879	-0.000149714	-0.0751532	-6.21031e-16	-1.4086e-15
-4.77049e-17	-0.001337	0.00131517	0.0279717	-8.77076e-15	-3.1225e-15
0.00694444	-7.84529e-15	1.09721e-16	7.21645e-15	-0.115317	-0.251534
-8.06646e-17	0.00316861	0.000386753	0.0288783	9.15934e-16	-1.83881e-14
4.94396e-17	0.00223345	0.00331695	0.0760598	-3.31766e-15	6.23113e-15
0.00694444	-7.09675e-15	1.61329e-16	5.93969e-15	-0.0922614	-0.251585
-5.50775e-17	0.00251685	0.000279792	0.0150178	-7.00828e-16	-1.56264e-14
3.31766e-17	0.00294527	0.00597944	0.119956	-4.08527e-15	5.66214e-15
0.00694444	-6.67261e-15	-6.07153e-18	6.18949e-15	-0.0691943	-0.251612
-6.46184e-17	0.00221679	0.000203769	0.00841761	-1.04083e-15	-1.64452e-14
2.3744e-17	0.00270427	0.0080155	0.143391	-4.51375e-15	4.1564e-15
0.00694444	-6.16174e-15	3.01842e-16	9.07607e-15	-0.0461282	-0.25162
-5.85469e-17	0.00205431	0.000134281	0.00450808	-1.47451e-15	-1.62509e-14
1.27936e-17	0.00200027	0.00946245	0.156317	-4.27436e-15	3.51108e-15
0.00694444	-5.78357e-15	2.4156e-16	8.6875e-15	-0.0230637	-0.251621
-6.72205e-17	0.00197347	6.68561e-05	0.00196324	-1.61676e-15	-1.46133e-14
2.10335e-17	0.00105282	0.0103289	0.162788	-4.76355e-15	2.70443e-15
0.00694444	-5.35856e-15	3.25152e-16	9.68453e-15	-1.04763e-14	-0.251622
-5.85469e-17	0.00194897	1.08969e-16	3.53992e-15	-2.22678e-15	-1.23235e-14
1.26655e-17	-3.31474e-17	0.0106175	0.164752	-4.80865e-15	1.84158e-15
0.00694444	-4.78654e-15	3.92481e-16	1.05194e-14	0.0230637	-0.251621
-5.85469e-17	0.00197347	-6.68561e-05	-0.00196324	-2.39739e-15	-1.19349e-14
1.1086e-17	-0.00105282	0.0103289	0.162788	-4.996e-15	1.04951e-15
0.00694444	-4.52936e-15	3.18322e-16	1.19071e-14	0.0461282	-0.25162
-5.89806e-17	0.00205431	-0.000134281	-0.00450808	-2.50494e-15	-1.2601e-14
9.97466e-18	-0.00200027	0.00946245	0.156317	-4.37497e-15	8.39606e-16
0.00694444	-3.82507e-15	3.13985e-16	1.21569e-14	0.0691943	-0.251612
-1.64799e-17	0.00221679	-0.000203769	-0.00841761	-2.83107e-15	-1.02834e-14
-4.33681e-19	-0.00270427	0.0080155	0.143391	-4.60916e-15	6.00214e-16
0.00694444	-2.68969e-15	5.66387e-16	1.21569e-14	0.0922614	-0.251585
-6.1149e-17	0.00251685	-0.000279792	-0.0150178	-3.17801e-15	-1.04083e-14
1.17094e-17	-0.00294527	0.00597944	0.119956	-4.91447e-15	-7.91034e-16
0.00694444	-2.67494e-15	6.4716e-16	1.19904e-14	0.115317	-0.251534
-7.15573e-17	0.00316861	-0.000386753	-0.0288783	-4.996e-15	-1.14214e-14
-7.58942e-18	-0.00223345	0.00331695	0.0760598	-4.20323e-15	-3.33067e-16
0.00694444	8.82974e-16	-3.48679e-16	-6.4948e-15	-0.132775	0.182475
1.95156e-17	0.00791879	-0.000149714	0.0751532	-3.92048e-15	-2.05391e-15
-4.85723e-17	-0.001337	0.00131517	-0.0279717	-9.312e-15	-5.02376e-15
0.00694444	-1.05818e-15	-9.36751e-17	-3.43475e-15	-0.132788	0.0912644
2.04914e-17	0.0124318	-0.000119856	0.11449	-3.38271e-15	-1.11716e-15
6.93889e-18	-0.000544029	0.00124283	-0.0113649	-8.29198e-15	6.17562e-16
0.00694444	-2.90769e-15	-2.41127e-16	-8.91648e-16	-0.132793	-2.16075e-14
2.91515e-17	0.0138535	1.2963e-17	0.125855	-2.59363e-15	-1.11022e-16
4.51028e-17	1.07943e-15	0.00122539	2.86229e-16	-7.61197e-15	4.62048e-15
0.00694444	-4.60656e-15	-2.48065e-16	2.8081e-15	-0.132788	-0.0912644
1.50162e-17	0.0124318	0.000119856	0.11449	-1.94809e-15	-1.93595e-15
4.94396e-17	0.000544029	0.00124283	0.0113649	-6.82787e-15	9.01362e-15
0.00694444	-6.58328e-15	-2.70617e-16	5.17641e-15	-0.132775	-0.182475
5.74627e-18	0.00791879	0.000149714	0.0751532	-1.08594e-15	-3.67761e-15
9.1073e-17	0.001337	0.00131517	0.0279717	-6.98053e-15	1.43774e-14
0.0138889	3.07046e-15	-5.21935e-16	-6.38378e-15	-0.230591	0.364784
-3.46945e-18	0.0134795	-0.000143695	0.100587	-5.62744e-15	-4.26742e-15
-7.54605e-17	-0.00262532	0.00634639	-0.0987737	-3.75394e-15	-2.09555e-15
0.0138889	-7.02563e-17	-3.97685e-16	-2.84495e-15	-0.230574	0.182424
1.20346e-17	0.0217666	-0.000129144	0.163535	-4.99947e-15	-1.02696e-15
-3.03577e-17	-0.00100407	0.00611587	-0.0428472	-3.26822e-15	1.41553e-15
0.0138889	-3.05848e-15	-2.50234e-16	-1.07987e-15	-0.230572	-2.74123e-14
3.33257e-17	0.0244893	-1.05845e-16	0.183652	-4.08311e-15	9.02056e-16
-5.20417e-18	5.68163e-16	0.00605207	-3.51282e-17	-4.17028e-15	3.89576e-15
0.0138889	-5.68729e-15	-1.82363e-16	1.47105e-15	-0.230574	-0.182424
2.5804e-17	0.0217666	0.000129144	0.163535	-2.98893e-15	-1.45717e-15
6.15827e-17	0.00100407	0.00611587	0.0428472	-4.82427e-15	5.86337e-15
0.0138889	-8.91474e-15	2.01933e-17	4.46865e-15	-0.230591	-0.364784
2.38524e-18	0.0134795	0.000143695	0.100587	-9.88792e-16	-5.73153e-15
5.24754e-17	0.00262532	0.00634639	0.0987737	-4.826e-15	8.85403e-15
0.0138889	3.88491e-15	-4.00721e-16	-6.21725e-15	-0.184492	0.36472
6.50521e-18	0.0113645	-4.18807e-05	0.0555659	-4.51028e-15	-3.30638e-15
-2.29851e-17	-0.00382324	0.0115851	-0.167134	-1.53046e-15	6.93889e-16
0.0138889	8.76035e-16	-2.02963e-16	-3.66374e-15	-0.184476	0.182379
2.14672e-17	0.0185513	-4.22029e-05	0.0950012	-4.05058e-15	-3.06699e-15
-5.20417e-18	-0.00160094	0.0112397	-0.0768696	-2.43425e-15	2.49106e-15
0.0138889	-2.18727e-15	-1.17094e-16	-3.63858e-16	-0.184471	-1.90908e-14
2.43607e-17	0.0209854	-4.57804e-17	0.108906	-3.28394e-15	7.07767e-16
1.95156e-17	4.8544e-16	0.0111332	-7.97973e-17	-3.58264e-15	3.61546e-15
0.0138889	-4.79217e-15	-1.96891e-16	3.747e-16	-0.184476	-0.182379
2.87314e-17	0.0185513	4.22029e-05	0.0950012	-2.43729e-15	-2.17881e-15
-1.60462e-17	0.00160094	0.0112397	0.0768696	-4.51462e-15	5.47479e-15
0.0138889	-8.16448e-15	-3.46945e-17	3.83027e-15	-0.184492	-0.36472
-6.28837e-18	0.0113645	4.18807e-05	0.0555659	-7.45931e-16	-6.06806e-15
3.75134e-17	0.00382324	0.0115851	0.167134	-5.49907e-15	7.23727e-15
0.0138889	4.77222e-15	-3.11383e-16	-7.63278e-15	-0.138375	0.364716
-1.27936e-17	0.0102614	-1.26702e-05	0.0313212	-3.2821e-15	-3.38098e-15
-3.49113e-17	-0.00370733	0.0156397	-0.207151	-5.86337e-16	1.72085e-15
0.0138889	1.61416e-15	-2.7929e-16	-2.98372e-15	-0.138364	0.182365
2.05998e-17	0.01669	-1.2807e-05	0.0540834	-3.0722e-15	-3.79557e-15
-1.43115e-17	-0.00165461	0.0152568	-0.0990509	-1.64799e-15	2.9525e-15
0.0138889	-1.42729e-15	-9.19403e-17	-7.51352e-16	-0.138361	-1.27293e-14
1.35661e-17	0.0188689	-2.8047e-17	0.0623596	-2.31976e-15	-3.89966e-15
1.14925e-17	4.15849e-16	0.015132	0	-3.76782e-15	3.90031e-15
0.0138889	-4.26829e-15	-5.89806e-17	1.73472e-15	-0.138364	-0.182365
7.04731e-18	0.01669	1.2807e-05	0.0540834	-1.82493e-15	-4.13558e-15
1.86483e-17	0.00165461	0.0152568	0.0990509	-4.08354e-15	4.66641e-15
0.0138889	-7.50875e-15	1.22298e-16	5.13478e-15	-0.138375	-0.364716
2.38524e-18	0.0102614	1.26702e-05	0.0313212	-1.04083e-15	-6.12878e-15
-2.34188e-17	0.00370733	0.0156397	0.207151	-5.9848e-15	5.55112e-15
0.0138889	5.07667e-15	-2.55872e-16	-5.9952e-15	-0.0922508	0.364719
8.89046e-18	0.00965866	-3.73544e-06	0.0168149	-2.74607e-15	-4.15249e-15
-1.30104e-18	-0.00281067	0.0185282	-0.229435	3.19189e-16	4.02109e-15
0.0138889	2.20483e-15	-4.94396e-17	-3.14332e-15	-0.0922454	0.182361
7.58942e-18	0.0156522	-3.78395e-06	0.0291039	-2.28203e-15	-3.407e-15
1.09504e-17	-0.00129616	0.018134	-0.111817	-1.63411e-15	3.81813e-15
0.0138889	-8.50343e-16	1.56125e-17	-3.21791e-16	-0.0922434	-7.47202e-15
1.11537e-17	0.0176739	-3.30207e-17	0.033594	-1.71201e-15	-4.996e-16
-1.0842e-19	3.91118e-16	0.0180034	2.21177e-17	-3.0323e-15	3.65468e-15
0.0138889	-3.67328e-15	1.03216e-16	2.85882e-15	-0.0922454	-0.182361
-1.0842e-19	0.0156522	3.78395e-06	0.0291039	-1.44416e-15	-3.38618e-15
4.11997e-17	0.00129616	0.018134	0.111817	-4.82253e-15	4.00201e-15
0.0138889	-6.57894e-15	1.06685e-16	6.16174e-15	-0.0922508	-0.364719
2.38524e-18	0.00965866	3.73544e-06	0.0168149	-9.14199e-16	-3.99247e-15
2.23346e-17	0.00281067	0.0185282	0.229435	-5.72459e-15	4.22232e-15
0.0138889	5.42882e-15	-1.64365e-16	-6.80012e-15	-0.0461255	0.364721
-2.29851e-17	0.00935729	-1.0025e-06	0.00732556	-1.81192e-15	-3.08054e-15
4.77049e-18	-0.0014964	0.0202595	-0.240633	9.71445e-16	5.32734e-15
0.0138889	2.63331e-15	-8.19657e-17	-3.54231e-15	-0.0461233	0.182361
-6.07153e-18	0.0151308	-1.01716e-06	0.0126856	-1.56472e-15	-2.77556e-15
9.26993e-18	-0.00070041	0.019862	-0.118268	-1.11716e-15	4.67508e-15
0.0138889	-3.09826e-16	4.64039e-17	-1.58294e-17	-0.0461225	-2.83569e-15
6.2511e-18	0.0170723	-3.28344e-17	0.0146466	-1.21748e-15	-9.99201e-16
2.08709e-17	3.92055e-16	0.0197297	3.62124e-17	-2.98025e-15	3.98352e-15
0.0138889	-3.3645e-15	7.50268e-17	3.07393e-15	-0.0461233	-0.182361
-2.71051e-18	0.0151308	1.01716e-06	0.0126856	-1.02782e-15	-9.36751e-16
2.8135e-17	0.00070041	0.019862	0.118268	-4.68722e-15	3.58914e-15
0.0138889	-6.14613e-15	8.41341e-17	6.27276e-15	-0.0461255	-0.364721
1.34441e-17	0.00935729	1.0025e-06	0.00732556	-9.88792e-16	-5.23334e-15
3.8706e-17	0.0014964	0.0202595	0.240633	-5.3707e-15	2.6975e-15
0.0138889	5.85729e-15	1.25327e-17	-7.12624e-15	1.27378e-14	0.364721
-1.34441e-17	0.00926588	-5.71866e-17	5.18899e-16	-1.01469e-15	-3.76674e-15
-5.15112e-18	6.27639e-16	0.0208364	-0.244032	1.31492e-15	6.11156e-15
0.0138889	3.27689e-15	2.07511e-17	-3.13755e-15	6.29516e-15	0.182361
-5.63785e-18	0.0149726	-5.13505e-17	2.2855e-16	-8.83954e-16	-1.12063e-15
1.35786e-17	2.89216e-16	0.0204382	-0.120229	-1.85268e-15	4.9796e-15
0.0138889	2.21148e-16	5.29243e-17	1.31731e-17	3.53087e-16	1.97435e-15
4.78404e-18	0.0168897	-4.46827e-17	-3.04661e-16	-7.20686e-16	8.32667e-16
1.59165e-17	4.5922e-16	0.0203056	-1.05168e-16	-2.99413e-15	4.24668e-15
0.0138889	-2.63071e-15	2.03447e-16	3.62145e-15	-5.51121e-15	-0.182361
1.18178e-17	0.0149726	-4.22974e-17	-1.27936e-16	-8.33526e-16	-2.11636e-15
1.60171e-17	1.84854e-16	0.0204382	0.120229	-5.02376e-15	3.47085e-15
0.0138889	-5.58147e-15	2.44732e-16	7.19932e-15	-1.18634e-14	-0.364721
1.38778e-17	0.00926588	1.46774e-17	5.23236e-16	-9.00654e-16	-2.9062e-15
2.92935e-17	-4.01007e-17	0.0208364	0.244032	-6.70644e-15	1.79533e-15
0.0138889	6.53123e-15	-3.9465e-17	-7.56339e-15	0.0461255	0.364721
-7.80626e-18	0.00935729	1.0025e-06	-0.00732556	-2.01228e-16	-3.04113e-15
1.43115e-17	0.0014964	0.0202595	-0.240633	2.08167e-16	7.18869e-15
0.0138889	3.56139e-15	-3.46945e-18	-3.41047e-15	0.0461233	0.182361
-5.42101e-18	0.0151308	1.01716e-06	-0.0126856	-1.38778e-16	-1.59595e-15
6.66784e-18	0.00070041	0.019862	-0.118268	-1.079e-15	5.67862e-15
0.0138889	7.32508e-16	1.48753e-16	3.55401e-16	0.0461225	6.57851e-15
9.72055e-18	0.0170723	-4.14758e-17	-0.0146466	-2.61388e-16	7.77156e-16
1.98951e-17	2.50745e-16	0.0197297	-4.27176e-17	-3.10862e-15	4.41924e-15
0.0138889	-2.2083e-15	2.51535e-16	3.76088e-15	0.0461233	-0.182361
1.23599e-17	0.0151308	-1.01716e-06	-0.0126856	-5.52509e-16	-2.33841e-15
3.17129e-17	-0.00070041	0.019862	0.118268	-4.75314e-15	2.40086e-15
0.0138889	-4.83728e-15	3.37837e-16	7.66054e-15	0.0461255	-0.364721
8.67362e-19	0.00935729	-1.0025e-06	-0.00732556	-1.02696e-15	-2.06616e-15
3.98444e-17	-0.0014964	0.0202595	0.240633	-6.54338e-15	4.54498e-16
0.0138889	7.17395e-15	2.60209e-17	-8.24341e-15	0.0922508	0.364719
-2.38524e-17	0.00965866	3.73544e-06	-0.0168149	6.85216e-16	-4.89279e-15
1.94072e-17	0.00281067	0.0185282	-0.229435	2.74086e-16	8.09075e-15
0.0138889	4.13385e-15	2.25514e-17	-3.2474e-15	0.0922454	0.182361
2.60209e-18	0.0156522	3.78395e-06	-0.0291039	7.12971e-16	-1.70003e-16
2.15756e-17	0.00129616	0.018134	-0.111817	-7.77156e-16	6.33001e-15
0.0138889	1.28946e-15	2.09902e-16	6.54452e-16	0.0922434	1.16924e-14
1.35661e-17	0.0176739	-1.77758e-17	-0.033594	4.55771e-16	1.56819e-15
1.89735e-17	2.10165e-16	0.0180034	2.19009e-17	-3.28557e-15	4.55153e-15
0.0138889	-1.52742e-15	1.53523e-16	4.71151e-15	0.0922454	-0.182361
3.90313e-18	0.0156522	-3.78395e-06	-0.0291039	-1.29237e-16	-9.88792e-16
2.81893e-18	-0.00129616	0.018134	0.111817	-4.75661e-15	2.67147e-15
0.0138889	-4.62391e-15	3.02709e-16	8.77076e-15	0.0922508	-0.364719
-1.51788e-18	0.00965866	-3.73544e-06	-0.0168149	-8.86444e-16	-2.5765e-15
1.9082e-17	-0.00281067	0.0185282	0.229435	-6.70297e-15	-1.249e-16
0.0138889	7.6935e-15	1.62197e-16	-7.41074e-15	0.138375	0.364716
-8.89046e-18	0.0102614	1.26702e-05	-0.0313212	1.85268e-15	-4.34375e-15
-2.60209e-18	0.00370733	0.0156397	-0.207151	2.44596e-16	8.95811e-15
0.0138889	4.88758e-15	1.68268e-16	-3.56659e-15	0.138364	0.182365
-1.30104e-18	0.01669	1.2807e-05	-0.0540834	1.60462e-15	-1.249e-16
7.58942e-18	0.00165461	0.0152568	-0.0990509	-1.38257e-15	7.0742e-15
0.0138889	1.81058e-15	2.91434e-16	8.00494e-16	0.138361	1.7071e-14
5.31259e-18	0.0188689	-3.23185e-17	-0.0623596	1.2142e-15	-5.20417e-16
1.38778e-17	4.33567e-16	0.015132	-3.67545e-17	-3.00281e-15	4.08311e-15
0.0138889	-7.96238e-16	3.09648e-16	5.41234e-15	0.138364	-0.182365
7.37257e-18	0.01669	-1.2807e-05	-0.0540834	3.38271e-16	-1.30451e-15
-1.66967e-17	-0.00165461	0.0152568	0.0990509	-4.86763e-15	2.30718e-15
0.0138889	-3.82073e-15	4.02456e-16	9.74221e-15	0.138375	-0.364716
-6.93889e-18	0.0102614	-1.26702e-05	-0.0313212	-7.14706e-16	-1.20303e-15
2.0383e-17	-0.00370733	0.0156397	0.207151	-6.36297e-15	-1.33921e-15
0.0138889	8.13152e-15	2.61076e-16	-9.71445e-15	0.184492	0.36472
-2.1684e-17	0.0113645	4.18807e-05	-0.0555659	2.72352e-15	-3.80945e-15
2.47198e-17	0.00382324	0.0115851	-0.167134	-5.06539e-16	1.03251e-14
0.0138889	5.42795e-15	1.83881e-16	-3.56659e-15	0.184476	0.182379
-5.42101e-18	0.0185513	4.22029e-05	-0.0950012	2.61943e-15	1.01308e-15
2.64545e-17	0.00160094	0.0112397	-0.0768696	-1.94571e-15	7.19563e-15
0.0138889	2.45209e-15	2.63678e-16	1.14711e-15	0.184471	2.2953e-14
1.03067e-17	0.0209854	-2.20618e-17	-0.108906	2.00859e-15	1.22125e-15
1.21431e-17	3.78204e-16	0.0111332	-2.9718e-16	-3.52669e-15	4.55197e-15
0.0138889	-4.39752e-16	3.68629e-16	5.42622e-15	0.184476	-0.182379
2.07083e-17	0.0185513	-4.22029e-05	-0.0950012	1.13451e-15	1.2837e-15
3.90313e-18	-0.00160094	0.0112397	0.0768696	-5.18747e-15	1.59248e-15
0.0138889	-3.15199e-15	4.90927e-16	1.00475e-14	0.184492	-0.36472
4.98733e-18	0.0113645	-4.18807e-05	-0.0555659	-7.14706e-16	-2.02616e-15
2.1684e-18	-0.00382324	0.0115851	0.167134	-6.62794e-15	-1.46411e-15
0.0138889	8.92689e-15	2.31586e-16	-8.65974e-15	0.230591	0.364784
-3.55618e-17	0.0134795	0.000143695	-0.100587	4.05925e-15	-2.83107e-15
5.9848e-17	0.00262532	0.00634639	-0.0987737	-2.42861e-15	1.13937e-14
0.0138889	5.97179e-15	2.77773e-16	-3.2474e-15	0.230574	0.182424
-1.07336e-17	0.0217666	0.000129144	-0.163535	4.28477e-15	1.55431e-15
-1.73472e-18	0.00100407	0.00611587	-0.0428472	-3.37924e-15	7.61891e-15
0.0138889	3.24391e-15	4.50594e-16	1.09743e-15	0.230572	3.08868e-14
4.24872e-18	0.0244893	-5.8639e-17	-0.183652	3.42369e-15	4.39926e-15
-1.9082e-17	5.4403e-16	0.00605207	1.82471e-16	-4.11129e-15	4.46762e-15
0.0138889	4.7358e-16	4.76832e-16	4.51028e-15	0.230574	-0.182424
2.0383e-17	0.0217666	-0.000129144	-0.163535	2.09381e-15	3.13638e-15
-1.25767e-17	-0.00100407	0.00611587	0.0428472	-4.89712e-15	1.84228e-15
0.0138889	-2.42081e-15	6.01515e-16	1.0103e-14	0.230591	-0.364784
1.43115e-17	0.0134795	-0.000143695	-0.100587	-4.19803e-16	-3.747e-16
-1.21431e-17	-0.00262532	0.00634639	0.0987737	-6.20858e-15	-1.9984e-15
