# Stiffness matrix at alpha = -1.01554e+197
800000000	0	-0.0002035204686	0	0	0
0	400005181.9	0.0002252561297	0	0	0
0.001107796048	0.0002557093122	693131221.1	-0.000733308688	-0.01247786447	0
0	0	-0.0007333086875	5895878.602	0	0
0	0	-0.01247786447	0.0001025812912	2666666.666	0
0	0	0	0	0	42666666.67
