# Stiffness matrix at alpha = 7.47941e-242
3215486975	1178390355	0	0	0	0.0001637737916
1178390355	1666285309	0	0	0	0
0	0.0001060562341	265928286	0	0	0
0	0	0	21123512.17	-7469231.97	0
0	0	0	-7469231.97	10581552.25	0
0.0001637737916	0	0	0	0	127047146.4
