# Stiffness matrix at alpha = 3.62218e-22
1600000000	0	0	0	0	0
0	799950136.1	0	0	0	-0.0004349807733
0	0	399899942	0	0.0002374345133	0
0	0	0	9948617.29	0	0
0	0	0.0002374345133	0	5333333.333	0
0	-0.0004349807733	0	0	0	85333333.33
