N1	0	-0.08	0.16
N2	0	-0.08	-0.16
N3	0	0.08	0.16
N4	0	0.08	-0.16
N5	0.5	-0.08	0.16
N6	0.5	-0.08	-0.16
N7	0.5	0.08	0.16
N8	0.5	0.08	-0.16
N9	0	-0.08	-0.14
N10	0	-0.08	-0.12
N11	0	-0.08	-0.1
N12	0	-0.08	-0.08
N13	0	-0.08	-0.06
N14	0	-0.08	-0.04
N15	0	-0.08	-0.02
N16	0	-0.08	0
N17	0	-0.08	0.02
N18	0	-0.08	0.04
N19	0	-0.08	0.06
N20	0	-0.08	0.08
N21	0	-0.08	0.1
N22	0	-0.08	0.12
N23	0	-0.08	0.14
N24	0	-0.06	0.16
N25	0	-0.04	0.16
N26	0	-0.02	0.16
N27	0	0	0.16
N28	0	0.02	0.16
N29	0	0.04	0.16
N30	0	0.06	0.16
N31	0	0.08	-0.14
N32	0	0.08	-0.12
N33	0	0.08	-0.1
N34	0	0.08	-0.08
N35	0	0.08	-0.06
N36	0	0.08	-0.04
N37	0	0.08	-0.02
N38	0	0.08	0
N39	0	0.08	0.02
N40	0	0.08	0.04
N41	0	0.08	0.06
N42	0	0.08	0.08
N43	0	0.08	0.1
N44	0	0.08	0.12
N45	0	0.08	0.14
N46	0	-0.06	-0.16
N47	0	-0.04	-0.16
N48	0	-0.02	-0.16
N49	0	0	-0.16
N50	0	0.02	-0.16
N51	0	0.04	-0.16
N52	0	0.06	-0.16
N53	0.5	-0.08	-0.14
N54	0.5	-0.08	-0.12
N55	0.5	-0.08	-0.1
N56	0.5	-0.08	-0.08
N57	0.5	-0.08	-0.06
N58	0.5	-0.08	-0.04
N59	0.5	-0.08	-0.02
N60	0.5	-0.08	0
N61	0.5	-0.08	0.02
N62	0.5	-0.08	0.04
N63	0.5	-0.08	0.06
N64	0.5	-0.08	0.08
N65	0.5	-0.08	0.1
N66	0.5	-0.08	0.12
N67	0.5	-0.08	0.14
N68	0.5	-0.06	0.16
N69	0.5	-0.04	0.16
N70	0.5	-0.02	0.16
N71	0.5	0	0.16
N72	0.5	0.02	0.16
N73	0.5	0.04	0.16
N74	0.5	0.06	0.16
N75	0.5	0.08	-0.14
N76	0.5	0.08	-0.12
N77	0.5	0.08	-0.1
N78	0.5	0.08	-0.08
N79	0.5	0.08	-0.06
N80	0.5	0.08	-0.04
N81	0.5	0.08	-0.02
N82	0.5	0.08	0
N83	0.5	0.08	0.02
N84	0.5	0.08	0.04
N85	0.5	0.08	0.06
N86	0.5	0.08	0.08
N87	0.5	0.08	0.1
N88	0.5	0.08	0.12
N89	0.5	0.08	0.14
N90	0.5	-0.06	-0.16
N91	0.5	-0.04	-0.16
N92	0.5	-0.02	-0.16
N93	0.5	0	-0.16
N94	0.5	0.02	-0.16
N95	0.5	0.04	-0.16
N96	0.5	0.06	-0.16
N97	0.0416667	-0.08	-0.16
N98	0.0833333	-0.08	-0.16
N99	0.125	-0.08	-0.16
N100	0.166667	-0.08	-0.16
N101	0.208333	-0.08	-0.16
N102	0.25	-0.08	-0.16
N103	0.291667	-0.08	-0.16
N104	0.333333	-0.08	-0.16
N105	0.375	-0.08	-0.16
N106	0.416667	-0.08	-0.16
N107	0.458333	-0.08	-0.16
N108	0.0416667	-0.08	0.16
N109	0.0833333	-0.08	0.16
N110	0.125	-0.08	0.16
N111	0.166667	-0.08	0.16
N112	0.208333	-0.08	0.16
N113	0.25	-0.08	0.16
N114	0.291667	-0.08	0.16
N115	0.333333	-0.08	0.16
N116	0.375	-0.08	0.16
N117	0.416667	-0.08	0.16
N118	0.458333	-0.08	0.16
N119	0.0416667	0.08	-0.16
N120	0.0833333	0.08	-0.16
N121	0.125	0.08	-0.16
N122	0.166667	0.08	-0.16
N123	0.208333	0.08	-0.16
N124	0.25	0.08	-0.16
N125	0.291667	0.08	-0.16
N126	0.333333	0.08	-0.16
N127	0.375	0.08	-0.16
N128	0.416667	0.08	-0.16
N129	0.458333	0.08	-0.16
N130	0.0416667	0.08	0.16
N131	0.0833333	0.08	0.16
N132	0.125	0.08	0.16
N133	0.166667	0.08	0.16
N134	0.208333	0.08	0.16
N135	0.25	0.08	0.16
N136	0.291667	0.08	0.16
N137	0.333333	0.08	0.16
N138	0.375	0.08	0.16
N139	0.416667	0.08	0.16
N140	0.458333	0.08	0.16
N141	0	-0.06	-0.14
N142	0	-0.04	-0.14
N143	0	-0.02	-0.14
N144	0	0	-0.14
N145	0	0.02	-0.14
N146	0	0.04	-0.14
N147	0	0.06	-0.14
N148	0	-0.06	-0.12
N149	0	-0.04	-0.12
N150	0	-0.02	-0.12
N151	0	0	-0.12
N152	0	0.02	-0.12
N153	0	0.04	-0.12
N154	0	0.06	-0.12
N155	0	-0.06	-0.1
N156	0	-0.04	-0.1
N157	0	-0.02	-0.1
N158	0	0	-0.1
N159	0	0.02	-0.1
N160	0	0.04	-0.1
N161	0	0.06	-0.1
N162	0	-0.06	-0.08
N163	0	-0.04	-0.08
N164	0	-0.02	-0.08
N165	0	0	-0.08
N166	0	0.02	-0.08
N167	0	0.04	-0.08
N168	0	0.06	-0.08
N169	0	-0.06	-0.06
N170	0	-0.04	-0.06
N171	0	-0.02	-0.06
N172	0	0	-0.06
N173	0	0.02	-0.06
N174	0	0.04	-0.06
N175	0	0.06	-0.06
N176	0	-0.06	-0.04
N177	0	-0.04	-0.04
N178	0	-0.02	-0.04
N179	0	0	-0.04
N180	0	0.02	-0.04
N181	0	0.04	-0.04
N182	0	0.06	-0.04
N183	0	-0.06	-0.02
N184	0	-0.04	-0.02
N185	0	-0.02	-0.02
N186	0	0	-0.02
N187	0	0.02	-0.02
N188	0	0.04	-0.02
N189	0	0.06	-0.02
N190	0	-0.06	5.55112e-17
N191	0	-0.04	0
N192	0	-0.02	0
N193	0	0	0
N194	0	0.02	0
N195	0	0.04	0
N196	0	0.06	0
N197	0	-0.06	0.02
N198	0	-0.04	0.02
N199	0	-0.02	0.02
N200	0	0	0.02
N201	0	0.02	0.02
N202	0	0.04	0.02
N203	0	0.06	0.02
N204	0	-0.06	0.04
N205	0	-0.04	0.04
N206	0	-0.02	0.04
N207	0	0	0.04
N208	0	0.02	0.04
N209	0	0.04	0.04
N210	0	0.06	0.04
N211	0	-0.06	0.06
N212	0	-0.04	0.06
N213	0	-0.02	0.06
N214	0	2.77556e-17	0.06
N215	0	0.02	0.06
N216	0	0.04	0.06
N217	0	0.06	0.06
N218	0	-0.06	0.08
N219	0	-0.04	0.08
N220	0	-0.02	0.08
N221	0	0	0.08
N222	0	0.02	0.08
N223	0	0.04	0.08
N224	0	0.06	0.08
N225	0	-0.06	0.1
N226	0	-0.04	0.1
N227	0	-0.02	0.1
N228	0	0	0.1
N229	0	0.02	0.1
N230	0	0.04	0.1
N231	0	0.06	0.1
N232	0	-0.06	0.12
N233	0	-0.04	0.12
N234	0	-0.02	0.12
N235	0	0	0.12
N236	0	0.02	0.12
N237	0	0.04	0.12
N238	0	0.06	0.12
N239	0	-0.06	0.14
N240	0	-0.04	0.14
N241	0	-0.02	0.14
N242	0	0	0.14
N243	0	0.02	0.14
N244	0	0.04	0.14
N245	0	0.06	0.14
N246	0.5	-0.06	0.14
N247	0.5	-0.04	0.14
N248	0.5	-0.02	0.14
N249	0.5	0	0.14
N250	0.5	0.02	0.14
N251	0.5	0.04	0.14
N252	0.5	0.06	0.14
N253	0.5	-0.06	0.12
N254	0.5	-0.04	0.12
N255	0.5	-0.02	0.12
N256	0.5	0	0.12
N257	0.5	0.02	0.12
N258	0.5	0.04	0.12
N259	0.5	0.06	0.12
N260	0.5	-0.06	0.1
N261	0.5	-0.04	0.1
N262	0.5	-0.02	0.1
N263	0.5	0	0.1
N264	0.5	0.02	0.1
N265	0.5	0.04	0.1
N266	0.5	0.06	0.1
N267	0.5	-0.06	0.08
N268	0.5	-0.04	0.08
N269	0.5	-0.02	0.08
N270	0.5	0	0.08
N271	0.5	0.02	0.08
N272	0.5	0.04	0.08
N273	0.5	0.06	0.08
N274	0.5	-0.06	0.06
N275	0.5	-0.04	0.06
N276	0.5	-0.02	0.06
N277	0.5	0	0.06
N278	0.5	0.02	0.06
N279	0.5	0.04	0.06
N280	0.5	0.06	0.06
N281	0.5	-0.06	0.04
N282	0.5	-0.04	0.04
N283	0.5	-0.02	0.04
N284	0.5	1.38778e-17	0.04
N285	0.5	0.02	0.04
N286	0.5	0.04	0.04
N287	0.5	0.06	0.04
N288	0.5	-0.06	0.02
N289	0.5	-0.04	0.02
N290	0.5	-0.02	0.02
N291	0.5	0	0.02
N292	0.5	0.02	0.02
N293	0.5	0.04	0.02
N294	0.5	0.06	0.02
N295	0.5	-0.06	0
N296	0.5	-0.04	0
N297	0.5	-0.02	0
N298	0.5	0	0
N299	0.5	0.02	0
N300	0.5	0.04	0
N301	0.5	0.06	0
N302	0.5	-0.06	-0.02
N303	0.5	-0.04	-0.02
N304	0.5	-0.02	-0.02
N305	0.5	0	-0.02
N306	0.5	0.02	-0.02
N307	0.5	0.04	-0.02
N308	0.5	0.06	-0.02
N309	0.5	-0.06	-0.04
N310	0.5	-0.04	-0.04
N311	0.5	-0.02	-0.04
N312	0.5	0	-0.04
N313	0.5	0.02	-0.04
N314	0.5	0.04	-0.04
N315	0.5	0.06	-0.04
N316	0.5	-0.06	-0.06
N317	0.5	-0.04	-0.06
N318	0.5	-0.02	-0.06
N319	0.5	0	-0.06
N320	0.5	0.02	-0.06
N321	0.5	0.04	-0.06
N322	0.5	0.06	-0.06
N323	0.5	-0.06	-0.08
N324	0.5	-0.04	-0.08
N325	0.5	-0.02	-0.08
N326	0.5	0	-0.08
N327	0.5	0.02	-0.08
N328	0.5	0.04	-0.08
N329	0.5	0.06	-0.08
N330	0.5	-0.06	-0.1
N331	0.5	-0.04	-0.1
N332	0.5	-0.02	-0.1
N333	0.5	2.77556e-17	-0.1
N334	0.5	0.02	-0.1
N335	0.5	0.04	-0.1
N336	0.5	0.06	-0.1
N337	0.5	-0.06	-0.12
N338	0.5	-0.04	-0.12
N339	0.5	-0.02	-0.12
N340	0.5	0	-0.12
N341	0.5	0.02	-0.12
N342	0.5	0.04	-0.12
N343	0.5	0.06	-0.12
N344	0.5	-0.06	-0.14
N345	0.5	-0.04	-0.14
N346	0.5	-0.02	-0.14
N347	0.5	0	-0.14
N348	0.5	0.02	-0.14
N349	0.5	0.04	-0.14
N350	0.5	0.06	-0.14
N351	0.0416667	-0.08	-0.14
N352	0.0416667	-0.08	-0.12
N353	0.0416667	-0.08	-0.1
N354	0.0416667	-0.08	-0.08
N355	0.0416667	-0.08	-0.06
N356	0.0416667	-0.08	-0.04
N357	0.0416667	-0.08	-0.02
N358	0.0416667	-0.08	0
N359	0.0416667	-0.08	0.02
N360	0.0416667	-0.08	0.04
N361	0.0416667	-0.08	0.06
N362	0.0416667	-0.08	0.08
N363	0.0416667	-0.08	0.1
N364	0.0416667	-0.08	0.12
N365	0.0416667	-0.08	0.14
N366	0.0833333	-0.08	-0.14
N367	0.0833333	-0.08	-0.12
N368	0.0833333	-0.08	-0.1
N369	0.0833333	-0.08	-0.08
N370	0.0833333	-0.08	-0.06
N371	0.0833333	-0.08	-0.04
N372	0.0833333	-0.08	-0.02
N373	0.0833333	-0.08	0
N374	0.0833333	-0.08	0.02
N375	0.0833333	-0.08	0.04
N376	0.0833333	-0.08	0.06
N377	0.0833333	-0.08	0.08
N378	0.0833333	-0.08	0.1
N379	0.0833333	-0.08	0.12
N380	0.0833333	-0.08	0.14
N381	0.125	-0.08	-0.14
N382	0.125	-0.08	-0.12
N383	0.125	-0.08	-0.1
N384	0.125	-0.08	-0.08
N385	0.125	-0.08	-0.06
N386	0.125	-0.08	-0.04
N387	0.125	-0.08	-0.02
N388	0.125	-0.08	0
N389	0.125	-0.08	0.02
N390	0.125	-0.08	0.04
N391	0.125	-0.08	0.06
N392	0.125	-0.08	0.08
N393	0.125	-0.08	0.1
N394	0.125	-0.08	0.12
N395	0.125	-0.08	0.14
N396	0.166667	-0.08	-0.14
N397	0.166667	-0.08	-0.12
N398	0.166667	-0.08	-0.1
N399	0.166667	-0.08	-0.08
N400	0.166667	-0.08	-0.06
N401	0.166667	-0.08	-0.04
N402	0.166667	-0.08	-0.02
N403	0.166667	-0.08	-2.77556e-17
N404	0.166667	-0.08	0.02
N405	0.166667	-0.08	0.04
N406	0.166667	-0.08	0.06
N407	0.166667	-0.08	0.08
N408	0.166667	-0.08	0.1
N409	0.166667	-0.08	0.12
N410	0.166667	-0.08	0.14
N411	0.208333	-0.08	-0.14
N412	0.208333	-0.08	-0.12
N413	0.208333	-0.08	-0.1
N414	0.208333	-0.08	-0.08
N415	0.208333	-0.08	-0.06
N416	0.208333	-0.08	-0.04
N417	0.208333	-0.08	-0.02
N418	0.208333	-0.08	0
N419	0.208333	-0.08	0.02
N420	0.208333	-0.08	0.04
N421	0.208333	-0.08	0.06
N422	0.208333	-0.08	0.08
N423	0.208333	-0.08	0.1
N424	0.208333	-0.08	0.12
N425	0.208333	-0.08	0.14
N426	0.25	-0.08	-0.14
N427	0.25	-0.08	-0.12
N428	0.25	-0.08	-0.1
N429	0.25	-0.08	-0.08
N430	0.25	-0.08	-0.06
N431	0.25	-0.08	-0.04
N432	0.25	-0.08	-0.02
N433	0.25	-0.08	2.77556e-17
N434	0.25	-0.08	0.02
N435	0.25	-0.08	0.04
N436	0.25	-0.08	0.06
N437	0.25	-0.08	0.08
N438	0.25	-0.08	0.1
N439	0.25	-0.08	0.12
N440	0.25	-0.08	0.14
N441	0.291667	-0.08	-0.14
N442	0.291667	-0.08	-0.12
N443	0.291667	-0.08	-0.1
N444	0.291667	-0.08	-0.08
N445	0.291667	-0.08	-0.06
N446	0.291667	-0.08	-0.04
N447	0.291667	-0.08	-0.02
N448	0.291667	-0.08	-5.55112e-17
N449	0.291667	-0.08	0.02
N450	0.291667	-0.08	0.04
N451	0.291667	-0.08	0.06
N452	0.291667	-0.08	0.08
N453	0.291667	-0.08	0.1
N454	0.291667	-0.08	0.12
N455	0.291667	-0.08	0.14
N456	0.333333	-0.08	-0.14
N457	0.333333	-0.08	-0.12
N458	0.333333	-0.08	-0.1
N459	0.333333	-0.08	-0.08
N460	0.333333	-0.08	-0.06
N461	0.333333	-0.08	-0.04
N462	0.333333	-0.08	-0.02
N463	0.333333	-0.08	0
N464	0.333333	-0.08	0.02
N465	0.333333	-0.08	0.04
N466	0.333333	-0.08	0.06
N467	0.333333	-0.08	0.08
N468	0.333333	-0.08	0.1
N469	0.333333	-0.08	0.12
N470	0.333333	-0.08	0.14
N471	0.375	-0.08	-0.14
N472	0.375	-0.08	-0.12
N473	0.375	-0.08	-0.1
N474	0.375	-0.08	-0.08
N475	0.375	-0.08	-0.06
N476	0.375	-0.08	-0.04
N477	0.375	-0.08	-0.02
N478	0.375	-0.08	0
N479	0.375	-0.08	0.02
N480	0.375	-0.08	0.04
N481	0.375	-0.08	0.06
N482	0.375	-0.08	0.08
N483	0.375	-0.08	0.1
N484	0.375	-0.08	0.12
N485	0.375	-0.08	0.14
N486	0.416667	-0.08	-0.14
N487	0.416667	-0.08	-0.12
N488	0.416667	-0.08	-0.1
N489	0.416667	-0.08	-0.08
N490	0.416667	-0.08	-0.06
N491	0.416667	-0.08	-0.04
N492	0.416667	-0.08	-0.02
N493	0.416667	-0.08	0
N494	0.416667	-0.08	0.02
N495	0.416667	-0.08	0.04
N496	0.416667	-0.08	0.06
N497	0.416667	-0.08	0.08
N498	0.416667	-0.08	0.1
N499	0.416667	-0.08	0.12
N500	0.416667	-0.08	0.14
N501	0.458333	-0.08	-0.14
N502	0.458333	-0.08	-0.12
N503	0.458333	-0.08	-0.1
N504	0.458333	-0.08	-0.08
N505	0.458333	-0.08	-0.06
N506	0.458333	-0.08	-0.04
N507	0.458333	-0.08	-0.02
N508	0.458333	-0.08	-2.77556e-17
N509	0.458333	-0.08	0.02
N510	0.458333	-0.08	0.04
N511	0.458333	-0.08	0.06
N512	0.458333	-0.08	0.08
N513	0.458333	-0.08	0.1
N514	0.458333	-0.08	0.12
N515	0.458333	-0.08	0.14
N516	0.458333	0.08	-0.14
N517	0.458333	0.08	-0.12
N518	0.458333	0.08	-0.1
N519	0.458333	0.08	-0.08
N520	0.458333	0.08	-0.06
N521	0.458333	0.08	-0.04
N522	0.458333	0.08	-0.02
N523	0.458333	0.08	2.77556e-17
N524	0.458333	0.08	0.02
N525	0.458333	0.08	0.04
N526	0.458333	0.08	0.06
N527	0.458333	0.08	0.08
N528	0.458333	0.08	0.1
N529	0.458333	0.08	0.12
N530	0.458333	0.08	0.14
N531	0.416667	0.08	-0.14
N532	0.416667	0.08	-0.12
N533	0.416667	0.08	-0.1
N534	0.416667	0.08	-0.08
N535	0.416667	0.08	-0.06
N536	0.416667	0.08	-0.04
N537	0.416667	0.08	-0.02
N538	0.416667	0.08	0
N539	0.416667	0.08	0.02
N540	0.416667	0.08	0.04
N541	0.416667	0.08	0.06
N542	0.416667	0.08	0.08
N543	0.416667	0.08	0.1
N544	0.416667	0.08	0.12
N545	0.416667	0.08	0.14
N546	0.375	0.08	-0.14
N547	0.375	0.08	-0.12
N548	0.375	0.08	-0.1
N549	0.375	0.08	-0.08
N550	0.375	0.08	-0.06
N551	0.375	0.08	-0.04
N552	0.375	0.08	-0.02
N553	0.375	0.08	0
N554	0.375	0.08	0.02
N555	0.375	0.08	0.04
N556	0.375	0.08	0.06
N557	0.375	0.08	0.08
N558	0.375	0.08	0.1
N559	0.375	0.08	0.12
N560	0.375	0.08	0.14
N561	0.333333	0.08	-0.14
N562	0.333333	0.08	-0.12
N563	0.333333	0.08	-0.1
N564	0.333333	0.08	-0.08
N565	0.333333	0.08	-0.06
N566	0.333333	0.08	-0.04
N567	0.333333	0.08	-0.02
N568	0.333333	0.08	0
N569	0.333333	0.08	0.02
N570	0.333333	0.08	0.04
N571	0.333333	0.08	0.06
N572	0.333333	0.08	0.08
N573	0.333333	0.08	0.1
N574	0.333333	0.08	0.12
N575	0.333333	0.08	0.14
N576	0.291667	0.08	-0.14
N577	0.291667	0.08	-0.12
N578	0.291667	0.08	-0.1
N579	0.291667	0.08	-0.08
N580	0.291667	0.08	-0.06
N581	0.291667	0.08	-0.04
N582	0.291667	0.08	-0.02
N583	0.291667	0.08	0
N584	0.291667	0.08	0.02
N585	0.291667	0.08	0.04
N586	0.291667	0.08	0.06
N587	0.291667	0.08	0.08
N588	0.291667	0.08	0.1
N589	0.291667	0.08	0.12
N590	0.291667	0.08	0.14
N591	0.25	0.08	-0.14
N592	0.25	0.08	-0.12
N593	0.25	0.08	-0.1
N594	0.25	0.08	-0.08
N595	0.25	0.08	-0.06
N596	0.25	0.08	-0.04
N597	0.25	0.08	-0.02
N598	0.25	0.08	0
N599	0.25	0.08	0.02
N600	0.25	0.08	0.04
N601	0.25	0.08	0.06
N602	0.25	0.08	0.08
N603	0.25	0.08	0.1
N604	0.25	0.08	0.12
N605	0.25	0.08	0.14
N606	0.208333	0.08	-0.14
N607	0.208333	0.08	-0.12
N608	0.208333	0.08	-0.1
N609	0.208333	0.08	-0.08
N610	0.208333	0.08	-0.06
N611	0.208333	0.08	-0.04
N612	0.208333	0.08	-0.02
N613	0.208333	0.08	0
N614	0.208333	0.08	0.02
N615	0.208333	0.08	0.04
N616	0.208333	0.08	0.06
N617	0.208333	0.08	0.08
N618	0.208333	0.08	0.1
N619	0.208333	0.08	0.12
N620	0.208333	0.08	0.14
N621	0.166667	0.08	-0.14
N622	0.166667	0.08	-0.12
N623	0.166667	0.08	-0.1
N624	0.166667	0.08	-0.08
N625	0.166667	0.08	-0.06
N626	0.166667	0.08	-0.04
N627	0.166667	0.08	-0.02
N628	0.166667	0.08	5.55112e-17
N629	0.166667	0.08	0.02
N630	0.166667	0.08	0.04
N631	0.166667	0.08	0.06
N632	0.166667	0.08	0.08
N633	0.166667	0.08	0.1
N634	0.166667	0.08	0.12
N635	0.166667	0.08	0.14
N636	0.125	0.08	-0.14
N637	0.125	0.08	-0.12
N638	0.125	0.08	-0.1
N639	0.125	0.08	-0.08
N640	0.125	0.08	-0.06
N641	0.125	0.08	-0.04
N642	0.125	0.08	-0.02
N643	0.125	0.08	0
N644	0.125	0.08	0.02
N645	0.125	0.08	0.04
N646	0.125	0.08	0.06
N647	0.125	0.08	0.08
N648	0.125	0.08	0.1
N649	0.125	0.08	0.12
N650	0.125	0.08	0.14
N651	0.0833333	0.08	-0.14
N652	0.0833333	0.08	-0.12
N653	0.0833333	0.08	-0.1
N654	0.0833333	0.08	-0.08
N655	0.0833333	0.08	-0.06
N656	0.0833333	0.08	-0.04
N657	0.0833333	0.08	-0.02
N658	0.0833333	0.08	0
N659	0.0833333	0.08	0.02
N660	0.0833333	0.08	0.04
N661	0.0833333	0.08	0.06
N662	0.0833333	0.08	0.08
N663	0.0833333	0.08	0.1
N664	0.0833333	0.08	0.12
N665	0.0833333	0.08	0.14
N666	0.0416667	0.08	-0.14
N667	0.0416667	0.08	-0.12
N668	0.0416667	0.08	-0.1
N669	0.0416667	0.08	-0.08
N670	0.0416667	0.08	-0.06
N671	0.0416667	0.08	-0.04
N672	0.0416667	0.08	-0.02
N673	0.0416667	0.08	0
N674	0.0416667	0.08	0.02
N675	0.0416667	0.08	0.04
N676	0.0416667	0.08	0.06
N677	0.0416667	0.08	0.08
N678	0.0416667	0.08	0.1
N679	0.0416667	0.08	0.12
N680	0.0416667	0.08	0.14
N681	0.0416667	-0.06	-0.16
N682	0.0833333	-0.06	-0.16
N683	0.125	-0.06	-0.16
N684	0.166667	-0.06	-0.16
N685	0.208333	-0.06	-0.16
N686	0.25	-0.06	-0.16
N687	0.291667	-0.06	-0.16
N688	0.333333	-0.06	-0.16
N689	0.375	-0.06	-0.16
N690	0.416667	-0.06	-0.16
N691	0.458333	-0.06	-0.16
N692	0.0416667	-0.04	-0.16
N693	0.0833333	-0.04	-0.16
N694	0.125	-0.04	-0.16
N695	0.166667	-0.04	-0.16
N696	0.208333	-0.04	-0.16
N697	0.25	-0.04	-0.16
N698	0.291667	-0.04	-0.16
N699	0.333333	-0.04	-0.16
N700	0.375	-0.04	-0.16
N701	0.416667	-0.04	-0.16
N702	0.458333	-0.04	-0.16
N703	0.0416667	-0.02	-0.16
N704	0.0833333	-0.02	-0.16
N705	0.125	-0.02	-0.16
N706	0.166667	-0.02	-0.16
N707	0.208333	-0.02	-0.16
N708	0.25	-0.02	-0.16
N709	0.291667	-0.02	-0.16
N710	0.333333	-0.02	-0.16
N711	0.375	-0.02	-0.16
N712	0.416667	-0.02	-0.16
N713	0.458333	-0.02	-0.16
N714	0.0416667	-2.77556e-17	-0.16
N715	0.0833333	0	-0.16
N716	0.125	0	-0.16
N717	0.166667	1.38778e-17	-0.16
N718	0.208333	0	-0.16
N719	0.25	-1.38778e-17	-0.16
N720	0.291667	0	-0.16
N721	0.333333	0	-0.16
N722	0.375	0	-0.16
N723	0.416667	0	-0.16
N724	0.458333	1.38778e-17	-0.16
N725	0.0416667	0.02	-0.16
N726	0.0833333	0.02	-0.16
N727	0.125	0.02	-0.16
N728	0.166667	0.02	-0.16
N729	0.208333	0.02	-0.16
N730	0.25	0.02	-0.16
N731	0.291667	0.02	-0.16
N732	0.333333	0.02	-0.16
N733	0.375	0.02	-0.16
N734	0.416667	0.02	-0.16
N735	0.458333	0.02	-0.16
N736	0.0416667	0.04	-0.16
N737	0.0833333	0.04	-0.16
N738	0.125	0.04	-0.16
N739	0.166667	0.04	-0.16
N740	0.208333	0.04	-0.16
N741	0.25	0.04	-0.16
N742	0.291667	0.04	-0.16
N743	0.333333	0.04	-0.16
N744	0.375	0.04	-0.16
N745	0.416667	0.04	-0.16
N746	0.458333	0.04	-0.16
N747	0.0416667	0.06	-0.16
N748	0.0833333	0.06	-0.16
N749	0.125	0.06	-0.16
N750	0.166667	0.06	-0.16
N751	0.208333	0.06	-0.16
N752	0.25	0.06	-0.16
N753	0.291667	0.06	-0.16
N754	0.333333	0.06	-0.16
N755	0.375	0.06	-0.16
N756	0.416667	0.06	-0.16
N757	0.458333	0.06	-0.16
N758	0.0416667	0.06	0.16
N759	0.0833333	0.06	0.16
N760	0.125	0.06	0.16
N761	0.166667	0.06	0.16
N762	0.208333	0.06	0.16
N763	0.25	0.06	0.16
N764	0.291667	0.06	0.16
N765	0.333333	0.06	0.16
N766	0.375	0.06	0.16
N767	0.416667	0.06	0.16
N768	0.458333	0.06	0.16
N769	0.0416667	0.04	0.16
N770	0.0833333	0.04	0.16
N771	0.125	0.04	0.16
N772	0.166667	0.04	0.16
N773	0.208333	0.04	0.16
N774	0.25	0.04	0.16
N775	0.291667	0.04	0.16
N776	0.333333	0.04	0.16
N777	0.375	0.04	0.16
N778	0.416667	0.04	0.16
N779	0.458333	0.04	0.16
N780	0.0416667	0.02	0.16
N781	0.0833333	0.02	0.16
N782	0.125	0.02	0.16
N783	0.166667	0.02	0.16
N784	0.208333	0.02	0.16
N785	0.25	0.02	0.16
N786	0.291667	0.02	0.16
N787	0.333333	0.02	0.16
N788	0.375	0.02	0.16
N789	0.416667	0.02	0.16
N790	0.458333	0.02	0.16
N791	0.0416667	0	0.16
N792	0.0833333	0	0.16
N793	0.125	0	0.16
N794	0.166667	1.38778e-17	0.16
N795	0.208333	0	0.16
N796	0.25	-1.38778e-17	0.16
N797	0.291667	0	0.16
N798	0.333333	0	0.16
N799	0.375	0	0.16
N800	0.416667	0	0.16
N801	0.458333	1.38778e-17	0.16
N802	0.0416667	-0.02	0.16
N803	0.0833333	-0.02	0.16
N804	0.125	-0.02	0.16
N805	0.166667	-0.02	0.16
N806	0.208333	-0.02	0.16
N807	0.25	-0.02	0.16
N808	0.291667	-0.02	0.16
N809	0.333333	-0.02	0.16
N810	0.375	-0.02	0.16
N811	0.416667	-0.02	0.16
N812	0.458333	-0.02	0.16
N813	0.0416667	-0.04	0.16
N814	0.0833333	-0.04	0.16
N815	0.125	-0.04	0.16
N816	0.166667	-0.04	0.16
N817	0.208333	-0.04	0.16
N818	0.25	-0.04	0.16
N819	0.291667	-0.04	0.16
N820	0.333333	-0.04	0.16
N821	0.375	-0.04	0.16
N822	0.416667	-0.04	0.16
N823	0.458333	-0.04	0.16
N824	0.0416667	-0.06	0.16
N825	0.0833333	-0.06	0.16
N826	0.125	-0.06	0.16
N827	0.166667	-0.06	0.16
N828	0.208333	-0.06	0.16
N829	0.25	-0.06	0.16
N830	0.291667	-0.06	0.16
N831	0.333333	-0.06	0.16
N832	0.375	-0.06	0.16
N833	0.416667	-0.06	0.16
N834	0.458333	-0.06	0.16
N835	0.0416667	-0.06	0.14
N836	0.0833333	-0.06	0.14
N837	0.125	-0.06	0.14
N838	0.166667	-0.06	0.14
N839	0.208333	-0.06	0.14
N840	0.25	-0.06	0.14
N841	0.291667	-0.06	0.14
N842	0.333333	-0.06	0.14
N843	0.375	-0.06	0.14
N844	0.416667	-0.06	0.14
N845	0.458333	-0.06	0.14
N846	0.0416667	-0.04	0.14
N847	0.0833333	-0.04	0.14
N848	0.125	-0.04	0.14
N849	0.166667	-0.04	0.14
N850	0.208333	-0.04	0.14
N851	0.25	-0.04	0.14
N852	0.291667	-0.04	0.14
N853	0.333333	-0.04	0.14
N854	0.375	-0.04	0.14
N855	0.416667	-0.04	0.14
N856	0.458333	-0.04	0.14
N857	0.0416667	-0.02	0.14
N858	0.0833333	-0.02	0.14
N859	0.125	-0.02	0.14
N860	0.166667	-0.02	0.14
N861	0.208333	-0.02	0.14
N862	0.25	-0.02	0.14
N863	0.291667	-0.02	0.14
N864	0.333333	-0.02	0.14
N865	0.375	-0.02	0.14
N866	0.416667	-0.02	0.14
N867	0.458333	-0.02	0.14
N868	0.0416667	0	0.14
N869	0.0833333	0	0.14
N870	0.125	0	0.14
N871	0.166667	1.38778e-17	0.14
N872	0.208333	0	0.14
N873	0.25	-1.38778e-17	0.14
N874	0.291667	0	0.14
N875	0.333333	0	0.14
N876	0.375	0	0.14
N877	0.416667	0	0.14
N878	0.458333	1.38778e-17	0.14
N879	0.0416667	0.02	0.14
N880	0.0833333	0.02	0.14
N881	0.125	0.02	0.14
N882	0.166667	0.02	0.14
N883	0.208333	0.02	0.14
N884	0.25	0.02	0.14
N885	0.291667	0.02	0.14
N886	0.333333	0.02	0.14
N887	0.375	0.02	0.14
N888	0.416667	0.02	0.14
N889	0.458333	0.02	0.14
N890	0.0416667	0.04	0.14
N891	0.0833333	0.04	0.14
N892	0.125	0.04	0.14
N893	0.166667	0.04	0.14
N894	0.208333	0.04	0.14
N895	0.25	0.04	0.14
N896	0.291667	0.04	0.14
N897	0.333333	0.04	0.14
N898	0.375	0.04	0.14
N899	0.416667	0.04	0.14
N900	0.458333	0.04	0.14
N901	0.0416667	0.06	0.14
N902	0.0833333	0.06	0.14
N903	0.125	0.06	0.14
N904	0.166667	0.06	0.14
N905	0.208333	0.06	0.14
N906	0.25	0.06	0.14
N907	0.291667	0.06	0.14
N908	0.333333	0.06	0.14
N909	0.375	0.06	0.14
N910	0.416667	0.06	0.14
N911	0.458333	0.06	0.14
N912	0.0416667	-0.06	0.12
N913	0.0833333	-0.06	0.12
N914	0.125	-0.06	0.12
N915	0.166667	-0.06	0.12
N916	0.208333	-0.06	0.12
N917	0.25	-0.06	0.12
N918	0.291667	-0.06	0.12
N919	0.333333	-0.06	0.12
N920	0.375	-0.06	0.12
N921	0.416667	-0.06	0.12
N922	0.458333	-0.06	0.12
N923	0.0416667	-0.04	0.12
N924	0.0833333	-0.04	0.12
N925	0.125	-0.04	0.12
N926	0.166667	-0.04	0.12
N927	0.208333	-0.04	0.12
N928	0.25	-0.04	0.12
N929	0.291667	-0.04	0.12
N930	0.333333	-0.04	0.12
N931	0.375	-0.04	0.12
N932	0.416667	-0.04	0.12
N933	0.458333	-0.04	0.12
N934	0.0416667	-0.02	0.12
N935	0.0833333	-0.02	0.12
N936	0.125	-0.02	0.12
N937	0.166667	-0.02	0.12
N938	0.208333	-0.02	0.12
N939	0.25	-0.02	0.12
N940	0.291667	-0.02	0.12
N941	0.333333	-0.02	0.12
N942	0.375	-0.02	0.12
N943	0.416667	-0.02	0.12
N944	0.458333	-0.02	0.12
N945	0.0416667	-6.93889e-18	0.12
N946	0.0833333	0	0.12
N947	0.125	0	0.12
N948	0.166667	1.38778e-17	0.12
N949	0.208333	0	0.12
N950	0.25	-1.38778e-17	0.12
N951	0.291667	0	0.12
N952	0.333333	0	0.12
N953	0.375	0	0.12
N954	0.416667	0	0.12
N955	0.458333	1.38778e-17	0.12
N956	0.0416667	0.02	0.12
N957	0.0833333	0.02	0.12
N958	0.125	0.02	0.12
N959	0.166667	0.02	0.12
N960	0.208333	0.02	0.12
N961	0.25	0.02	0.12
N962	0.291667	0.02	0.12
N963	0.333333	0.02	0.12
N964	0.375	0.02	0.12
N965	0.416667	0.02	0.12
N966	0.458333	0.02	0.12
N967	0.0416667	0.04	0.12
N968	0.0833333	0.04	0.12
N969	0.125	0.04	0.12
N970	0.166667	0.04	0.12
N971	0.208333	0.04	0.12
N972	0.25	0.04	0.12
N973	0.291667	0.04	0.12
N974	0.333333	0.04	0.12
N975	0.375	0.04	0.12
N976	0.416667	0.04	0.12
N977	0.458333	0.04	0.12
N978	0.0416667	0.06	0.12
N979	0.0833333	0.06	0.12
N980	0.125	0.06	0.12
N981	0.166667	0.06	0.12
N982	0.208333	0.06	0.12
N983	0.25	0.06	0.12
N984	0.291667	0.06	0.12
N985	0.333333	0.06	0.12
N986	0.375	0.06	0.12
N987	0.416667	0.06	0.12
N988	0.458333	0.06	0.12
N989	0.0416667	-0.06	0.1
N990	0.0833333	-0.06	0.1
N991	0.125	-0.06	0.1
N992	0.166667	-0.06	0.1
N993	0.208333	-0.06	0.1
N994	0.25	-0.06	0.1
N995	0.291667	-0.06	0.1
N996	0.333333	-0.06	0.1
N997	0.375	-0.06	0.1
N998	0.416667	-0.06	0.1
N999	0.458333	-0.06	0.1
N1000	0.0416667	-0.04	0.1
N1001	0.0833333	-0.04	0.1
N1002	0.125	-0.04	0.1
N1003	0.166667	-0.04	0.1
N1004	0.208333	-0.04	0.1
N1005	0.25	-0.04	0.1
N1006	0.291667	-0.04	0.1
N1007	0.333333	-0.04	0.1
N1008	0.375	-0.04	0.1
N1009	0.416667	-0.04	0.1
N1010	0.458333	-0.04	0.1
N1011	0.0416667	-0.02	0.1
N1012	0.0833333	-0.02	0.1
N1013	0.125	-0.02	0.1
N1014	0.166667	-0.02	0.1
N1015	0.208333	-0.02	0.1
N1016	0.25	-0.02	0.1
N1017	0.291667	-0.02	0.1
N1018	0.333333	-0.02	0.1
N1019	0.375	-0.02	0.1
N1020	0.416667	-0.02	0.1
N1021	0.458333	-0.02	0.1
N1022	0.0416667	-6.93889e-18	0.1
N1023	0.0833333	0	0.1
N1024	0.125	0	0.1
N1025	0.166667	1.38778e-17	0.1
N1026	0.208333	0	0.1
N1027	0.25	-1.38778e-17	0.1
N1028	0.291667	0	0.1
N1029	0.333333	0	0.1
N1030	0.375	0	0.1
N1031	0.416667	0	0.1
N1032	0.458333	1.38778e-17	0.1
N1033	0.0416667	0.02	0.1
N1034	0.0833333	0.02	0.1
N1035	0.125	0.02	0.1
N1036	0.166667	0.02	0.1
N1037	0.208333	0.02	0.1
N1038	0.25	0.02	0.1
N1039	0.291667	0.02	0.1
N1040	0.333333	0.02	0.1
N1041	0.375	0.02	0.1
N1042	0.416667	0.02	0.1
N1043	0.458333	0.02	0.1
N1044	0.0416667	0.04	0.1
N1045	0.0833333	0.04	0.1
N1046	0.125	0.04	0.1
N1047	0.166667	0.04	0.1
N1048	0.208333	0.04	0.1
N1049	0.25	0.04	0.1
N1050	0.291667	0.04	0.1
N1051	0.333333	0.04	0.1
N1052	0.375	0.04	0.1
N1053	0.416667	0.04	0.1
N1054	0.458333	0.04	0.1
N1055	0.0416667	0.06	0.1
N1056	0.0833333	0.06	0.1
N1057	0.125	0.06	0.1
N1058	0.166667	0.06	0.1
N1059	0.208333	0.06	0.1
N1060	0.25	0.06	0.1
N1061	0.291667	0.06	0.1
N1062	0.333333	0.06	0.1
N1063	0.375	0.06	0.1
N1064	0.416667	0.06	0.1
N1065	0.458333	0.06	0.1
N1066	0.0416667	-0.06	0.08
N1067	0.0833333	-0.06	0.08
N1068	0.125	-0.06	0.08
N1069	0.166667	-0.06	0.08
N1070	0.208333	-0.06	0.08
N1071	0.25	-0.06	0.08
N1072	0.291667	-0.06	0.08
N1073	0.333333	-0.06	0.08
N1074	0.375	-0.06	0.08
N1075	0.416667	-0.06	0.08
N1076	0.458333	-0.06	0.08
N1077	0.0416667	-0.04	0.08
N1078	0.0833333	-0.04	0.08
N1079	0.125	-0.04	0.08
N1080	0.166667	-0.04	0.08
N1081	0.208333	-0.04	0.08
N1082	0.25	-0.04	0.08
N1083	0.291667	-0.04	0.08
N1084	0.333333	-0.04	0.08
N1085	0.375	-0.04	0.08
N1086	0.416667	-0.04	0.08
N1087	0.458333	-0.04	0.08
N1088	0.0416667	-0.02	0.08
N1089	0.0833333	-0.02	0.08
N1090	0.125	-0.02	0.08
N1091	0.166667	-0.02	0.08
N1092	0.208333	-0.02	0.08
N1093	0.25	-0.02	0.08
N1094	0.291667	-0.02	0.08
N1095	0.333333	-0.02	0.08
N1096	0.375	-0.02	0.08
N1097	0.416667	-0.02	0.08
N1098	0.458333	-0.02	0.08
N1099	0.0416667	-6.93889e-18	0.08
N1100	0.0833333	0	0.08
N1101	0.125	0	0.08
N1102	0.166667	1.38778e-17	0.08
N1103	0.208333	0	0.08
N1104	0.25	-1.38778e-17	0.08
N1105	0.291667	0	0.08
N1106	0.333333	0	0.08
N1107	0.375	0	0.08
N1108	0.416667	0	0.08
N1109	0.458333	1.38778e-17	0.08
N1110	0.0416667	0.02	0.08
N1111	0.0833333	0.02	0.08
N1112	0.125	0.02	0.08
N1113	0.166667	0.02	0.08
N1114	0.208333	0.02	0.08
N1115	0.25	0.02	0.08
N1116	0.291667	0.02	0.08
N1117	0.333333	0.02	0.08
N1118	0.375	0.02	0.08
N1119	0.416667	0.02	0.08
N1120	0.458333	0.02	0.08
N1121	0.0416667	0.04	0.08
N1122	0.0833333	0.04	0.08
N1123	0.125	0.04	0.08
N1124	0.166667	0.04	0.08
N1125	0.208333	0.04	0.08
N1126	0.25	0.04	0.08
N1127	0.291667	0.04	0.08
N1128	0.333333	0.04	0.08
N1129	0.375	0.04	0.08
N1130	0.416667	0.04	0.08
N1131	0.458333	0.04	0.08
N1132	0.0416667	0.06	0.08
N1133	0.0833333	0.06	0.08
N1134	0.125	0.06	0.08
N1135	0.166667	0.06	0.08
N1136	0.208333	0.06	0.08
N1137	0.25	0.06	0.08
N1138	0.291667	0.06	0.08
N1139	0.333333	0.06	0.08
N1140	0.375	0.06	0.08
N1141	0.416667	0.06	0.08
N1142	0.458333	0.06	0.08
N1143	0.0416667	-0.06	0.06
N1144	0.0833333	-0.06	0.06
N1145	0.125	-0.06	0.06
N1146	0.166667	-0.06	0.06
N1147	0.208333	-0.06	0.06
N1148	0.25	-0.06	0.06
N1149	0.291667	-0.06	0.06
N1150	0.333333	-0.06	0.06
N1151	0.375	-0.06	0.06
N1152	0.416667	-0.06	0.06
N1153	0.458333	-0.06	0.06
N1154	0.0416667	-0.04	0.06
N1155	0.0833333	-0.04	0.06
N1156	0.125	-0.04	0.06
N1157	0.166667	-0.04	0.06
N1158	0.208333	-0.04	0.06
N1159	0.25	-0.04	0.06
N1160	0.291667	-0.04	0.06
N1161	0.333333	-0.04	0.06
N1162	0.375	-0.04	0.06
N1163	0.416667	-0.04	0.06
N1164	0.458333	-0.04	0.06
N1165	0.0416667	-0.02	0.06
N1166	0.0833333	-0.02	0.06
N1167	0.125	-0.02	0.06
N1168	0.166667	-0.02	0.06
N1169	0.208333	-0.02	0.06
N1170	0.25	-0.02	0.06
N1171	0.291667	-0.02	0.06
N1172	0.333333	-0.02	0.06
N1173	0.375	-0.02	0.06
N1174	0.416667	-0.02	0.06
N1175	0.458333	-0.02	0.06
N1176	0.0416667	1.85037e-17	0.06
N1177	0.0833333	2.31296e-17	0.06
N1178	0.125	2.08167e-17	0.06
N1179	0.166667	3.23815e-17	0.06
N1180	0.208333	1.61908e-17	0.06
N1181	0.25	0	0.06
N1182	0.291667	1.15648e-17	0.06
N1183	0.333333	9.25186e-18	0.06
N1184	0.375	6.93889e-18	0.06
N1185	0.416667	4.62593e-18	0.06
N1186	0.458333	1.61908e-17	0.06
N1187	0.0416667	0.02	0.06
N1188	0.0833333	0.02	0.06
N1189	0.125	0.02	0.06
N1190	0.166667	0.02	0.06
N1191	0.208333	0.02	0.06
N1192	0.25	0.02	0.06
N1193	0.291667	0.02	0.06
N1194	0.333333	0.02	0.06
N1195	0.375	0.02	0.06
N1196	0.416667	0.02	0.06
N1197	0.458333	0.02	0.06
N1198	0.0416667	0.04	0.06
N1199	0.0833333	0.04	0.06
N1200	0.125	0.04	0.06
N1201	0.166667	0.04	0.06
N1202	0.208333	0.04	0.06
N1203	0.25	0.04	0.06
N1204	0.291667	0.04	0.06
N1205	0.333333	0.04	0.06
N1206	0.375	0.04	0.06
N1207	0.416667	0.04	0.06
N1208	0.458333	0.04	0.06
N1209	0.0416667	0.06	0.06
N1210	0.0833333	0.06	0.06
N1211	0.125	0.06	0.06
N1212	0.166667	0.06	0.06
N1213	0.208333	0.06	0.06
N1214	0.25	0.06	0.06
N1215	0.291667	0.06	0.06
N1216	0.333333	0.06	0.06
N1217	0.375	0.06	0.06
N1218	0.416667	0.06	0.06
N1219	0.458333	0.06	0.06
N1220	0.0416667	-0.06	0.04
N1221	0.0833333	-0.06	0.04
N1222	0.125	-0.06	0.04
N1223	0.166667	-0.06	0.04
N1224	0.208333	-0.06	0.04
N1225	0.25	-0.06	0.04
N1226	0.291667	-0.06	0.04
N1227	0.333333	-0.06	0.04
N1228	0.375	-0.06	0.04
N1229	0.416667	-0.06	0.04
N1230	0.458333	-0.06	0.04
N1231	0.0416667	-0.04	0.04
N1232	0.0833333	-0.04	0.04
N1233	0.125	-0.04	0.04
N1234	0.166667	-0.04	0.04
N1235	0.208333	-0.04	0.04
N1236	0.25	-0.04	0.04
N1237	0.291667	-0.04	0.04
N1238	0.333333	-0.04	0.04
N1239	0.375	-0.04	0.04
N1240	0.416667	-0.04	0.04
N1241	0.458333	-0.04	0.04
N1242	0.0416667	-0.02	0.04
N1243	0.0833333	-0.02	0.04
N1244	0.125	-0.02	0.04
N1245	0.166667	-0.02	0.04
N1246	0.208333	-0.02	0.04
N1247	0.25	-0.02	0.04
N1248	0.291667	-0.02	0.04
N1249	0.333333	-0.02	0.04
N1250	0.375	-0.02	0.04
N1251	0.416667	-0.02	0.04
N1252	0.458333	-0.02	0.04
N1253	0.0416667	-1.27213e-17	0.04
N1254	0.0833333	2.31296e-18	0.04
N1255	0.125	3.46945e-18	0.04
N1256	0.166667	1.85037e-17	0.04
N1257	0.208333	5.78241e-18	0.04
N1258	0.25	-6.93889e-18	0.04
N1259	0.291667	8.09538e-18	0.04
N1260	0.333333	9.25186e-18	0.04
N1261	0.375	1.04083e-17	0.04
N1262	0.416667	1.15648e-17	0.04
N1263	0.458333	2.65991e-17	0.04
N1264	0.0416667	0.02	0.04
N1265	0.0833333	0.02	0.04
N1266	0.125	0.02	0.04
N1267	0.166667	0.02	0.04
N1268	0.208333	0.02	0.04
N1269	0.25	0.02	0.04
N1270	0.291667	0.02	0.04
N1271	0.333333	0.02	0.04
N1272	0.375	0.02	0.04
N1273	0.416667	0.02	0.04
N1274	0.458333	0.02	0.04
N1275	0.0416667	0.04	0.04
N1276	0.0833333	0.04	0.04
N1277	0.125	0.04	0.04
N1278	0.166667	0.04	0.04
N1279	0.208333	0.04	0.04
N1280	0.25	0.04	0.04
N1281	0.291667	0.04	0.04
N1282	0.333333	0.04	0.04
N1283	0.375	0.04	0.04
N1284	0.416667	0.04	0.04
N1285	0.458333	0.04	0.04
N1286	0.0416667	0.06	0.04
N1287	0.0833333	0.06	0.04
N1288	0.125	0.06	0.04
N1289	0.166667	0.06	0.04
N1290	0.208333	0.06	0.04
N1291	0.25	0.06	0.04
N1292	0.291667	0.06	0.04
N1293	0.333333	0.06	0.04
N1294	0.375	0.06	0.04
N1295	0.416667	0.06	0.04
N1296	0.458333	0.06	0.04
N1297	0.0416667	-0.06	0.02
N1298	0.0833333	-0.06	0.02
N1299	0.125	-0.06	0.02
N1300	0.166667	-0.06	0.02
N1301	0.208333	-0.06	0.02
N1302	0.25	-0.06	0.02
N1303	0.291667	-0.06	0.02
N1304	0.333333	-0.06	0.02
N1305	0.375	-0.06	0.02
N1306	0.416667	-0.06	0.02
N1307	0.458333	-0.06	0.02
N1308	0.0416667	-0.04	0.02
N1309	0.0833333	-0.04	0.02
N1310	0.125	-0.04	0.02
N1311	0.166667	-0.04	0.02
N1312	0.208333	-0.04	0.02
N1313	0.25	-0.04	0.02
N1314	0.291667	-0.04	0.02
N1315	0.333333	-0.04	0.02
N1316	0.375	-0.04	0.02
N1317	0.416667	-0.04	0.02
N1318	0.458333	-0.04	0.02
N1319	0.0416667	-0.02	0.02
N1320	0.0833333	-0.02	0.02
N1321	0.125	-0.02	0.02
N1322	0.166667	-0.02	0.02
N1323	0.208333	-0.02	0.02
N1324	0.25	-0.02	0.02
N1325	0.291667	-0.02	0.02
N1326	0.333333	-0.02	0.02
N1327	0.375	-0.02	0.02
N1328	0.416667	-0.02	0.02
N1329	0.458333	-0.02	0.02
N1330	0.0416667	-1.38778e-17	0.02
N1331	0.0833333	0	0.02
N1332	0.125	0	0.02
N1333	0.166667	1.38778e-17	0.02
N1334	0.208333	0	0.02
N1335	0.25	-1.38778e-17	0.02
N1336	0.291667	0	0.02
N1337	0.333333	0	0.02
N1338	0.375	0	0.02
N1339	0.416667	0	0.02
N1340	0.458333	1.38778e-17	0.02
N1341	0.0416667	0.02	0.02
N1342	0.0833333	0.02	0.02
N1343	0.125	0.02	0.02
N1344	0.166667	0.02	0.02
N1345	0.208333	0.02	0.02
N1346	0.25	0.02	0.02
N1347	0.291667	0.02	0.02
N1348	0.333333	0.02	0.02
N1349	0.375	0.02	0.02
N1350	0.416667	0.02	0.02
N1351	0.458333	0.02	0.02
N1352	0.0416667	0.04	0.02
N1353	0.0833333	0.04	0.02
N1354	0.125	0.04	0.02
N1355	0.166667	0.04	0.02
N1356	0.208333	0.04	0.02
N1357	0.25	0.04	0.02
N1358	0.291667	0.04	0.02
N1359	0.333333	0.04	0.02
N1360	0.375	0.04	0.02
N1361	0.416667	0.04	0.02
N1362	0.458333	0.04	0.02
N1363	0.0416667	0.06	0.02
N1364	0.0833333	0.06	0.02
N1365	0.125	0.06	0.02
N1366	0.166667	0.06	0.02
N1367	0.208333	0.06	0.02
N1368	0.25	0.06	0.02
N1369	0.291667	0.06	0.02
N1370	0.333333	0.06	0.02
N1371	0.375	0.06	0.02
N1372	0.416667	0.06	0.02
N1373	0.458333	0.06	0.02
N1374	0.0416667	-0.06	5.55112e-17
N1375	0.0833333	-0.06	4.16334e-17
N1376	0.125	-0.06	4.16334e-17
N1377	0.166667	-0.06	1.38778e-17
N1378	0.208333	-0.06	2.77556e-17
N1379	0.25	-0.06	5.55112e-17
N1380	0.291667	-0.06	-2.77556e-17
N1381	0.333333	-0.06	1.38778e-17
N1382	0.375	-0.06	1.38778e-17
N1383	0.416667	-0.06	1.38778e-17
N1384	0.458333	-0.06	-1.38778e-17
N1385	0.0416667	-0.04	6.16298e-33
N1386	0.0833333	-0.04	0
N1387	0.125	-0.04	0
N1388	0.166667	-0.04	-1.38778e-17
N1389	0.208333	-0.04	0
N1390	0.25	-0.04	2.77556e-17
N1391	0.291667	-0.04	-4.16334e-17
N1392	0.333333	-0.04	0
N1393	0.375	-0.04	0
N1394	0.416667	-0.04	0
N1395	0.458333	-0.04	-1.38778e-17
N1396	0.0416667	-0.02	0
N1397	0.0833333	-0.02	0
N1398	0.125	-0.02	0
N1399	0.166667	-0.02	0
N1400	0.208333	-0.02	0
N1401	0.25	-0.02	1.38778e-17
N1402	0.291667	-0.02	-4.16334e-17
N1403	0.333333	-0.02	0
N1404	0.375	-0.02	0
N1405	0.416667	-0.02	0
N1406	0.458333	-0.02	-1.38778e-17
N1407	0.0416667	-1.38778e-17	0
N1408	0.0833333	0	0
N1409	0.125	0	0
N1410	0.166667	1.38778e-17	1.38778e-17
N1411	0.208333	0	0
N1412	0.25	-1.38778e-17	1.38778e-17
N1413	0.291667	0	-2.77556e-17
N1414	0.333333	0	0
N1415	0.375	0	0
N1416	0.416667	0	0
N1417	0.458333	1.38778e-17	0
N1418	0.0416667	0.02	0
N1419	0.0833333	0.02	0
N1420	0.125	0.02	0
N1421	0.166667	0.02	2.77556e-17
N1422	0.208333	0.02	0
N1423	0.25	0.02	1.38778e-17
N1424	0.291667	0.02	-1.38778e-17
N1425	0.333333	0.02	0
N1426	0.375	0.02	0
N1427	0.416667	0.02	0
N1428	0.458333	0.02	1.38778e-17
N1429	0.0416667	0.04	0
N1430	0.0833333	0.04	0
N1431	0.125	0.04	0
N1432	0.166667	0.04	2.77556e-17
N1433	0.208333	0.04	0
N1434	0.25	0.04	0
N1435	0.291667	0.04	-1.38778e-17
N1436	0.333333	0.04	0
N1437	0.375	0.04	0
N1438	0.416667	0.04	0
N1439	0.458333	0.04	1.38778e-17
N1440	0.0416667	0.06	6.16298e-33
N1441	0.0833333	0.06	0
N1442	0.125	0.06	0
N1443	0.166667	0.06	4.16334e-17
N1444	0.208333	0.06	0
N1445	0.25	0.06	0
N1446	0.291667	0.06	0
N1447	0.333333	0.06	0
N1448	0.375	0.06	0
N1449	0.416667	0.06	0
N1450	0.458333	0.06	2.77556e-17
N1451	0.0416667	-0.06	-0.02
N1452	0.0833333	-0.06	-0.02
N1453	0.125	-0.06	-0.02
N1454	0.166667	-0.06	-0.02
N1455	0.208333	-0.06	-0.02
N1456	0.25	-0.06	-0.02
N1457	0.291667	-0.06	-0.02
N1458	0.333333	-0.06	-0.02
N1459	0.375	-0.06	-0.02
N1460	0.416667	-0.06	-0.02
N1461	0.458333	-0.06	-0.02
N1462	0.0416667	-0.04	-0.02
N1463	0.0833333	-0.04	-0.02
N1464	0.125	-0.04	-0.02
N1465	0.166667	-0.04	-0.02
N1466	0.208333	-0.04	-0.02
N1467	0.25	-0.04	-0.02
N1468	0.291667	-0.04	-0.02
N1469	0.333333	-0.04	-0.02
N1470	0.375	-0.04	-0.02
N1471	0.416667	-0.04	-0.02
N1472	0.458333	-0.04	-0.02
N1473	0.0416667	-0.02	-0.02
N1474	0.0833333	-0.02	-0.02
N1475	0.125	-0.02	-0.02
N1476	0.166667	-0.02	-0.02
N1477	0.208333	-0.02	-0.02
N1478	0.25	-0.02	-0.02
N1479	0.291667	-0.02	-0.02
N1480	0.333333	-0.02	-0.02
N1481	0.375	-0.02	-0.02
N1482	0.416667	-0.02	-0.02
N1483	0.458333	-0.02	-0.02
N1484	0.0416667	-1.38778e-17	-0.02
N1485	0.0833333	0	-0.02
N1486	0.125	0	-0.02
N1487	0.166667	1.38778e-17	-0.02
N1488	0.208333	0	-0.02
N1489	0.25	-1.38778e-17	-0.02
N1490	0.291667	0	-0.02
N1491	0.333333	0	-0.02
N1492	0.375	0	-0.02
N1493	0.416667	0	-0.02
N1494	0.458333	1.38778e-17	-0.02
N1495	0.0416667	0.02	-0.02
N1496	0.0833333	0.02	-0.02
N1497	0.125	0.02	-0.02
N1498	0.166667	0.02	-0.02
N1499	0.208333	0.02	-0.02
N1500	0.25	0.02	-0.02
N1501	0.291667	0.02	-0.02
N1502	0.333333	0.02	-0.02
N1503	0.375	0.02	-0.02
N1504	0.416667	0.02	-0.02
N1505	0.458333	0.02	-0.02
N1506	0.0416667	0.04	-0.02
N1507	0.0833333	0.04	-0.02
N1508	0.125	0.04	-0.02
N1509	0.166667	0.04	-0.02
N1510	0.208333	0.04	-0.02
N1511	0.25	0.04	-0.02
N1512	0.291667	0.04	-0.02
N1513	0.333333	0.04	-0.02
N1514	0.375	0.04	-0.02
N1515	0.416667	0.04	-0.02
N1516	0.458333	0.04	-0.02
N1517	0.0416667	0.06	-0.02
N1518	0.0833333	0.06	-0.02
N1519	0.125	0.06	-0.02
N1520	0.166667	0.06	-0.02
N1521	0.208333	0.06	-0.02
N1522	0.25	0.06	-0.02
N1523	0.291667	0.06	-0.02
N1524	0.333333	0.06	-0.02
N1525	0.375	0.06	-0.02
N1526	0.416667	0.06	-0.02
N1527	0.458333	0.06	-0.02
N1528	0.0416667	-0.06	-0.04
N1529	0.0833333	-0.06	-0.04
N1530	0.125	-0.06	-0.04
N1531	0.166667	-0.06	-0.04
N1532	0.208333	-0.06	-0.04
N1533	0.25	-0.06	-0.04
N1534	0.291667	-0.06	-0.04
N1535	0.333333	-0.06	-0.04
N1536	0.375	-0.06	-0.04
N1537	0.416667	-0.06	-0.04
N1538	0.458333	-0.06	-0.04
N1539	0.0416667	-0.04	-0.04
N1540	0.0833333	-0.04	-0.04
N1541	0.125	-0.04	-0.04
N1542	0.166667	-0.04	-0.04
N1543	0.208333	-0.04	-0.04
N1544	0.25	-0.04	-0.04
N1545	0.291667	-0.04	-0.04
N1546	0.333333	-0.04	-0.04
N1547	0.375	-0.04	-0.04
N1548	0.416667	-0.04	-0.04
N1549	0.458333	-0.04	-0.04
N1550	0.0416667	-0.02	-0.04
N1551	0.0833333	-0.02	-0.04
N1552	0.125	-0.02	-0.04
N1553	0.166667	-0.02	-0.04
N1554	0.208333	-0.02	-0.04
N1555	0.25	-0.02	-0.04
N1556	0.291667	-0.02	-0.04
N1557	0.333333	-0.02	-0.04
N1558	0.375	-0.02	-0.04
N1559	0.416667	-0.02	-0.04
N1560	0.458333	-0.02	-0.04
N1561	0.0416667	-1.38778e-17	-0.04
N1562	0.0833333	0	-0.04
N1563	0.125	0	-0.04
N1564	0.166667	1.38778e-17	-0.04
N1565	0.208333	0	-0.04
N1566	0.25	-1.38778e-17	-0.04
N1567	0.291667	0	-0.04
N1568	0.333333	0	-0.04
N1569	0.375	0	-0.04
N1570	0.416667	0	-0.04
N1571	0.458333	1.38778e-17	-0.04
N1572	0.0416667	0.02	-0.04
N1573	0.0833333	0.02	-0.04
N1574	0.125	0.02	-0.04
N1575	0.166667	0.02	-0.04
N1576	0.208333	0.02	-0.04
N1577	0.25	0.02	-0.04
N1578	0.291667	0.02	-0.04
N1579	0.333333	0.02	-0.04
N1580	0.375	0.02	-0.04
N1581	0.416667	0.02	-0.04
N1582	0.458333	0.02	-0.04
N1583	0.0416667	0.04	-0.04
N1584	0.0833333	0.04	-0.04
N1585	0.125	0.04	-0.04
N1586	0.166667	0.04	-0.04
N1587	0.208333	0.04	-0.04
N1588	0.25	0.04	-0.04
N1589	0.291667	0.04	-0.04
N1590	0.333333	0.04	-0.04
N1591	0.375	0.04	-0.04
N1592	0.416667	0.04	-0.04
N1593	0.458333	0.04	-0.04
N1594	0.0416667	0.06	-0.04
N1595	0.0833333	0.06	-0.04
N1596	0.125	0.06	-0.04
N1597	0.166667	0.06	-0.04
N1598	0.208333	0.06	-0.04
N1599	0.25	0.06	-0.04
N1600	0.291667	0.06	-0.04
N1601	0.333333	0.06	-0.04
N1602	0.375	0.06	-0.04
N1603	0.416667	0.06	-0.04
N1604	0.458333	0.06	-0.04
N1605	0.0416667	-0.06	-0.06
N1606	0.0833333	-0.06	-0.06
N1607	0.125	-0.06	-0.06
N1608	0.166667	-0.06	-0.06
N1609	0.208333	-0.06	-0.06
N1610	0.25	-0.06	-0.06
N1611	0.291667	-0.06	-0.06
N1612	0.333333	-0.06	-0.06
N1613	0.375	-0.06	-0.06
N1614	0.416667	-0.06	-0.06
N1615	0.458333	-0.06	-0.06
N1616	0.0416667	-0.04	-0.06
N1617	0.0833333	-0.04	-0.06
N1618	0.125	-0.04	-0.06
N1619	0.166667	-0.04	-0.06
N1620	0.208333	-0.04	-0.06
N1621	0.25	-0.04	-0.06
N1622	0.291667	-0.04	-0.06
N1623	0.333333	-0.04	-0.06
N1624	0.375	-0.04	-0.06
N1625	0.416667	-0.04	-0.06
N1626	0.458333	-0.04	-0.06
N1627	0.0416667	-0.02	-0.06
N1628	0.0833333	-0.02	-0.06
N1629	0.125	-0.02	-0.06
N1630	0.166667	-0.02	-0.06
N1631	0.208333	-0.02	-0.06
N1632	0.25	-0.02	-0.06
N1633	0.291667	-0.02	-0.06
N1634	0.333333	-0.02	-0.06
N1635	0.375	-0.02	-0.06
N1636	0.416667	-0.02	-0.06
N1637	0.458333	-0.02	-0.06
N1638	0.0416667	-2.08167e-17	-0.06
N1639	0.0833333	0	-0.06
N1640	0.125	0	-0.06
N1641	0.166667	1.38778e-17	-0.06
N1642	0.208333	0	-0.06
N1643	0.25	-1.38778e-17	-0.06
N1644	0.291667	0	-0.06
N1645	0.333333	0	-0.06
N1646	0.375	0	-0.06
N1647	0.416667	0	-0.06
N1648	0.458333	1.38778e-17	-0.06
N1649	0.0416667	0.02	-0.06
N1650	0.0833333	0.02	-0.06
N1651	0.125	0.02	-0.06
N1652	0.166667	0.02	-0.06
N1653	0.208333	0.02	-0.06
N1654	0.25	0.02	-0.06
N1655	0.291667	0.02	-0.06
N1656	0.333333	0.02	-0.06
N1657	0.375	0.02	-0.06
N1658	0.416667	0.02	-0.06
N1659	0.458333	0.02	-0.06
N1660	0.0416667	0.04	-0.06
N1661	0.0833333	0.04	-0.06
N1662	0.125	0.04	-0.06
N1663	0.166667	0.04	-0.06
N1664	0.208333	0.04	-0.06
N1665	0.25	0.04	-0.06
N1666	0.291667	0.04	-0.06
N1667	0.333333	0.04	-0.06
N1668	0.375	0.04	-0.06
N1669	0.416667	0.04	-0.06
N1670	0.458333	0.04	-0.06
N1671	0.0416667	0.06	-0.06
N1672	0.0833333	0.06	-0.06
N1673	0.125	0.06	-0.06
N1674	0.166667	0.06	-0.06
N1675	0.208333	0.06	-0.06
N1676	0.25	0.06	-0.06
N1677	0.291667	0.06	-0.06
N1678	0.333333	0.06	-0.06
N1679	0.375	0.06	-0.06
N1680	0.416667	0.06	-0.06
N1681	0.458333	0.06	-0.06
N1682	0.0416667	-0.06	-0.08
N1683	0.0833333	-0.06	-0.08
N1684	0.125	-0.06	-0.08
N1685	0.166667	-0.06	-0.08
N1686	0.208333	-0.06	-0.08
N1687	0.25	-0.06	-0.08
N1688	0.291667	-0.06	-0.08
N1689	0.333333	-0.06	-0.08
N1690	0.375	-0.06	-0.08
N1691	0.416667	-0.06	-0.08
N1692	0.458333	-0.06	-0.08
N1693	0.0416667	-0.04	-0.08
N1694	0.0833333	-0.04	-0.08
N1695	0.125	-0.04	-0.08
N1696	0.166667	-0.04	-0.08
N1697	0.208333	-0.04	-0.08
N1698	0.25	-0.04	-0.08
N1699	0.291667	-0.04	-0.08
N1700	0.333333	-0.04	-0.08
N1701	0.375	-0.04	-0.08
N1702	0.416667	-0.04	-0.08
N1703	0.458333	-0.04	-0.08
N1704	0.0416667	-0.02	-0.08
N1705	0.0833333	-0.02	-0.08
N1706	0.125	-0.02	-0.08
N1707	0.166667	-0.02	-0.08
N1708	0.208333	-0.02	-0.08
N1709	0.25	-0.02	-0.08
N1710	0.291667	-0.02	-0.08
N1711	0.333333	-0.02	-0.08
N1712	0.375	-0.02	-0.08
N1713	0.416667	-0.02	-0.08
N1714	0.458333	-0.02	-0.08
N1715	0.0416667	-2.08167e-17	-0.08
N1716	0.0833333	0	-0.08
N1717	0.125	0	-0.08
N1718	0.166667	1.38778e-17	-0.08
N1719	0.208333	0	-0.08
N1720	0.25	-1.38778e-17	-0.08
N1721	0.291667	0	-0.08
N1722	0.333333	0	-0.08
N1723	0.375	0	-0.08
N1724	0.416667	0	-0.08
N1725	0.458333	1.38778e-17	-0.08
N1726	0.0416667	0.02	-0.08
N1727	0.0833333	0.02	-0.08
N1728	0.125	0.02	-0.08
N1729	0.166667	0.02	-0.08
N1730	0.208333	0.02	-0.08
N1731	0.25	0.02	-0.08
N1732	0.291667	0.02	-0.08
N1733	0.333333	0.02	-0.08
N1734	0.375	0.02	-0.08
N1735	0.416667	0.02	-0.08
N1736	0.458333	0.02	-0.08
N1737	0.0416667	0.04	-0.08
N1738	0.0833333	0.04	-0.08
N1739	0.125	0.04	-0.08
N1740	0.166667	0.04	-0.08
N1741	0.208333	0.04	-0.08
N1742	0.25	0.04	-0.08
N1743	0.291667	0.04	-0.08
N1744	0.333333	0.04	-0.08
N1745	0.375	0.04	-0.08
N1746	0.416667	0.04	-0.08
N1747	0.458333	0.04	-0.08
N1748	0.0416667	0.06	-0.08
N1749	0.0833333	0.06	-0.08
N1750	0.125	0.06	-0.08
N1751	0.166667	0.06	-0.08
N1752	0.208333	0.06	-0.08
N1753	0.25	0.06	-0.08
N1754	0.291667	0.06	-0.08
N1755	0.333333	0.06	-0.08
N1756	0.375	0.06	-0.08
N1757	0.416667	0.06	-0.08
N1758	0.458333	0.06	-0.08
N1759	0.0416667	-0.06	-0.1
N1760	0.0833333	-0.06	-0.1
N1761	0.125	-0.06	-0.1
N1762	0.166667	-0.06	-0.1
N1763	0.208333	-0.06	-0.1
N1764	0.25	-0.06	-0.1
N1765	0.291667	-0.06	-0.1
N1766	0.333333	-0.06	-0.1
N1767	0.375	-0.06	-0.1
N1768	0.416667	-0.06	-0.1
N1769	0.458333	-0.06	-0.1
N1770	0.0416667	-0.04	-0.1
N1771	0.0833333	-0.04	-0.1
N1772	0.125	-0.04	-0.1
N1773	0.166667	-0.04	-0.1
N1774	0.208333	-0.04	-0.1
N1775	0.25	-0.04	-0.1
N1776	0.291667	-0.04	-0.1
N1777	0.333333	-0.04	-0.1
N1778	0.375	-0.04	-0.1
N1779	0.416667	-0.04	-0.1
N1780	0.458333	-0.04	-0.1
N1781	0.0416667	-0.02	-0.1
N1782	0.0833333	-0.02	-0.1
N1783	0.125	-0.02	-0.1
N1784	0.166667	-0.02	-0.1
N1785	0.208333	-0.02	-0.1
N1786	0.25	-0.02	-0.1
N1787	0.291667	-0.02	-0.1
N1788	0.333333	-0.02	-0.1
N1789	0.375	-0.02	-0.1
N1790	0.416667	-0.02	-0.1
N1791	0.458333	-0.02	-0.1
N1792	0.0416667	-1.85037e-17	-0.1
N1793	0.0833333	4.62593e-18	-0.1
N1794	0.125	6.93889e-18	-0.1
N1795	0.166667	2.31296e-17	-0.1
N1796	0.208333	1.15648e-17	-0.1
N1797	0.25	0	-0.1
N1798	0.291667	1.61908e-17	-0.1
N1799	0.333333	1.85037e-17	-0.1
N1800	0.375	2.08167e-17	-0.1
N1801	0.416667	2.31296e-17	-0.1
N1802	0.458333	3.93204e-17	-0.1
N1803	0.0416667	0.02	-0.1
N1804	0.0833333	0.02	-0.1
N1805	0.125	0.02	-0.1
N1806	0.166667	0.02	-0.1
N1807	0.208333	0.02	-0.1
N1808	0.25	0.02	-0.1
N1809	0.291667	0.02	-0.1
N1810	0.333333	0.02	-0.1
N1811	0.375	0.02	-0.1
N1812	0.416667	0.02	-0.1
N1813	0.458333	0.02	-0.1
N1814	0.0416667	0.04	-0.1
N1815	0.0833333	0.04	-0.1
N1816	0.125	0.04	-0.1
N1817	0.166667	0.04	-0.1
N1818	0.208333	0.04	-0.1
N1819	0.25	0.04	-0.1
N1820	0.291667	0.04	-0.1
N1821	0.333333	0.04	-0.1
N1822	0.375	0.04	-0.1
N1823	0.416667	0.04	-0.1
N1824	0.458333	0.04	-0.1
N1825	0.0416667	0.06	-0.1
N1826	0.0833333	0.06	-0.1
N1827	0.125	0.06	-0.1
N1828	0.166667	0.06	-0.1
N1829	0.208333	0.06	-0.1
N1830	0.25	0.06	-0.1
N1831	0.291667	0.06	-0.1
N1832	0.333333	0.06	-0.1
N1833	0.375	0.06	-0.1
N1834	0.416667	0.06	-0.1
N1835	0.458333	0.06	-0.1
N1836	0.0416667	-0.06	-0.12
N1837	0.0833333	-0.06	-0.12
N1838	0.125	-0.06	-0.12
N1839	0.166667	-0.06	-0.12
N1840	0.208333	-0.06	-0.12
N1841	0.25	-0.06	-0.12
N1842	0.291667	-0.06	-0.12
N1843	0.333333	-0.06	-0.12
N1844	0.375	-0.06	-0.12
N1845	0.416667	-0.06	-0.12
N1846	0.458333	-0.06	-0.12
N1847	0.0416667	-0.04	-0.12
N1848	0.0833333	-0.04	-0.12
N1849	0.125	-0.04	-0.12
N1850	0.166667	-0.04	-0.12
N1851	0.208333	-0.04	-0.12
N1852	0.25	-0.04	-0.12
N1853	0.291667	-0.04	-0.12
N1854	0.333333	-0.04	-0.12
N1855	0.375	-0.04	-0.12
N1856	0.416667	-0.04	-0.12
N1857	0.458333	-0.04	-0.12
N1858	0.0416667	-0.02	-0.12
N1859	0.0833333	-0.02	-0.12
N1860	0.125	-0.02	-0.12
N1861	0.166667	-0.02	-0.12
N1862	0.208333	-0.02	-0.12
N1863	0.25	-0.02	-0.12
N1864	0.291667	-0.02	-0.12
N1865	0.333333	-0.02	-0.12
N1866	0.375	-0.02	-0.12
N1867	0.416667	-0.02	-0.12
N1868	0.458333	-0.02	-0.12
N1869	0.0416667	-2.08167e-17	-0.12
N1870	0.0833333	0	-0.12
N1871	0.125	0	-0.12
N1872	0.166667	1.38778e-17	-0.12
N1873	0.208333	0	-0.12
N1874	0.25	-1.38778e-17	-0.12
N1875	0.291667	0	-0.12
N1876	0.333333	0	-0.12
N1877	0.375	0	-0.12
N1878	0.416667	0	-0.12
N1879	0.458333	1.38778e-17	-0.12
N1880	0.0416667	0.02	-0.12
N1881	0.0833333	0.02	-0.12
N1882	0.125	0.02	-0.12
N1883	0.166667	0.02	-0.12
N1884	0.208333	0.02	-0.12
N1885	0.25	0.02	-0.12
N1886	0.291667	0.02	-0.12
N1887	0.333333	0.02	-0.12
N1888	0.375	0.02	-0.12
N1889	0.416667	0.02	-0.12
N1890	0.458333	0.02	-0.12
N1891	0.0416667	0.04	-0.12
N1892	0.0833333	0.04	-0.12
N1893	0.125	0.04	-0.12
N1894	0.166667	0.04	-0.12
N1895	0.208333	0.04	-0.12
N1896	0.25	0.04	-0.12
N1897	0.291667	0.04	-0.12
N1898	0.333333	0.04	-0.12
N1899	0.375	0.04	-0.12
N1900	0.416667	0.04	-0.12
N1901	0.458333	0.04	-0.12
N1902	0.0416667	0.06	-0.12
N1903	0.0833333	0.06	-0.12
N1904	0.125	0.06	-0.12
N1905	0.166667	0.06	-0.12
N1906	0.208333	0.06	-0.12
N1907	0.25	0.06	-0.12
N1908	0.291667	0.06	-0.12
N1909	0.333333	0.06	-0.12
N1910	0.375	0.06	-0.12
N1911	0.416667	0.06	-0.12
N1912	0.458333	0.06	-0.12
N1913	0.0416667	-0.06	-0.14
N1914	0.0833333	-0.06	-0.14
N1915	0.125	-0.06	-0.14
N1916	0.166667	-0.06	-0.14
N1917	0.208333	-0.06	-0.14
N1918	0.25	-0.06	-0.14
N1919	0.291667	-0.06	-0.14
N1920	0.333333	-0.06	-0.14
N1921	0.375	-0.06	-0.14
N1922	0.416667	-0.06	-0.14
N1923	0.458333	-0.06	-0.14
N1924	0.0416667	-0.04	-0.14
N1925	0.0833333	-0.04	-0.14
N1926	0.125	-0.04	-0.14
N1927	0.166667	-0.04	-0.14
N1928	0.208333	-0.04	-0.14
N1929	0.25	-0.04	-0.14
N1930	0.291667	-0.04	-0.14
N1931	0.333333	-0.04	-0.14
N1932	0.375	-0.04	-0.14
N1933	0.416667	-0.04	-0.14
N1934	0.458333	-0.04	-0.14
N1935	0.0416667	-0.02	-0.14
N1936	0.0833333	-0.02	-0.14
N1937	0.125	-0.02	-0.14
N1938	0.166667	-0.02	-0.14
N1939	0.208333	-0.02	-0.14
N1940	0.25	-0.02	-0.14
N1941	0.291667	-0.02	-0.14
N1942	0.333333	-0.02	-0.14
N1943	0.375	-0.02	-0.14
N1944	0.416667	-0.02	-0.14
N1945	0.458333	-0.02	-0.14
N1946	0.0416667	-2.77556e-17	-0.14
N1947	0.0833333	0	-0.14
N1948	0.125	0	-0.14
N1949	0.166667	1.38778e-17	-0.14
N1950	0.208333	0	-0.14
N1951	0.25	-1.38778e-17	-0.14
N1952	0.291667	0	-0.14
N1953	0.333333	0	-0.14
N1954	0.375	0	-0.14
N1955	0.416667	0	-0.14
N1956	0.458333	1.38778e-17	-0.14
N1957	0.0416667	0.02	-0.14
N1958	0.0833333	0.02	-0.14
N1959	0.125	0.02	-0.14
N1960	0.166667	0.02	-0.14
N1961	0.208333	0.02	-0.14
N1962	0.25	0.02	-0.14
N1963	0.291667	0.02	-0.14
N1964	0.333333	0.02	-0.14
N1965	0.375	0.02	-0.14
N1966	0.416667	0.02	-0.14
N1967	0.458333	0.02	-0.14
N1968	0.0416667	0.04	-0.14
N1969	0.0833333	0.04	-0.14
N1970	0.125	0.04	-0.14
N1971	0.166667	0.04	-0.14
N1972	0.208333	0.04	-0.14
N1973	0.25	0.04	-0.14
N1974	0.291667	0.04	-0.14
N1975	0.333333	0.04	-0.14
N1976	0.375	0.04	-0.14
N1977	0.416667	0.04	-0.14
N1978	0.458333	0.04	-0.14
N1979	0.0416667	0.06	-0.14
N1980	0.0833333	0.06	-0.14
N1981	0.125	0.06	-0.14
N1982	0.166667	0.06	-0.14
N1983	0.208333	0.06	-0.14
N1984	0.25	0.06	-0.14
N1985	0.291667	0.06	-0.14
N1986	0.333333	0.06	-0.14
N1987	0.375	0.06	-0.14
N1988	0.416667	0.06	-0.14
N1989	0.458333	0.06	-0.14
