{
    "meshType"       : "MED",
    "meshFile"        : "../Thin6_20w_10h_02t_hex20.med",
    "matrixFormat"    : "NPZ",
    "KMatrix"         : "./Stiff_6.npz",
    "MMatrix"         : "./Mass_6.npz",
    "lowerMatrix"     : false,
    "DOFfile"         : "NA",
    "R1name"          : "R1",
    "R2name"          : "R2",
    "p1"              : [0.0, 0.0, 0.0],
    "p2"              : [0.5, 0.0, 0.0],
    "writeInertia"    : "./mass_Thin6_20w_10h_02t_hex20_case6.txt",
    "inertiaThresh"   : 1e-4,
    "writeElastic"    : "./stiff_Thin6_20w_10h_02t_hex20_case6.txt",
    "elasticThresh"   : 0.01,
    "writeStressData" : "SR_Thin6_20w_10h_02t_hex20_case6.npz"
}
