1 & $0$ & $0$ & $0$ & $0$ & $0$ \\
2 & $0$ & $0$ & $-$ & $0$ & $0$ \\
3 & $0$ & $0$ & $-$ & $0$ & $0$ \\
4 & $7.0966\times 10^{-08}$ & $7.0937\times 10^{-08}$ & $-$ & $7.0899\times 10^{-08}$ & $7.0895\times 10^{-08}$ \\
5 & $1.0343\times 10^{-07}$ & $1.0360\times 10^{-07}$ & $-$ & $1.0349\times 10^{-07}$ & $1.0355\times 10^{-07}$ \\
6 & $1.0372\times 10^{-07}$ & $1.0389\times 10^{-07}$ & $-$ & $1.0385\times 10^{-07}$ & $1.0386\times 10^{-07}$ \\
