6.288114924546697875e+05 1.545959808065718389e+05 -9.438813322618041468e+01 0.000000000000000000e+00 0.000000000000000000e+00 0.000000000000000000e+00
1.545959808065617108e+05 1.204787094195415120e+05 -1.306135874809051245e+02 0.000000000000000000e+00 0.000000000000000000e+00 0.000000000000000000e+00
-9.438813322541123796e+01 -1.306135874783868189e+02 6.791036990709391830e+04 0.000000000000000000e+00 0.000000000000000000e+00 0.000000000000000000e+00
0.000000000000000000e+00 0.000000000000000000e+00 0.000000000000000000e+00 2.621367732407339281e+04 -1.681281303241023488e+04 -2.978252265561833383e+02
0.000000000000000000e+00 0.000000000000000000e+00 0.000000000000000000e+00 -1.681281303241066053e+04 2.858918845163046353e+04 1.789192558767610421e+02
0.000000000000000000e+00 0.000000000000000000e+00 0.000000000000000000e+00 -2.978252265562525736e+02 1.789192558769950949e+02 6.360956504173806024e+04
