1.430523920054856688e+06 0.000000000000000000e+00 0.000000000000000000e+00 -1.064432595818073169e+05 0.000000000000000000e+00 0.000000000000000000e+00
0.000000000000000000e+00 8.857752898572526465e+04 0.000000000000000000e+00 0.000000000000000000e+00 5.169070186646944785e+04 0.000000000000000000e+00
0.000000000000000000e+00 0.000000000000000000e+00 3.932854102770537429e+04 0.000000000000000000e+00 0.000000000000000000e+00 5.582624301676966570e+04
-1.064432595818070113e+05 0.000000000000000000e+00 0.000000000000000000e+00 1.684521660766082641e+04 0.000000000000000000e+00 0.000000000000000000e+00
0.000000000000000000e+00 5.169070186646960792e+04 0.000000000000000000e+00 0.000000000000000000e+00 6.767616506775411835e+04 0.000000000000000000e+00
0.000000000000000000e+00 0.000000000000000000e+00 5.582624301676962932e+04 0.000000000000000000e+00 0.000000000000000000e+00 1.723347035921069910e+05
