1.374575428773340071e+06 1.839435280881748477e+05 -1.230673884414588457e+02 0.000000000000000000e+00 0.000000000000000000e+00 0.000000000000000000e+00
1.839435280881679209e+05 8.838797266589669744e+04 -7.631104464292948819e+01 0.000000000000000000e+00 0.000000000000000000e+00 0.000000000000000000e+00
-1.230673884423518416e+02 -7.631104464291075828e+01 3.950355274975401699e+04 0.000000000000000000e+00 0.000000000000000000e+00 0.000000000000000000e+00
0.000000000000000000e+00 0.000000000000000000e+00 0.000000000000000000e+00 1.733767311972264724e+04 -1.801860626244543528e+04 -3.608860279235677240e+02
0.000000000000000000e+00 0.000000000000000000e+00 0.000000000000000000e+00 -1.801860626244543164e+04 6.084173022469187708e+04 3.747311062036860108e+02
0.000000000000000000e+00 0.000000000000000000e+00 0.000000000000000000e+00 -3.608860279235610165e+02 3.747311062038549494e+02 1.428972887164076383e+05
