N1	0	-0.08	0.16
N2	0	-0.08	-0.16
N3	0	0.08	0.16
N4	0	0.08	-0.16
N5	0.5	-0.08	0.16
N6	0.5	-0.08	-0.16
N7	0.5	0.08	0.16
N8	0.5	0.08	-0.16
N9	0	-0.08	-0.14
N10	0	-0.08	-0.12
N11	0	-0.08	-0.1
N12	0	-0.08	-0.08
N13	0	-0.08	-0.06
N14	0	-0.08	-0.04
N15	0	-0.08	-0.02
N16	0	-0.08	0
N17	0	-0.08	0.02
N18	0	-0.08	0.04
N19	0	-0.08	0.06
N20	0	-0.08	0.08
N21	0	-0.08	0.1
N22	0	-0.08	0.12
N23	0	-0.08	0.14
N24	0	-0.06	0.16
N25	0	-0.04	0.16
N26	0	-0.02	0.16
N27	0	0	0.16
N28	0	0.02	0.16
N29	0	0.04	0.16
N30	0	0.06	0.16
N31	0	0.08	-0.14
N32	0	0.08	-0.12
N33	0	0.08	-0.1
N34	0	0.08	-0.08
N35	0	0.08	-0.06
N36	0	0.08	-0.04
N37	0	0.08	-0.02
N38	0	0.08	0
N39	0	0.08	0.02
N40	0	0.08	0.04
N41	0	0.08	0.06
N42	0	0.08	0.08
N43	0	0.08	0.1
N44	0	0.08	0.12
N45	0	0.08	0.14
N46	0	-0.06	-0.16
N47	0	-0.04	-0.16
N48	0	-0.02	-0.16
N49	0	0	-0.16
N50	0	0.02	-0.16
N51	0	0.04	-0.16
N52	0	0.06	-0.16
N53	0.5	-0.08	-0.14
N54	0.5	-0.08	-0.12
N55	0.5	-0.08	-0.1
N56	0.5	-0.08	-0.08
N57	0.5	-0.08	-0.06
N58	0.5	-0.08	-0.04
N59	0.5	-0.08	-0.02
N60	0.5	-0.08	0
N61	0.5	-0.08	0.02
N62	0.5	-0.08	0.04
N63	0.5	-0.08	0.06
N64	0.5	-0.08	0.08
N65	0.5	-0.08	0.1
N66	0.5	-0.08	0.12
N67	0.5	-0.08	0.14
N68	0.5	-0.06	0.16
N69	0.5	-0.04	0.16
N70	0.5	-0.02	0.16
N71	0.5	0	0.16
N72	0.5	0.02	0.16
N73	0.5	0.04	0.16
N74	0.5	0.06	0.16
N75	0.5	0.08	-0.14
N76	0.5	0.08	-0.12
N77	0.5	0.08	-0.1
N78	0.5	0.08	-0.08
N79	0.5	0.08	-0.06
N80	0.5	0.08	-0.04
N81	0.5	0.08	-0.02
N82	0.5	0.08	0
N83	0.5	0.08	0.02
N84	0.5	0.08	0.04
N85	0.5	0.08	0.06
N86	0.5	0.08	0.08
N87	0.5	0.08	0.1
N88	0.5	0.08	0.12
N89	0.5	0.08	0.14
N90	0.5	-0.06	-0.16
N91	0.5	-0.04	-0.16
N92	0.5	-0.02	-0.16
N93	0.5	0	-0.16
N94	0.5	0.02	-0.16
N95	0.5	0.04	-0.16
N96	0.5	0.06	-0.16
N97	0.025	-0.08	-0.16
N98	0.05	-0.08	-0.16
N99	0.075	-0.08	-0.16
N100	0.1	-0.08	-0.16
N101	0.125	-0.08	-0.16
N102	0.15	-0.08	-0.16
N103	0.175	-0.08	-0.16
N104	0.2	-0.08	-0.16
N105	0.225	-0.08	-0.16
N106	0.25	-0.08	-0.16
N107	0.275	-0.08	-0.16
N108	0.3	-0.08	-0.16
N109	0.325	-0.08	-0.16
N110	0.35	-0.08	-0.16
N111	0.375	-0.08	-0.16
N112	0.4	-0.08	-0.16
N113	0.425	-0.08	-0.16
N114	0.45	-0.08	-0.16
N115	0.475	-0.08	-0.16
N116	0.025	-0.08	0.16
N117	0.05	-0.08	0.16
N118	0.075	-0.08	0.16
N119	0.1	-0.08	0.16
N120	0.125	-0.08	0.16
N121	0.15	-0.08	0.16
N122	0.175	-0.08	0.16
N123	0.2	-0.08	0.16
N124	0.225	-0.08	0.16
N125	0.25	-0.08	0.16
N126	0.275	-0.08	0.16
N127	0.3	-0.08	0.16
N128	0.325	-0.08	0.16
N129	0.35	-0.08	0.16
N130	0.375	-0.08	0.16
N131	0.4	-0.08	0.16
N132	0.425	-0.08	0.16
N133	0.45	-0.08	0.16
N134	0.475	-0.08	0.16
N135	0.025	0.08	-0.16
N136	0.05	0.08	-0.16
N137	0.075	0.08	-0.16
N138	0.1	0.08	-0.16
N139	0.125	0.08	-0.16
N140	0.15	0.08	-0.16
N141	0.175	0.08	-0.16
N142	0.2	0.08	-0.16
N143	0.225	0.08	-0.16
N144	0.25	0.08	-0.16
N145	0.275	0.08	-0.16
N146	0.3	0.08	-0.16
N147	0.325	0.08	-0.16
N148	0.35	0.08	-0.16
N149	0.375	0.08	-0.16
N150	0.4	0.08	-0.16
N151	0.425	0.08	-0.16
N152	0.45	0.08	-0.16
N153	0.475	0.08	-0.16
N154	0.025	0.08	0.16
N155	0.05	0.08	0.16
N156	0.075	0.08	0.16
N157	0.1	0.08	0.16
N158	0.125	0.08	0.16
N159	0.15	0.08	0.16
N160	0.175	0.08	0.16
N161	0.2	0.08	0.16
N162	0.225	0.08	0.16
N163	0.25	0.08	0.16
N164	0.275	0.08	0.16
N165	0.3	0.08	0.16
N166	0.325	0.08	0.16
N167	0.35	0.08	0.16
N168	0.375	0.08	0.16
N169	0.4	0.08	0.16
N170	0.425	0.08	0.16
N171	0.45	0.08	0.16
N172	0.475	0.08	0.16
N173	0	-0.06	-0.14
N174	0	-0.04	-0.14
N175	0	-0.02	-0.14
N176	0	0	-0.14
N177	0	0.02	-0.14
N178	0	0.04	-0.14
N179	0	0.06	-0.14
N180	0	-0.06	-0.12
N181	0	-0.04	-0.12
N182	0	-0.02	-0.12
N183	0	0	-0.12
N184	0	0.02	-0.12
N185	0	0.04	-0.12
N186	0	0.06	-0.12
N187	0	-0.06	-0.1
N188	0	-0.04	-0.1
N189	0	-0.02	-0.1
N190	0	0	-0.1
N191	0	0.02	-0.1
N192	0	0.04	-0.1
N193	0	0.06	-0.1
N194	0	-0.06	-0.08
N195	0	-0.04	-0.08
N196	0	-0.02	-0.08
N197	0	0	-0.08
N198	0	0.02	-0.08
N199	0	0.04	-0.08
N200	0	0.06	-0.08
N201	0	-0.06	-0.06
N202	0	-0.04	-0.06
N203	0	-0.02	-0.06
N204	0	0	-0.06
N205	0	0.02	-0.06
N206	0	0.04	-0.06
N207	0	0.06	-0.06
N208	0	-0.06	-0.04
N209	0	-0.04	-0.04
N210	0	-0.02	-0.04
N211	0	0	-0.04
N212	0	0.02	-0.04
N213	0	0.04	-0.04
N214	0	0.06	-0.04
N215	0	-0.06	-0.02
N216	0	-0.04	-0.02
N217	0	-0.02	-0.02
N218	0	0	-0.02
N219	0	0.02	-0.02
N220	0	0.04	-0.02
N221	0	0.06	-0.02
N222	0	-0.06	5.55112e-17
N223	0	-0.04	0
N224	0	-0.02	0
N225	0	0	0
N226	0	0.02	0
N227	0	0.04	0
N228	0	0.06	0
N229	0	-0.06	0.02
N230	0	-0.04	0.02
N231	0	-0.02	0.02
N232	0	0	0.02
N233	0	0.02	0.02
N234	0	0.04	0.02
N235	0	0.06	0.02
N236	0	-0.06	0.04
N237	0	-0.04	0.04
N238	0	-0.02	0.04
N239	0	0	0.04
N240	0	0.02	0.04
N241	0	0.04	0.04
N242	0	0.06	0.04
N243	0	-0.06	0.06
N244	0	-0.04	0.06
N245	0	-0.02	0.06
N246	0	2.77556e-17	0.06
N247	0	0.02	0.06
N248	0	0.04	0.06
N249	0	0.06	0.06
N250	0	-0.06	0.08
N251	0	-0.04	0.08
N252	0	-0.02	0.08
N253	0	0	0.08
N254	0	0.02	0.08
N255	0	0.04	0.08
N256	0	0.06	0.08
N257	0	-0.06	0.1
N258	0	-0.04	0.1
N259	0	-0.02	0.1
N260	0	0	0.1
N261	0	0.02	0.1
N262	0	0.04	0.1
N263	0	0.06	0.1
N264	0	-0.06	0.12
N265	0	-0.04	0.12
N266	0	-0.02	0.12
N267	0	0	0.12
N268	0	0.02	0.12
N269	0	0.04	0.12
N270	0	0.06	0.12
N271	0	-0.06	0.14
N272	0	-0.04	0.14
N273	0	-0.02	0.14
N274	0	0	0.14
N275	0	0.02	0.14
N276	0	0.04	0.14
N277	0	0.06	0.14
N278	0.5	-0.06	0.14
N279	0.5	-0.04	0.14
N280	0.5	-0.02	0.14
N281	0.5	0	0.14
N282	0.5	0.02	0.14
N283	0.5	0.04	0.14
N284	0.5	0.06	0.14
N285	0.5	-0.06	0.12
N286	0.5	-0.04	0.12
N287	0.5	-0.02	0.12
N288	0.5	0	0.12
N289	0.5	0.02	0.12
N290	0.5	0.04	0.12
N291	0.5	0.06	0.12
N292	0.5	-0.06	0.1
N293	0.5	-0.04	0.1
N294	0.5	-0.02	0.1
N295	0.5	0	0.1
N296	0.5	0.02	0.1
N297	0.5	0.04	0.1
N298	0.5	0.06	0.1
N299	0.5	-0.06	0.08
N300	0.5	-0.04	0.08
N301	0.5	-0.02	0.08
N302	0.5	0	0.08
N303	0.5	0.02	0.08
N304	0.5	0.04	0.08
N305	0.5	0.06	0.08
N306	0.5	-0.06	0.06
N307	0.5	-0.04	0.06
N308	0.5	-0.02	0.06
N309	0.5	0	0.06
N310	0.5	0.02	0.06
N311	0.5	0.04	0.06
N312	0.5	0.06	0.06
N313	0.5	-0.06	0.04
N314	0.5	-0.04	0.04
N315	0.5	-0.02	0.04
N316	0.5	1.38778e-17	0.04
N317	0.5	0.02	0.04
N318	0.5	0.04	0.04
N319	0.5	0.06	0.04
N320	0.5	-0.06	0.02
N321	0.5	-0.04	0.02
N322	0.5	-0.02	0.02
N323	0.5	0	0.02
N324	0.5	0.02	0.02
N325	0.5	0.04	0.02
N326	0.5	0.06	0.02
N327	0.5	-0.06	0
N328	0.5	-0.04	0
N329	0.5	-0.02	0
N330	0.5	0	0
N331	0.5	0.02	0
N332	0.5	0.04	0
N333	0.5	0.06	0
N334	0.5	-0.06	-0.02
N335	0.5	-0.04	-0.02
N336	0.5	-0.02	-0.02
N337	0.5	0	-0.02
N338	0.5	0.02	-0.02
N339	0.5	0.04	-0.02
N340	0.5	0.06	-0.02
N341	0.5	-0.06	-0.04
N342	0.5	-0.04	-0.04
N343	0.5	-0.02	-0.04
N344	0.5	0	-0.04
N345	0.5	0.02	-0.04
N346	0.5	0.04	-0.04
N347	0.5	0.06	-0.04
N348	0.5	-0.06	-0.06
N349	0.5	-0.04	-0.06
N350	0.5	-0.02	-0.06
N351	0.5	0	-0.06
N352	0.5	0.02	-0.06
N353	0.5	0.04	-0.06
N354	0.5	0.06	-0.06
N355	0.5	-0.06	-0.08
N356	0.5	-0.04	-0.08
N357	0.5	-0.02	-0.08
N358	0.5	0	-0.08
N359	0.5	0.02	-0.08
N360	0.5	0.04	-0.08
N361	0.5	0.06	-0.08
N362	0.5	-0.06	-0.1
N363	0.5	-0.04	-0.1
N364	0.5	-0.02	-0.1
N365	0.5	2.77556e-17	-0.1
N366	0.5	0.02	-0.1
N367	0.5	0.04	-0.1
N368	0.5	0.06	-0.1
N369	0.5	-0.06	-0.12
N370	0.5	-0.04	-0.12
N371	0.5	-0.02	-0.12
N372	0.5	0	-0.12
N373	0.5	0.02	-0.12
N374	0.5	0.04	-0.12
N375	0.5	0.06	-0.12
N376	0.5	-0.06	-0.14
N377	0.5	-0.04	-0.14
N378	0.5	-0.02	-0.14
N379	0.5	0	-0.14
N380	0.5	0.02	-0.14
N381	0.5	0.04	-0.14
N382	0.5	0.06	-0.14
N383	0.025	-0.08	-0.14
N384	0.025	-0.08	-0.12
N385	0.025	-0.08	-0.1
N386	0.025	-0.08	-0.08
N387	0.025	-0.08	-0.06
N388	0.025	-0.08	-0.04
N389	0.025	-0.08	-0.02
N390	0.025	-0.08	0
N391	0.025	-0.08	0.02
N392	0.025	-0.08	0.04
N393	0.025	-0.08	0.06
N394	0.025	-0.08	0.08
N395	0.025	-0.08	0.1
N396	0.025	-0.08	0.12
N397	0.025	-0.08	0.14
N398	0.05	-0.08	-0.14
N399	0.05	-0.08	-0.12
N400	0.05	-0.08	-0.1
N401	0.05	-0.08	-0.08
N402	0.05	-0.08	-0.06
N403	0.05	-0.08	-0.04
N404	0.05	-0.08	-0.02
N405	0.05	-0.08	-2.77556e-17
N406	0.05	-0.08	0.02
N407	0.05	-0.08	0.04
N408	0.05	-0.08	0.06
N409	0.05	-0.08	0.08
N410	0.05	-0.08	0.1
N411	0.05	-0.08	0.12
N412	0.05	-0.08	0.14
N413	0.075	-0.08	-0.14
N414	0.075	-0.08	-0.12
N415	0.075	-0.08	-0.1
N416	0.075	-0.08	-0.08
N417	0.075	-0.08	-0.06
N418	0.075	-0.08	-0.04
N419	0.075	-0.08	-0.02
N420	0.075	-0.08	0
N421	0.075	-0.08	0.02
N422	0.075	-0.08	0.04
N423	0.075	-0.08	0.06
N424	0.075	-0.08	0.08
N425	0.075	-0.08	0.1
N426	0.075	-0.08	0.12
N427	0.075	-0.08	0.14
N428	0.1	-0.08	-0.14
N429	0.1	-0.08	-0.12
N430	0.1	-0.08	-0.1
N431	0.1	-0.08	-0.08
N432	0.1	-0.08	-0.06
N433	0.1	-0.08	-0.04
N434	0.1	-0.08	-0.02
N435	0.1	-0.08	0
N436	0.1	-0.08	0.02
N437	0.1	-0.08	0.04
N438	0.1	-0.08	0.06
N439	0.1	-0.08	0.08
N440	0.1	-0.08	0.1
N441	0.1	-0.08	0.12
N442	0.1	-0.08	0.14
N443	0.125	-0.08	-0.14
N444	0.125	-0.08	-0.12
N445	0.125	-0.08	-0.1
N446	0.125	-0.08	-0.08
N447	0.125	-0.08	-0.06
N448	0.125	-0.08	-0.04
N449	0.125	-0.08	-0.02
N450	0.125	-0.08	0
N451	0.125	-0.08	0.02
N452	0.125	-0.08	0.04
N453	0.125	-0.08	0.06
N454	0.125	-0.08	0.08
N455	0.125	-0.08	0.1
N456	0.125	-0.08	0.12
N457	0.125	-0.08	0.14
N458	0.15	-0.08	-0.14
N459	0.15	-0.08	-0.12
N460	0.15	-0.08	-0.1
N461	0.15	-0.08	-0.08
N462	0.15	-0.08	-0.06
N463	0.15	-0.08	-0.04
N464	0.15	-0.08	-0.02
N465	0.15	-0.08	2.77556e-17
N466	0.15	-0.08	0.02
N467	0.15	-0.08	0.04
N468	0.15	-0.08	0.06
N469	0.15	-0.08	0.08
N470	0.15	-0.08	0.1
N471	0.15	-0.08	0.12
N472	0.15	-0.08	0.14
N473	0.175	-0.08	-0.14
N474	0.175	-0.08	-0.12
N475	0.175	-0.08	-0.1
N476	0.175	-0.08	-0.08
N477	0.175	-0.08	-0.06
N478	0.175	-0.08	-0.04
N479	0.175	-0.08	-0.02
N480	0.175	-0.08	0
N481	0.175	-0.08	0.02
N482	0.175	-0.08	0.04
N483	0.175	-0.08	0.06
N484	0.175	-0.08	0.08
N485	0.175	-0.08	0.1
N486	0.175	-0.08	0.12
N487	0.175	-0.08	0.14
N488	0.2	-0.08	-0.14
N489	0.2	-0.08	-0.12
N490	0.2	-0.08	-0.1
N491	0.2	-0.08	-0.08
N492	0.2	-0.08	-0.06
N493	0.2	-0.08	-0.04
N494	0.2	-0.08	-0.02
N495	0.2	-0.08	-2.77556e-17
N496	0.2	-0.08	0.02
N497	0.2	-0.08	0.04
N498	0.2	-0.08	0.06
N499	0.2	-0.08	0.08
N500	0.2	-0.08	0.1
N501	0.2	-0.08	0.12
N502	0.2	-0.08	0.14
N503	0.225	-0.08	-0.14
N504	0.225	-0.08	-0.12
N505	0.225	-0.08	-0.1
N506	0.225	-0.08	-0.08
N507	0.225	-0.08	-0.06
N508	0.225	-0.08	-0.04
N509	0.225	-0.08	-0.02
N510	0.225	-0.08	0
N511	0.225	-0.08	0.02
N512	0.225	-0.08	0.04
N513	0.225	-0.08	0.06
N514	0.225	-0.08	0.08
N515	0.225	-0.08	0.1
N516	0.225	-0.08	0.12
N517	0.225	-0.08	0.14
N518	0.25	-0.08	-0.14
N519	0.25	-0.08	-0.12
N520	0.25	-0.08	-0.1
N521	0.25	-0.08	-0.08
N522	0.25	-0.08	-0.06
N523	0.25	-0.08	-0.04
N524	0.25	-0.08	-0.02
N525	0.25	-0.08	2.77556e-17
N526	0.25	-0.08	0.02
N527	0.25	-0.08	0.04
N528	0.25	-0.08	0.06
N529	0.25	-0.08	0.08
N530	0.25	-0.08	0.1
N531	0.25	-0.08	0.12
N532	0.25	-0.08	0.14
N533	0.275	-0.08	-0.14
N534	0.275	-0.08	-0.12
N535	0.275	-0.08	-0.1
N536	0.275	-0.08	-0.08
N537	0.275	-0.08	-0.06
N538	0.275	-0.08	-0.04
N539	0.275	-0.08	-0.02
N540	0.275	-0.08	0
N541	0.275	-0.08	0.02
N542	0.275	-0.08	0.04
N543	0.275	-0.08	0.06
N544	0.275	-0.08	0.08
N545	0.275	-0.08	0.1
N546	0.275	-0.08	0.12
N547	0.275	-0.08	0.14
N548	0.3	-0.08	-0.14
N549	0.3	-0.08	-0.12
N550	0.3	-0.08	-0.1
N551	0.3	-0.08	-0.08
N552	0.3	-0.08	-0.06
N553	0.3	-0.08	-0.04
N554	0.3	-0.08	-0.02
N555	0.3	-0.08	0
N556	0.3	-0.08	0.02
N557	0.3	-0.08	0.04
N558	0.3	-0.08	0.06
N559	0.3	-0.08	0.08
N560	0.3	-0.08	0.1
N561	0.3	-0.08	0.12
N562	0.3	-0.08	0.14
N563	0.325	-0.08	-0.14
N564	0.325	-0.08	-0.12
N565	0.325	-0.08	-0.1
N566	0.325	-0.08	-0.08
N567	0.325	-0.08	-0.06
N568	0.325	-0.08	-0.04
N569	0.325	-0.08	-0.02
N570	0.325	-0.08	0
N571	0.325	-0.08	0.02
N572	0.325	-0.08	0.04
N573	0.325	-0.08	0.06
N574	0.325	-0.08	0.08
N575	0.325	-0.08	0.1
N576	0.325	-0.08	0.12
N577	0.325	-0.08	0.14
N578	0.35	-0.08	-0.14
N579	0.35	-0.08	-0.12
N580	0.35	-0.08	-0.1
N581	0.35	-0.08	-0.08
N582	0.35	-0.08	-0.06
N583	0.35	-0.08	-0.04
N584	0.35	-0.08	-0.02
N585	0.35	-0.08	0
N586	0.35	-0.08	0.02
N587	0.35	-0.08	0.04
N588	0.35	-0.08	0.06
N589	0.35	-0.08	0.08
N590	0.35	-0.08	0.1
N591	0.35	-0.08	0.12
N592	0.35	-0.08	0.14
N593	0.375	-0.08	-0.14
N594	0.375	-0.08	-0.12
N595	0.375	-0.08	-0.1
N596	0.375	-0.08	-0.08
N597	0.375	-0.08	-0.06
N598	0.375	-0.08	-0.04
N599	0.375	-0.08	-0.02
N600	0.375	-0.08	0
N601	0.375	-0.08	0.02
N602	0.375	-0.08	0.04
N603	0.375	-0.08	0.06
N604	0.375	-0.08	0.08
N605	0.375	-0.08	0.1
N606	0.375	-0.08	0.12
N607	0.375	-0.08	0.14
N608	0.4	-0.08	-0.14
N609	0.4	-0.08	-0.12
N610	0.4	-0.08	-0.1
N611	0.4	-0.08	-0.08
N612	0.4	-0.08	-0.06
N613	0.4	-0.08	-0.04
N614	0.4	-0.08	-0.02
N615	0.4	-0.08	0
N616	0.4	-0.08	0.02
N617	0.4	-0.08	0.04
N618	0.4	-0.08	0.06
N619	0.4	-0.08	0.08
N620	0.4	-0.08	0.1
N621	0.4	-0.08	0.12
N622	0.4	-0.08	0.14
N623	0.425	-0.08	-0.14
N624	0.425	-0.08	-0.12
N625	0.425	-0.08	-0.1
N626	0.425	-0.08	-0.08
N627	0.425	-0.08	-0.06
N628	0.425	-0.08	-0.04
N629	0.425	-0.08	-0.02
N630	0.425	-0.08	0
N631	0.425	-0.08	0.02
N632	0.425	-0.08	0.04
N633	0.425	-0.08	0.06
N634	0.425	-0.08	0.08
N635	0.425	-0.08	0.1
N636	0.425	-0.08	0.12
N637	0.425	-0.08	0.14
N638	0.45	-0.08	-0.14
N639	0.45	-0.08	-0.12
N640	0.45	-0.08	-0.1
N641	0.45	-0.08	-0.08
N642	0.45	-0.08	-0.06
N643	0.45	-0.08	-0.04
N644	0.45	-0.08	-0.02
N645	0.45	-0.08	0
N646	0.45	-0.08	0.02
N647	0.45	-0.08	0.04
N648	0.45	-0.08	0.06
N649	0.45	-0.08	0.08
N650	0.45	-0.08	0.1
N651	0.45	-0.08	0.12
N652	0.45	-0.08	0.14
N653	0.475	-0.08	-0.14
N654	0.475	-0.08	-0.12
N655	0.475	-0.08	-0.1
N656	0.475	-0.08	-0.08
N657	0.475	-0.08	-0.06
N658	0.475	-0.08	-0.04
N659	0.475	-0.08	-0.02
N660	0.475	-0.08	0
N661	0.475	-0.08	0.02
N662	0.475	-0.08	0.04
N663	0.475	-0.08	0.06
N664	0.475	-0.08	0.08
N665	0.475	-0.08	0.1
N666	0.475	-0.08	0.12
N667	0.475	-0.08	0.14
N668	0.475	0.08	-0.14
N669	0.475	0.08	-0.12
N670	0.475	0.08	-0.1
N671	0.475	0.08	-0.08
N672	0.475	0.08	-0.06
N673	0.475	0.08	-0.04
N674	0.475	0.08	-0.02
N675	0.475	0.08	0
N676	0.475	0.08	0.02
N677	0.475	0.08	0.04
N678	0.475	0.08	0.06
N679	0.475	0.08	0.08
N680	0.475	0.08	0.1
N681	0.475	0.08	0.12
N682	0.475	0.08	0.14
N683	0.45	0.08	-0.14
N684	0.45	0.08	-0.12
N685	0.45	0.08	-0.1
N686	0.45	0.08	-0.08
N687	0.45	0.08	-0.06
N688	0.45	0.08	-0.04
N689	0.45	0.08	-0.02
N690	0.45	0.08	0
N691	0.45	0.08	0.02
N692	0.45	0.08	0.04
N693	0.45	0.08	0.06
N694	0.45	0.08	0.08
N695	0.45	0.08	0.1
N696	0.45	0.08	0.12
N697	0.45	0.08	0.14
N698	0.425	0.08	-0.14
N699	0.425	0.08	-0.12
N700	0.425	0.08	-0.1
N701	0.425	0.08	-0.08
N702	0.425	0.08	-0.06
N703	0.425	0.08	-0.04
N704	0.425	0.08	-0.02
N705	0.425	0.08	0
N706	0.425	0.08	0.02
N707	0.425	0.08	0.04
N708	0.425	0.08	0.06
N709	0.425	0.08	0.08
N710	0.425	0.08	0.1
N711	0.425	0.08	0.12
N712	0.425	0.08	0.14
N713	0.4	0.08	-0.14
N714	0.4	0.08	-0.12
N715	0.4	0.08	-0.1
N716	0.4	0.08	-0.08
N717	0.4	0.08	-0.06
N718	0.4	0.08	-0.04
N719	0.4	0.08	-0.02
N720	0.4	0.08	0
N721	0.4	0.08	0.02
N722	0.4	0.08	0.04
N723	0.4	0.08	0.06
N724	0.4	0.08	0.08
N725	0.4	0.08	0.1
N726	0.4	0.08	0.12
N727	0.4	0.08	0.14
N728	0.375	0.08	-0.14
N729	0.375	0.08	-0.12
N730	0.375	0.08	-0.1
N731	0.375	0.08	-0.08
N732	0.375	0.08	-0.06
N733	0.375	0.08	-0.04
N734	0.375	0.08	-0.02
N735	0.375	0.08	0
N736	0.375	0.08	0.02
N737	0.375	0.08	0.04
N738	0.375	0.08	0.06
N739	0.375	0.08	0.08
N740	0.375	0.08	0.1
N741	0.375	0.08	0.12
N742	0.375	0.08	0.14
N743	0.35	0.08	-0.14
N744	0.35	0.08	-0.12
N745	0.35	0.08	-0.1
N746	0.35	0.08	-0.08
N747	0.35	0.08	-0.06
N748	0.35	0.08	-0.04
N749	0.35	0.08	-0.02
N750	0.35	0.08	0
N751	0.35	0.08	0.02
N752	0.35	0.08	0.04
N753	0.35	0.08	0.06
N754	0.35	0.08	0.08
N755	0.35	0.08	0.1
N756	0.35	0.08	0.12
N757	0.35	0.08	0.14
N758	0.325	0.08	-0.14
N759	0.325	0.08	-0.12
N760	0.325	0.08	-0.1
N761	0.325	0.08	-0.08
N762	0.325	0.08	-0.06
N763	0.325	0.08	-0.04
N764	0.325	0.08	-0.02
N765	0.325	0.08	0
N766	0.325	0.08	0.02
N767	0.325	0.08	0.04
N768	0.325	0.08	0.06
N769	0.325	0.08	0.08
N770	0.325	0.08	0.1
N771	0.325	0.08	0.12
N772	0.325	0.08	0.14
N773	0.3	0.08	-0.14
N774	0.3	0.08	-0.12
N775	0.3	0.08	-0.1
N776	0.3	0.08	-0.08
N777	0.3	0.08	-0.06
N778	0.3	0.08	-0.04
N779	0.3	0.08	-0.02
N780	0.3	0.08	0
N781	0.3	0.08	0.02
N782	0.3	0.08	0.04
N783	0.3	0.08	0.06
N784	0.3	0.08	0.08
N785	0.3	0.08	0.1
N786	0.3	0.08	0.12
N787	0.3	0.08	0.14
N788	0.275	0.08	-0.14
N789	0.275	0.08	-0.12
N790	0.275	0.08	-0.1
N791	0.275	0.08	-0.08
N792	0.275	0.08	-0.06
N793	0.275	0.08	-0.04
N794	0.275	0.08	-0.02
N795	0.275	0.08	0
N796	0.275	0.08	0.02
N797	0.275	0.08	0.04
N798	0.275	0.08	0.06
N799	0.275	0.08	0.08
N800	0.275	0.08	0.1
N801	0.275	0.08	0.12
N802	0.275	0.08	0.14
N803	0.25	0.08	-0.14
N804	0.25	0.08	-0.12
N805	0.25	0.08	-0.1
N806	0.25	0.08	-0.08
N807	0.25	0.08	-0.06
N808	0.25	0.08	-0.04
N809	0.25	0.08	-0.02
N810	0.25	0.08	0
N811	0.25	0.08	0.02
N812	0.25	0.08	0.04
N813	0.25	0.08	0.06
N814	0.25	0.08	0.08
N815	0.25	0.08	0.1
N816	0.25	0.08	0.12
N817	0.25	0.08	0.14
N818	0.225	0.08	-0.14
N819	0.225	0.08	-0.12
N820	0.225	0.08	-0.1
N821	0.225	0.08	-0.08
N822	0.225	0.08	-0.06
N823	0.225	0.08	-0.04
N824	0.225	0.08	-0.02
N825	0.225	0.08	0
N826	0.225	0.08	0.02
N827	0.225	0.08	0.04
N828	0.225	0.08	0.06
N829	0.225	0.08	0.08
N830	0.225	0.08	0.1
N831	0.225	0.08	0.12
N832	0.225	0.08	0.14
N833	0.2	0.08	-0.14
N834	0.2	0.08	-0.12
N835	0.2	0.08	-0.1
N836	0.2	0.08	-0.08
N837	0.2	0.08	-0.06
N838	0.2	0.08	-0.04
N839	0.2	0.08	-0.02
N840	0.2	0.08	0
N841	0.2	0.08	0.02
N842	0.2	0.08	0.04
N843	0.2	0.08	0.06
N844	0.2	0.08	0.08
N845	0.2	0.08	0.1
N846	0.2	0.08	0.12
N847	0.2	0.08	0.14
N848	0.175	0.08	-0.14
N849	0.175	0.08	-0.12
N850	0.175	0.08	-0.1
N851	0.175	0.08	-0.08
N852	0.175	0.08	-0.06
N853	0.175	0.08	-0.04
N854	0.175	0.08	-0.02
N855	0.175	0.08	0
N856	0.175	0.08	0.02
N857	0.175	0.08	0.04
N858	0.175	0.08	0.06
N859	0.175	0.08	0.08
N860	0.175	0.08	0.1
N861	0.175	0.08	0.12
N862	0.175	0.08	0.14
N863	0.15	0.08	-0.14
N864	0.15	0.08	-0.12
N865	0.15	0.08	-0.1
N866	0.15	0.08	-0.08
N867	0.15	0.08	-0.06
N868	0.15	0.08	-0.04
N869	0.15	0.08	-0.02
N870	0.15	0.08	0
N871	0.15	0.08	0.02
N872	0.15	0.08	0.04
N873	0.15	0.08	0.06
N874	0.15	0.08	0.08
N875	0.15	0.08	0.1
N876	0.15	0.08	0.12
N877	0.15	0.08	0.14
N878	0.125	0.08	-0.14
N879	0.125	0.08	-0.12
N880	0.125	0.08	-0.1
N881	0.125	0.08	-0.08
N882	0.125	0.08	-0.06
N883	0.125	0.08	-0.04
N884	0.125	0.08	-0.02
N885	0.125	0.08	0
N886	0.125	0.08	0.02
N887	0.125	0.08	0.04
N888	0.125	0.08	0.06
N889	0.125	0.08	0.08
N890	0.125	0.08	0.1
N891	0.125	0.08	0.12
N892	0.125	0.08	0.14
N893	0.1	0.08	-0.14
N894	0.1	0.08	-0.12
N895	0.1	0.08	-0.1
N896	0.1	0.08	-0.08
N897	0.1	0.08	-0.06
N898	0.1	0.08	-0.04
N899	0.1	0.08	-0.02
N900	0.1	0.08	0
N901	0.1	0.08	0.02
N902	0.1	0.08	0.04
N903	0.1	0.08	0.06
N904	0.1	0.08	0.08
N905	0.1	0.08	0.1
N906	0.1	0.08	0.12
N907	0.1	0.08	0.14
N908	0.075	0.08	-0.14
N909	0.075	0.08	-0.12
N910	0.075	0.08	-0.1
N911	0.075	0.08	-0.08
N912	0.075	0.08	-0.06
N913	0.075	0.08	-0.04
N914	0.075	0.08	-0.02
N915	0.075	0.08	5.55112e-17
N916	0.075	0.08	0.02
N917	0.075	0.08	0.04
N918	0.075	0.08	0.06
N919	0.075	0.08	0.08
N920	0.075	0.08	0.1
N921	0.075	0.08	0.12
N922	0.075	0.08	0.14
N923	0.05	0.08	-0.14
N924	0.05	0.08	-0.12
N925	0.05	0.08	-0.1
N926	0.05	0.08	-0.08
N927	0.05	0.08	-0.06
N928	0.05	0.08	-0.04
N929	0.05	0.08	-0.02
N930	0.05	0.08	5.55112e-17
N931	0.05	0.08	0.02
N932	0.05	0.08	0.04
N933	0.05	0.08	0.06
N934	0.05	0.08	0.08
N935	0.05	0.08	0.1
N936	0.05	0.08	0.12
N937	0.05	0.08	0.14
N938	0.025	0.08	-0.14
N939	0.025	0.08	-0.12
N940	0.025	0.08	-0.1
N941	0.025	0.08	-0.08
N942	0.025	0.08	-0.06
N943	0.025	0.08	-0.04
N944	0.025	0.08	-0.02
N945	0.025	0.08	0
N946	0.025	0.08	0.02
N947	0.025	0.08	0.04
N948	0.025	0.08	0.06
N949	0.025	0.08	0.08
N950	0.025	0.08	0.1
N951	0.025	0.08	0.12
N952	0.025	0.08	0.14
N953	0.025	-0.06	-0.16
N954	0.05	-0.06	-0.16
N955	0.075	-0.06	-0.16
N956	0.1	-0.06	-0.16
N957	0.125	-0.06	-0.16
N958	0.15	-0.06	-0.16
N959	0.175	-0.06	-0.16
N960	0.2	-0.06	-0.16
N961	0.225	-0.06	-0.16
N962	0.25	-0.06	-0.16
N963	0.275	-0.06	-0.16
N964	0.3	-0.06	-0.16
N965	0.325	-0.06	-0.16
N966	0.35	-0.06	-0.16
N967	0.375	-0.06	-0.16
N968	0.4	-0.06	-0.16
N969	0.425	-0.06	-0.16
N970	0.45	-0.06	-0.16
N971	0.475	-0.06	-0.16
N972	0.025	-0.04	-0.16
N973	0.05	-0.04	-0.16
N974	0.075	-0.04	-0.16
N975	0.1	-0.04	-0.16
N976	0.125	-0.04	-0.16
N977	0.15	-0.04	-0.16
N978	0.175	-0.04	-0.16
N979	0.2	-0.04	-0.16
N980	0.225	-0.04	-0.16
N981	0.25	-0.04	-0.16
N982	0.275	-0.04	-0.16
N983	0.3	-0.04	-0.16
N984	0.325	-0.04	-0.16
N985	0.35	-0.04	-0.16
N986	0.375	-0.04	-0.16
N987	0.4	-0.04	-0.16
N988	0.425	-0.04	-0.16
N989	0.45	-0.04	-0.16
N990	0.475	-0.04	-0.16
N991	0.025	-0.02	-0.16
N992	0.05	-0.02	-0.16
N993	0.075	-0.02	-0.16
N994	0.1	-0.02	-0.16
N995	0.125	-0.02	-0.16
N996	0.15	-0.02	-0.16
N997	0.175	-0.02	-0.16
N998	0.2	-0.02	-0.16
N999	0.225	-0.02	-0.16
N1000	0.25	-0.02	-0.16
N1001	0.275	-0.02	-0.16
N1002	0.3	-0.02	-0.16
N1003	0.325	-0.02	-0.16
N1004	0.35	-0.02	-0.16
N1005	0.375	-0.02	-0.16
N1006	0.4	-0.02	-0.16
N1007	0.425	-0.02	-0.16
N1008	0.45	-0.02	-0.16
N1009	0.475	-0.02	-0.16
N1010	0.025	0	-0.16
N1011	0.05	1.38778e-17	-0.16
N1012	0.075	2.77556e-17	-0.16
N1013	0.1	2.77556e-17	-0.16
N1014	0.125	0	-0.16
N1015	0.15	1.38778e-17	-0.16
N1016	0.175	0	-0.16
N1017	0.2	-1.38778e-17	-0.16
N1018	0.225	0	-0.16
N1019	0.25	-1.38778e-17	-0.16
N1020	0.275	0	-0.16
N1021	0.3	0	-0.16
N1022	0.325	0	-0.16
N1023	0.35	0	-0.16
N1024	0.375	0	-0.16
N1025	0.4	0	-0.16
N1026	0.425	0	-0.16
N1027	0.45	0	-0.16
N1028	0.475	0	-0.16
N1029	0.025	0.02	-0.16
N1030	0.05	0.02	-0.16
N1031	0.075	0.02	-0.16
N1032	0.1	0.02	-0.16
N1033	0.125	0.02	-0.16
N1034	0.15	0.02	-0.16
N1035	0.175	0.02	-0.16
N1036	0.2	0.02	-0.16
N1037	0.225	0.02	-0.16
N1038	0.25	0.02	-0.16
N1039	0.275	0.02	-0.16
N1040	0.3	0.02	-0.16
N1041	0.325	0.02	-0.16
N1042	0.35	0.02	-0.16
N1043	0.375	0.02	-0.16
N1044	0.4	0.02	-0.16
N1045	0.425	0.02	-0.16
N1046	0.45	0.02	-0.16
N1047	0.475	0.02	-0.16
N1048	0.025	0.04	-0.16
N1049	0.05	0.04	-0.16
N1050	0.075	0.04	-0.16
N1051	0.1	0.04	-0.16
N1052	0.125	0.04	-0.16
N1053	0.15	0.04	-0.16
N1054	0.175	0.04	-0.16
N1055	0.2	0.04	-0.16
N1056	0.225	0.04	-0.16
N1057	0.25	0.04	-0.16
N1058	0.275	0.04	-0.16
N1059	0.3	0.04	-0.16
N1060	0.325	0.04	-0.16
N1061	0.35	0.04	-0.16
N1062	0.375	0.04	-0.16
N1063	0.4	0.04	-0.16
N1064	0.425	0.04	-0.16
N1065	0.45	0.04	-0.16
N1066	0.475	0.04	-0.16
N1067	0.025	0.06	-0.16
N1068	0.05	0.06	-0.16
N1069	0.075	0.06	-0.16
N1070	0.1	0.06	-0.16
N1071	0.125	0.06	-0.16
N1072	0.15	0.06	-0.16
N1073	0.175	0.06	-0.16
N1074	0.2	0.06	-0.16
N1075	0.225	0.06	-0.16
N1076	0.25	0.06	-0.16
N1077	0.275	0.06	-0.16
N1078	0.3	0.06	-0.16
N1079	0.325	0.06	-0.16
N1080	0.35	0.06	-0.16
N1081	0.375	0.06	-0.16
N1082	0.4	0.06	-0.16
N1083	0.425	0.06	-0.16
N1084	0.45	0.06	-0.16
N1085	0.475	0.06	-0.16
N1086	0.025	0.06	0.16
N1087	0.05	0.06	0.16
N1088	0.075	0.06	0.16
N1089	0.1	0.06	0.16
N1090	0.125	0.06	0.16
N1091	0.15	0.06	0.16
N1092	0.175	0.06	0.16
N1093	0.2	0.06	0.16
N1094	0.225	0.06	0.16
N1095	0.25	0.06	0.16
N1096	0.275	0.06	0.16
N1097	0.3	0.06	0.16
N1098	0.325	0.06	0.16
N1099	0.35	0.06	0.16
N1100	0.375	0.06	0.16
N1101	0.4	0.06	0.16
N1102	0.425	0.06	0.16
N1103	0.45	0.06	0.16
N1104	0.475	0.06	0.16
N1105	0.025	0.04	0.16
N1106	0.05	0.04	0.16
N1107	0.075	0.04	0.16
N1108	0.1	0.04	0.16
N1109	0.125	0.04	0.16
N1110	0.15	0.04	0.16
N1111	0.175	0.04	0.16
N1112	0.2	0.04	0.16
N1113	0.225	0.04	0.16
N1114	0.25	0.04	0.16
N1115	0.275	0.04	0.16
N1116	0.3	0.04	0.16
N1117	0.325	0.04	0.16
N1118	0.35	0.04	0.16
N1119	0.375	0.04	0.16
N1120	0.4	0.04	0.16
N1121	0.425	0.04	0.16
N1122	0.45	0.04	0.16
N1123	0.475	0.04	0.16
N1124	0.025	0.02	0.16
N1125	0.05	0.02	0.16
N1126	0.075	0.02	0.16
N1127	0.1	0.02	0.16
N1128	0.125	0.02	0.16
N1129	0.15	0.02	0.16
N1130	0.175	0.02	0.16
N1131	0.2	0.02	0.16
N1132	0.225	0.02	0.16
N1133	0.25	0.02	0.16
N1134	0.275	0.02	0.16
N1135	0.3	0.02	0.16
N1136	0.325	0.02	0.16
N1137	0.35	0.02	0.16
N1138	0.375	0.02	0.16
N1139	0.4	0.02	0.16
N1140	0.425	0.02	0.16
N1141	0.45	0.02	0.16
N1142	0.475	0.02	0.16
N1143	0.025	0	0.16
N1144	0.05	1.38778e-17	0.16
N1145	0.075	0	0.16
N1146	0.1	0	0.16
N1147	0.125	0	0.16
N1148	0.15	-1.38778e-17	0.16
N1149	0.175	0	0.16
N1150	0.2	1.38778e-17	0.16
N1151	0.225	0	0.16
N1152	0.25	-1.38778e-17	0.16
N1153	0.275	0	0.16
N1154	0.3	0	0.16
N1155	0.325	0	0.16
N1156	0.35	0	0.16
N1157	0.375	0	0.16
N1158	0.4	0	0.16
N1159	0.425	0	0.16
N1160	0.45	0	0.16
N1161	0.475	0	0.16
N1162	0.025	-0.02	0.16
N1163	0.05	-0.02	0.16
N1164	0.075	-0.02	0.16
N1165	0.1	-0.02	0.16
N1166	0.125	-0.02	0.16
N1167	0.15	-0.02	0.16
N1168	0.175	-0.02	0.16
N1169	0.2	-0.02	0.16
N1170	0.225	-0.02	0.16
N1171	0.25	-0.02	0.16
N1172	0.275	-0.02	0.16
N1173	0.3	-0.02	0.16
N1174	0.325	-0.02	0.16
N1175	0.35	-0.02	0.16
N1176	0.375	-0.02	0.16
N1177	0.4	-0.02	0.16
N1178	0.425	-0.02	0.16
N1179	0.45	-0.02	0.16
N1180	0.475	-0.02	0.16
N1181	0.025	-0.04	0.16
N1182	0.05	-0.04	0.16
N1183	0.075	-0.04	0.16
N1184	0.1	-0.04	0.16
N1185	0.125	-0.04	0.16
N1186	0.15	-0.04	0.16
N1187	0.175	-0.04	0.16
N1188	0.2	-0.04	0.16
N1189	0.225	-0.04	0.16
N1190	0.25	-0.04	0.16
N1191	0.275	-0.04	0.16
N1192	0.3	-0.04	0.16
N1193	0.325	-0.04	0.16
N1194	0.35	-0.04	0.16
N1195	0.375	-0.04	0.16
N1196	0.4	-0.04	0.16
N1197	0.425	-0.04	0.16
N1198	0.45	-0.04	0.16
N1199	0.475	-0.04	0.16
N1200	0.025	-0.06	0.16
N1201	0.05	-0.06	0.16
N1202	0.075	-0.06	0.16
N1203	0.1	-0.06	0.16
N1204	0.125	-0.06	0.16
N1205	0.15	-0.06	0.16
N1206	0.175	-0.06	0.16
N1207	0.2	-0.06	0.16
N1208	0.225	-0.06	0.16
N1209	0.25	-0.06	0.16
N1210	0.275	-0.06	0.16
N1211	0.3	-0.06	0.16
N1212	0.325	-0.06	0.16
N1213	0.35	-0.06	0.16
N1214	0.375	-0.06	0.16
N1215	0.4	-0.06	0.16
N1216	0.425	-0.06	0.16
N1217	0.45	-0.06	0.16
N1218	0.475	-0.06	0.16
N1219	0.025	-0.06	0.14
N1220	0.05	-0.06	0.14
N1221	0.075	-0.06	0.14
N1222	0.1	-0.06	0.14
N1223	0.125	-0.06	0.14
N1224	0.15	-0.06	0.14
N1225	0.175	-0.06	0.14
N1226	0.2	-0.06	0.14
N1227	0.225	-0.06	0.14
N1228	0.25	-0.06	0.14
N1229	0.275	-0.06	0.14
N1230	0.3	-0.06	0.14
N1231	0.325	-0.06	0.14
N1232	0.35	-0.06	0.14
N1233	0.375	-0.06	0.14
N1234	0.4	-0.06	0.14
N1235	0.425	-0.06	0.14
N1236	0.45	-0.06	0.14
N1237	0.475	-0.06	0.14
N1238	0.025	-0.04	0.14
N1239	0.05	-0.04	0.14
N1240	0.075	-0.04	0.14
N1241	0.1	-0.04	0.14
N1242	0.125	-0.04	0.14
N1243	0.15	-0.04	0.14
N1244	0.175	-0.04	0.14
N1245	0.2	-0.04	0.14
N1246	0.225	-0.04	0.14
N1247	0.25	-0.04	0.14
N1248	0.275	-0.04	0.14
N1249	0.3	-0.04	0.14
N1250	0.325	-0.04	0.14
N1251	0.35	-0.04	0.14
N1252	0.375	-0.04	0.14
N1253	0.4	-0.04	0.14
N1254	0.425	-0.04	0.14
N1255	0.45	-0.04	0.14
N1256	0.475	-0.04	0.14
N1257	0.025	-0.02	0.14
N1258	0.05	-0.02	0.14
N1259	0.075	-0.02	0.14
N1260	0.1	-0.02	0.14
N1261	0.125	-0.02	0.14
N1262	0.15	-0.02	0.14
N1263	0.175	-0.02	0.14
N1264	0.2	-0.02	0.14
N1265	0.225	-0.02	0.14
N1266	0.25	-0.02	0.14
N1267	0.275	-0.02	0.14
N1268	0.3	-0.02	0.14
N1269	0.325	-0.02	0.14
N1270	0.35	-0.02	0.14
N1271	0.375	-0.02	0.14
N1272	0.4	-0.02	0.14
N1273	0.425	-0.02	0.14
N1274	0.45	-0.02	0.14
N1275	0.475	-0.02	0.14
N1276	0.025	0	0.14
N1277	0.05	1.38778e-17	0.14
N1278	0.075	0	0.14
N1279	0.1	0	0.14
N1280	0.125	0	0.14
N1281	0.15	-1.38778e-17	0.14
N1282	0.175	0	0.14
N1283	0.2	1.38778e-17	0.14
N1284	0.225	0	0.14
N1285	0.25	-1.38778e-17	0.14
N1286	0.275	0	0.14
N1287	0.3	0	0.14
N1288	0.325	0	0.14
N1289	0.35	0	0.14
N1290	0.375	0	0.14
N1291	0.4	0	0.14
N1292	0.425	0	0.14
N1293	0.45	0	0.14
N1294	0.475	0	0.14
N1295	0.025	0.02	0.14
N1296	0.05	0.02	0.14
N1297	0.075	0.02	0.14
N1298	0.1	0.02	0.14
N1299	0.125	0.02	0.14
N1300	0.15	0.02	0.14
N1301	0.175	0.02	0.14
N1302	0.2	0.02	0.14
N1303	0.225	0.02	0.14
N1304	0.25	0.02	0.14
N1305	0.275	0.02	0.14
N1306	0.3	0.02	0.14
N1307	0.325	0.02	0.14
N1308	0.35	0.02	0.14
N1309	0.375	0.02	0.14
N1310	0.4	0.02	0.14
N1311	0.425	0.02	0.14
N1312	0.45	0.02	0.14
N1313	0.475	0.02	0.14
N1314	0.025	0.04	0.14
N1315	0.05	0.04	0.14
N1316	0.075	0.04	0.14
N1317	0.1	0.04	0.14
N1318	0.125	0.04	0.14
N1319	0.15	0.04	0.14
N1320	0.175	0.04	0.14
N1321	0.2	0.04	0.14
N1322	0.225	0.04	0.14
N1323	0.25	0.04	0.14
N1324	0.275	0.04	0.14
N1325	0.3	0.04	0.14
N1326	0.325	0.04	0.14
N1327	0.35	0.04	0.14
N1328	0.375	0.04	0.14
N1329	0.4	0.04	0.14
N1330	0.425	0.04	0.14
N1331	0.45	0.04	0.14
N1332	0.475	0.04	0.14
N1333	0.025	0.06	0.14
N1334	0.05	0.06	0.14
N1335	0.075	0.06	0.14
N1336	0.1	0.06	0.14
N1337	0.125	0.06	0.14
N1338	0.15	0.06	0.14
N1339	0.175	0.06	0.14
N1340	0.2	0.06	0.14
N1341	0.225	0.06	0.14
N1342	0.25	0.06	0.14
N1343	0.275	0.06	0.14
N1344	0.3	0.06	0.14
N1345	0.325	0.06	0.14
N1346	0.35	0.06	0.14
N1347	0.375	0.06	0.14
N1348	0.4	0.06	0.14
N1349	0.425	0.06	0.14
N1350	0.45	0.06	0.14
N1351	0.475	0.06	0.14
N1352	0.025	-0.06	0.12
N1353	0.05	-0.06	0.12
N1354	0.075	-0.06	0.12
N1355	0.1	-0.06	0.12
N1356	0.125	-0.06	0.12
N1357	0.15	-0.06	0.12
N1358	0.175	-0.06	0.12
N1359	0.2	-0.06	0.12
N1360	0.225	-0.06	0.12
N1361	0.25	-0.06	0.12
N1362	0.275	-0.06	0.12
N1363	0.3	-0.06	0.12
N1364	0.325	-0.06	0.12
N1365	0.35	-0.06	0.12
N1366	0.375	-0.06	0.12
N1367	0.4	-0.06	0.12
N1368	0.425	-0.06	0.12
N1369	0.45	-0.06	0.12
N1370	0.475	-0.06	0.12
N1371	0.025	-0.04	0.12
N1372	0.05	-0.04	0.12
N1373	0.075	-0.04	0.12
N1374	0.1	-0.04	0.12
N1375	0.125	-0.04	0.12
N1376	0.15	-0.04	0.12
N1377	0.175	-0.04	0.12
N1378	0.2	-0.04	0.12
N1379	0.225	-0.04	0.12
N1380	0.25	-0.04	0.12
N1381	0.275	-0.04	0.12
N1382	0.3	-0.04	0.12
N1383	0.325	-0.04	0.12
N1384	0.35	-0.04	0.12
N1385	0.375	-0.04	0.12
N1386	0.4	-0.04	0.12
N1387	0.425	-0.04	0.12
N1388	0.45	-0.04	0.12
N1389	0.475	-0.04	0.12
N1390	0.025	-0.02	0.12
N1391	0.05	-0.02	0.12
N1392	0.075	-0.02	0.12
N1393	0.1	-0.02	0.12
N1394	0.125	-0.02	0.12
N1395	0.15	-0.02	0.12
N1396	0.175	-0.02	0.12
N1397	0.2	-0.02	0.12
N1398	0.225	-0.02	0.12
N1399	0.25	-0.02	0.12
N1400	0.275	-0.02	0.12
N1401	0.3	-0.02	0.12
N1402	0.325	-0.02	0.12
N1403	0.35	-0.02	0.12
N1404	0.375	-0.02	0.12
N1405	0.4	-0.02	0.12
N1406	0.425	-0.02	0.12
N1407	0.45	-0.02	0.12
N1408	0.475	-0.02	0.12
N1409	0.025	0	0.12
N1410	0.05	1.38778e-17	0.12
N1411	0.075	6.93889e-18	0.12
N1412	0.1	6.93889e-18	0.12
N1413	0.125	0	0.12
N1414	0.15	-6.93889e-18	0.12
N1415	0.175	0	0.12
N1416	0.2	6.93889e-18	0.12
N1417	0.225	0	0.12
N1418	0.25	-1.38778e-17	0.12
N1419	0.275	0	0.12
N1420	0.3	0	0.12
N1421	0.325	0	0.12
N1422	0.35	0	0.12
N1423	0.375	0	0.12
N1424	0.4	0	0.12
N1425	0.425	0	0.12
N1426	0.45	0	0.12
N1427	0.475	0	0.12
N1428	0.025	0.02	0.12
N1429	0.05	0.02	0.12
N1430	0.075	0.02	0.12
N1431	0.1	0.02	0.12
N1432	0.125	0.02	0.12
N1433	0.15	0.02	0.12
N1434	0.175	0.02	0.12
N1435	0.2	0.02	0.12
N1436	0.225	0.02	0.12
N1437	0.25	0.02	0.12
N1438	0.275	0.02	0.12
N1439	0.3	0.02	0.12
N1440	0.325	0.02	0.12
N1441	0.35	0.02	0.12
N1442	0.375	0.02	0.12
N1443	0.4	0.02	0.12
N1444	0.425	0.02	0.12
N1445	0.45	0.02	0.12
N1446	0.475	0.02	0.12
N1447	0.025	0.04	0.12
N1448	0.05	0.04	0.12
N1449	0.075	0.04	0.12
N1450	0.1	0.04	0.12
N1451	0.125	0.04	0.12
N1452	0.15	0.04	0.12
N1453	0.175	0.04	0.12
N1454	0.2	0.04	0.12
N1455	0.225	0.04	0.12
N1456	0.25	0.04	0.12
N1457	0.275	0.04	0.12
N1458	0.3	0.04	0.12
N1459	0.325	0.04	0.12
N1460	0.35	0.04	0.12
N1461	0.375	0.04	0.12
N1462	0.4	0.04	0.12
N1463	0.425	0.04	0.12
N1464	0.45	0.04	0.12
N1465	0.475	0.04	0.12
N1466	0.025	0.06	0.12
N1467	0.05	0.06	0.12
N1468	0.075	0.06	0.12
N1469	0.1	0.06	0.12
N1470	0.125	0.06	0.12
N1471	0.15	0.06	0.12
N1472	0.175	0.06	0.12
N1473	0.2	0.06	0.12
N1474	0.225	0.06	0.12
N1475	0.25	0.06	0.12
N1476	0.275	0.06	0.12
N1477	0.3	0.06	0.12
N1478	0.325	0.06	0.12
N1479	0.35	0.06	0.12
N1480	0.375	0.06	0.12
N1481	0.4	0.06	0.12
N1482	0.425	0.06	0.12
N1483	0.45	0.06	0.12
N1484	0.475	0.06	0.12
N1485	0.025	-0.06	0.1
N1486	0.05	-0.06	0.1
N1487	0.075	-0.06	0.1
N1488	0.1	-0.06	0.1
N1489	0.125	-0.06	0.1
N1490	0.15	-0.06	0.1
N1491	0.175	-0.06	0.1
N1492	0.2	-0.06	0.1
N1493	0.225	-0.06	0.1
N1494	0.25	-0.06	0.1
N1495	0.275	-0.06	0.1
N1496	0.3	-0.06	0.1
N1497	0.325	-0.06	0.1
N1498	0.35	-0.06	0.1
N1499	0.375	-0.06	0.1
N1500	0.4	-0.06	0.1
N1501	0.425	-0.06	0.1
N1502	0.45	-0.06	0.1
N1503	0.475	-0.06	0.1
N1504	0.025	-0.04	0.1
N1505	0.05	-0.04	0.1
N1506	0.075	-0.04	0.1
N1507	0.1	-0.04	0.1
N1508	0.125	-0.04	0.1
N1509	0.15	-0.04	0.1
N1510	0.175	-0.04	0.1
N1511	0.2	-0.04	0.1
N1512	0.225	-0.04	0.1
N1513	0.25	-0.04	0.1
N1514	0.275	-0.04	0.1
N1515	0.3	-0.04	0.1
N1516	0.325	-0.04	0.1
N1517	0.35	-0.04	0.1
N1518	0.375	-0.04	0.1
N1519	0.4	-0.04	0.1
N1520	0.425	-0.04	0.1
N1521	0.45	-0.04	0.1
N1522	0.475	-0.04	0.1
N1523	0.025	-0.02	0.1
N1524	0.05	-0.02	0.1
N1525	0.075	-0.02	0.1
N1526	0.1	-0.02	0.1
N1527	0.125	-0.02	0.1
N1528	0.15	-0.02	0.1
N1529	0.175	-0.02	0.1
N1530	0.2	-0.02	0.1
N1531	0.225	-0.02	0.1
N1532	0.25	-0.02	0.1
N1533	0.275	-0.02	0.1
N1534	0.3	-0.02	0.1
N1535	0.325	-0.02	0.1
N1536	0.35	-0.02	0.1
N1537	0.375	-0.02	0.1
N1538	0.4	-0.02	0.1
N1539	0.425	-0.02	0.1
N1540	0.45	-0.02	0.1
N1541	0.475	-0.02	0.1
N1542	0.025	0	0.1
N1543	0.05	1.38778e-17	0.1
N1544	0.075	6.93889e-18	0.1
N1545	0.1	6.93889e-18	0.1
N1546	0.125	0	0.1
N1547	0.15	-6.93889e-18	0.1
N1548	0.175	0	0.1
N1549	0.2	6.93889e-18	0.1
N1550	0.225	0	0.1
N1551	0.25	-1.38778e-17	0.1
N1552	0.275	0	0.1
N1553	0.3	0	0.1
N1554	0.325	0	0.1
N1555	0.35	0	0.1
N1556	0.375	0	0.1
N1557	0.4	0	0.1
N1558	0.425	0	0.1
N1559	0.45	0	0.1
N1560	0.475	0	0.1
N1561	0.025	0.02	0.1
N1562	0.05	0.02	0.1
N1563	0.075	0.02	0.1
N1564	0.1	0.02	0.1
N1565	0.125	0.02	0.1
N1566	0.15	0.02	0.1
N1567	0.175	0.02	0.1
N1568	0.2	0.02	0.1
N1569	0.225	0.02	0.1
N1570	0.25	0.02	0.1
N1571	0.275	0.02	0.1
N1572	0.3	0.02	0.1
N1573	0.325	0.02	0.1
N1574	0.35	0.02	0.1
N1575	0.375	0.02	0.1
N1576	0.4	0.02	0.1
N1577	0.425	0.02	0.1
N1578	0.45	0.02	0.1
N1579	0.475	0.02	0.1
N1580	0.025	0.04	0.1
N1581	0.05	0.04	0.1
N1582	0.075	0.04	0.1
N1583	0.1	0.04	0.1
N1584	0.125	0.04	0.1
N1585	0.15	0.04	0.1
N1586	0.175	0.04	0.1
N1587	0.2	0.04	0.1
N1588	0.225	0.04	0.1
N1589	0.25	0.04	0.1
N1590	0.275	0.04	0.1
N1591	0.3	0.04	0.1
N1592	0.325	0.04	0.1
N1593	0.35	0.04	0.1
N1594	0.375	0.04	0.1
N1595	0.4	0.04	0.1
N1596	0.425	0.04	0.1
N1597	0.45	0.04	0.1
N1598	0.475	0.04	0.1
N1599	0.025	0.06	0.1
N1600	0.05	0.06	0.1
N1601	0.075	0.06	0.1
N1602	0.1	0.06	0.1
N1603	0.125	0.06	0.1
N1604	0.15	0.06	0.1
N1605	0.175	0.06	0.1
N1606	0.2	0.06	0.1
N1607	0.225	0.06	0.1
N1608	0.25	0.06	0.1
N1609	0.275	0.06	0.1
N1610	0.3	0.06	0.1
N1611	0.325	0.06	0.1
N1612	0.35	0.06	0.1
N1613	0.375	0.06	0.1
N1614	0.4	0.06	0.1
N1615	0.425	0.06	0.1
N1616	0.45	0.06	0.1
N1617	0.475	0.06	0.1
N1618	0.025	-0.06	0.08
N1619	0.05	-0.06	0.08
N1620	0.075	-0.06	0.08
N1621	0.1	-0.06	0.08
N1622	0.125	-0.06	0.08
N1623	0.15	-0.06	0.08
N1624	0.175	-0.06	0.08
N1625	0.2	-0.06	0.08
N1626	0.225	-0.06	0.08
N1627	0.25	-0.06	0.08
N1628	0.275	-0.06	0.08
N1629	0.3	-0.06	0.08
N1630	0.325	-0.06	0.08
N1631	0.35	-0.06	0.08
N1632	0.375	-0.06	0.08
N1633	0.4	-0.06	0.08
N1634	0.425	-0.06	0.08
N1635	0.45	-0.06	0.08
N1636	0.475	-0.06	0.08
N1637	0.025	-0.04	0.08
N1638	0.05	-0.04	0.08
N1639	0.075	-0.04	0.08
N1640	0.1	-0.04	0.08
N1641	0.125	-0.04	0.08
N1642	0.15	-0.04	0.08
N1643	0.175	-0.04	0.08
N1644	0.2	-0.04	0.08
N1645	0.225	-0.04	0.08
N1646	0.25	-0.04	0.08
N1647	0.275	-0.04	0.08
N1648	0.3	-0.04	0.08
N1649	0.325	-0.04	0.08
N1650	0.35	-0.04	0.08
N1651	0.375	-0.04	0.08
N1652	0.4	-0.04	0.08
N1653	0.425	-0.04	0.08
N1654	0.45	-0.04	0.08
N1655	0.475	-0.04	0.08
N1656	0.025	-0.02	0.08
N1657	0.05	-0.02	0.08
N1658	0.075	-0.02	0.08
N1659	0.1	-0.02	0.08
N1660	0.125	-0.02	0.08
N1661	0.15	-0.02	0.08
N1662	0.175	-0.02	0.08
N1663	0.2	-0.02	0.08
N1664	0.225	-0.02	0.08
N1665	0.25	-0.02	0.08
N1666	0.275	-0.02	0.08
N1667	0.3	-0.02	0.08
N1668	0.325	-0.02	0.08
N1669	0.35	-0.02	0.08
N1670	0.375	-0.02	0.08
N1671	0.4	-0.02	0.08
N1672	0.425	-0.02	0.08
N1673	0.45	-0.02	0.08
N1674	0.475	-0.02	0.08
N1675	0.025	0	0.08
N1676	0.05	1.38778e-17	0.08
N1677	0.075	6.93889e-18	0.08
N1678	0.1	6.93889e-18	0.08
N1679	0.125	0	0.08
N1680	0.15	-6.93889e-18	0.08
N1681	0.175	0	0.08
N1682	0.2	6.93889e-18	0.08
N1683	0.225	0	0.08
N1684	0.25	-1.38778e-17	0.08
N1685	0.275	0	0.08
N1686	0.3	0	0.08
N1687	0.325	0	0.08
N1688	0.35	0	0.08
N1689	0.375	0	0.08
N1690	0.4	0	0.08
N1691	0.425	0	0.08
N1692	0.45	0	0.08
N1693	0.475	0	0.08
N1694	0.025	0.02	0.08
N1695	0.05	0.02	0.08
N1696	0.075	0.02	0.08
N1697	0.1	0.02	0.08
N1698	0.125	0.02	0.08
N1699	0.15	0.02	0.08
N1700	0.175	0.02	0.08
N1701	0.2	0.02	0.08
N1702	0.225	0.02	0.08
N1703	0.25	0.02	0.08
N1704	0.275	0.02	0.08
N1705	0.3	0.02	0.08
N1706	0.325	0.02	0.08
N1707	0.35	0.02	0.08
N1708	0.375	0.02	0.08
N1709	0.4	0.02	0.08
N1710	0.425	0.02	0.08
N1711	0.45	0.02	0.08
N1712	0.475	0.02	0.08
N1713	0.025	0.04	0.08
N1714	0.05	0.04	0.08
N1715	0.075	0.04	0.08
N1716	0.1	0.04	0.08
N1717	0.125	0.04	0.08
N1718	0.15	0.04	0.08
N1719	0.175	0.04	0.08
N1720	0.2	0.04	0.08
N1721	0.225	0.04	0.08
N1722	0.25	0.04	0.08
N1723	0.275	0.04	0.08
N1724	0.3	0.04	0.08
N1725	0.325	0.04	0.08
N1726	0.35	0.04	0.08
N1727	0.375	0.04	0.08
N1728	0.4	0.04	0.08
N1729	0.425	0.04	0.08
N1730	0.45	0.04	0.08
N1731	0.475	0.04	0.08
N1732	0.025	0.06	0.08
N1733	0.05	0.06	0.08
N1734	0.075	0.06	0.08
N1735	0.1	0.06	0.08
N1736	0.125	0.06	0.08
N1737	0.15	0.06	0.08
N1738	0.175	0.06	0.08
N1739	0.2	0.06	0.08
N1740	0.225	0.06	0.08
N1741	0.25	0.06	0.08
N1742	0.275	0.06	0.08
N1743	0.3	0.06	0.08
N1744	0.325	0.06	0.08
N1745	0.35	0.06	0.08
N1746	0.375	0.06	0.08
N1747	0.4	0.06	0.08
N1748	0.425	0.06	0.08
N1749	0.45	0.06	0.08
N1750	0.475	0.06	0.08
N1751	0.025	-0.06	0.06
N1752	0.05	-0.06	0.06
N1753	0.075	-0.06	0.06
N1754	0.1	-0.06	0.06
N1755	0.125	-0.06	0.06
N1756	0.15	-0.06	0.06
N1757	0.175	-0.06	0.06
N1758	0.2	-0.06	0.06
N1759	0.225	-0.06	0.06
N1760	0.25	-0.06	0.06
N1761	0.275	-0.06	0.06
N1762	0.3	-0.06	0.06
N1763	0.325	-0.06	0.06
N1764	0.35	-0.06	0.06
N1765	0.375	-0.06	0.06
N1766	0.4	-0.06	0.06
N1767	0.425	-0.06	0.06
N1768	0.45	-0.06	0.06
N1769	0.475	-0.06	0.06
N1770	0.025	-0.04	0.06
N1771	0.05	-0.04	0.06
N1772	0.075	-0.04	0.06
N1773	0.1	-0.04	0.06
N1774	0.125	-0.04	0.06
N1775	0.15	-0.04	0.06
N1776	0.175	-0.04	0.06
N1777	0.2	-0.04	0.06
N1778	0.225	-0.04	0.06
N1779	0.25	-0.04	0.06
N1780	0.275	-0.04	0.06
N1781	0.3	-0.04	0.06
N1782	0.325	-0.04	0.06
N1783	0.35	-0.04	0.06
N1784	0.375	-0.04	0.06
N1785	0.4	-0.04	0.06
N1786	0.425	-0.04	0.06
N1787	0.45	-0.04	0.06
N1788	0.475	-0.04	0.06
N1789	0.025	-0.02	0.06
N1790	0.05	-0.02	0.06
N1791	0.075	-0.02	0.06
N1792	0.1	-0.02	0.06
N1793	0.125	-0.02	0.06
N1794	0.15	-0.02	0.06
N1795	0.175	-0.02	0.06
N1796	0.2	-0.02	0.06
N1797	0.225	-0.02	0.06
N1798	0.25	-0.02	0.06
N1799	0.275	-0.02	0.06
N1800	0.3	-0.02	0.06
N1801	0.325	-0.02	0.06
N1802	0.35	-0.02	0.06
N1803	0.375	-0.02	0.06
N1804	0.4	-0.02	0.06
N1805	0.425	-0.02	0.06
N1806	0.45	-0.02	0.06
N1807	0.475	-0.02	0.06
N1808	0.025	2.63678e-17	0.06
N1809	0.05	3.88578e-17	0.06
N1810	0.075	3.05311e-17	0.06
N1811	0.1	2.91434e-17	0.06
N1812	0.125	2.08167e-17	0.06
N1813	0.15	1.249e-17	0.06
N1814	0.175	1.80411e-17	0.06
N1815	0.2	2.35922e-17	0.06
N1816	0.225	1.52656e-17	0.06
N1817	0.25	0	0.06
N1818	0.275	1.249e-17	0.06
N1819	0.3	1.11022e-17	0.06
N1820	0.325	9.71445e-18	0.06
N1821	0.35	8.32667e-18	0.06
N1822	0.375	6.93889e-18	0.06
N1823	0.4	5.55112e-18	0.06
N1824	0.425	4.16334e-18	0.06
N1825	0.45	2.77556e-18	0.06
N1826	0.475	1.38778e-18	0.06
N1827	0.025	0.02	0.06
N1828	0.05	0.02	0.06
N1829	0.075	0.02	0.06
N1830	0.1	0.02	0.06
N1831	0.125	0.02	0.06
N1832	0.15	0.02	0.06
N1833	0.175	0.02	0.06
N1834	0.2	0.02	0.06
N1835	0.225	0.02	0.06
N1836	0.25	0.02	0.06
N1837	0.275	0.02	0.06
N1838	0.3	0.02	0.06
N1839	0.325	0.02	0.06
N1840	0.35	0.02	0.06
N1841	0.375	0.02	0.06
N1842	0.4	0.02	0.06
N1843	0.425	0.02	0.06
N1844	0.45	0.02	0.06
N1845	0.475	0.02	0.06
N1846	0.025	0.04	0.06
N1847	0.05	0.04	0.06
N1848	0.075	0.04	0.06
N1849	0.1	0.04	0.06
N1850	0.125	0.04	0.06
N1851	0.15	0.04	0.06
N1852	0.175	0.04	0.06
N1853	0.2	0.04	0.06
N1854	0.225	0.04	0.06
N1855	0.25	0.04	0.06
N1856	0.275	0.04	0.06
N1857	0.3	0.04	0.06
N1858	0.325	0.04	0.06
N1859	0.35	0.04	0.06
N1860	0.375	0.04	0.06
N1861	0.4	0.04	0.06
N1862	0.425	0.04	0.06
N1863	0.45	0.04	0.06
N1864	0.475	0.04	0.06
N1865	0.025	0.06	0.06
N1866	0.05	0.06	0.06
N1867	0.075	0.06	0.06
N1868	0.1	0.06	0.06
N1869	0.125	0.06	0.06
N1870	0.15	0.06	0.06
N1871	0.175	0.06	0.06
N1872	0.2	0.06	0.06
N1873	0.225	0.06	0.06
N1874	0.25	0.06	0.06
N1875	0.275	0.06	0.06
N1876	0.3	0.06	0.06
N1877	0.325	0.06	0.06
N1878	0.35	0.06	0.06
N1879	0.375	0.06	0.06
N1880	0.4	0.06	0.06
N1881	0.425	0.06	0.06
N1882	0.45	0.06	0.06
N1883	0.475	0.06	0.06
N1884	0.025	-0.06	0.04
N1885	0.05	-0.06	0.04
N1886	0.075	-0.06	0.04
N1887	0.1	-0.06	0.04
N1888	0.125	-0.06	0.04
N1889	0.15	-0.06	0.04
N1890	0.175	-0.06	0.04
N1891	0.2	-0.06	0.04
N1892	0.225	-0.06	0.04
N1893	0.25	-0.06	0.04
N1894	0.275	-0.06	0.04
N1895	0.3	-0.06	0.04
N1896	0.325	-0.06	0.04
N1897	0.35	-0.06	0.04
N1898	0.375	-0.06	0.04
N1899	0.4	-0.06	0.04
N1900	0.425	-0.06	0.04
N1901	0.45	-0.06	0.04
N1902	0.475	-0.06	0.04
N1903	0.025	-0.04	0.04
N1904	0.05	-0.04	0.04
N1905	0.075	-0.04	0.04
N1906	0.1	-0.04	0.04
N1907	0.125	-0.04	0.04
N1908	0.15	-0.04	0.04
N1909	0.175	-0.04	0.04
N1910	0.2	-0.04	0.04
N1911	0.225	-0.04	0.04
N1912	0.25	-0.04	0.04
N1913	0.275	-0.04	0.04
N1914	0.3	-0.04	0.04
N1915	0.325	-0.04	0.04
N1916	0.35	-0.04	0.04
N1917	0.375	-0.04	0.04
N1918	0.4	-0.04	0.04
N1919	0.425	-0.04	0.04
N1920	0.45	-0.04	0.04
N1921	0.475	-0.04	0.04
N1922	0.025	-0.02	0.04
N1923	0.05	-0.02	0.04
N1924	0.075	-0.02	0.04
N1925	0.1	-0.02	0.04
N1926	0.125	-0.02	0.04
N1927	0.15	-0.02	0.04
N1928	0.175	-0.02	0.04
N1929	0.2	-0.02	0.04
N1930	0.225	-0.02	0.04
N1931	0.25	-0.02	0.04
N1932	0.275	-0.02	0.04
N1933	0.3	-0.02	0.04
N1934	0.325	-0.02	0.04
N1935	0.35	-0.02	0.04
N1936	0.375	-0.02	0.04
N1937	0.4	-0.02	0.04
N1938	0.425	-0.02	0.04
N1939	0.45	-0.02	0.04
N1940	0.475	-0.02	0.04
N1941	0.025	6.93889e-19	0.04
N1942	0.05	1.52656e-17	0.04
N1943	0.075	9.02056e-18	0.04
N1944	0.1	9.71445e-18	0.04
N1945	0.125	3.46945e-18	0.04
N1946	0.15	-2.77556e-18	0.04
N1947	0.175	4.85723e-18	0.04
N1948	0.2	5.55112e-18	0.04
N1949	0.225	6.245e-18	0.04
N1950	0.25	-6.93889e-18	0.04
N1951	0.275	7.63278e-18	0.04
N1952	0.3	8.32667e-18	0.04
N1953	0.325	9.02056e-18	0.04
N1954	0.35	9.71445e-18	0.04
N1955	0.375	1.04083e-17	0.04
N1956	0.4	1.11022e-17	0.04
N1957	0.425	1.17961e-17	0.04
N1958	0.45	1.249e-17	0.04
N1959	0.475	1.31839e-17	0.04
N1960	0.025	0.02	0.04
N1961	0.05	0.02	0.04
N1962	0.075	0.02	0.04
N1963	0.1	0.02	0.04
N1964	0.125	0.02	0.04
N1965	0.15	0.02	0.04
N1966	0.175	0.02	0.04
N1967	0.2	0.02	0.04
N1968	0.225	0.02	0.04
N1969	0.25	0.02	0.04
N1970	0.275	0.02	0.04
N1971	0.3	0.02	0.04
N1972	0.325	0.02	0.04
N1973	0.35	0.02	0.04
N1974	0.375	0.02	0.04
N1975	0.4	0.02	0.04
N1976	0.425	0.02	0.04
N1977	0.45	0.02	0.04
N1978	0.475	0.02	0.04
N1979	0.025	0.04	0.04
N1980	0.05	0.04	0.04
N1981	0.075	0.04	0.04
N1982	0.1	0.04	0.04
N1983	0.125	0.04	0.04
N1984	0.15	0.04	0.04
N1985	0.175	0.04	0.04
N1986	0.2	0.04	0.04
N1987	0.225	0.04	0.04
N1988	0.25	0.04	0.04
N1989	0.275	0.04	0.04
N1990	0.3	0.04	0.04
N1991	0.325	0.04	0.04
N1992	0.35	0.04	0.04
N1993	0.375	0.04	0.04
N1994	0.4	0.04	0.04
N1995	0.425	0.04	0.04
N1996	0.45	0.04	0.04
N1997	0.475	0.04	0.04
N1998	0.025	0.06	0.04
N1999	0.05	0.06	0.04
N2000	0.075	0.06	0.04
N2001	0.1	0.06	0.04
N2002	0.125	0.06	0.04
N2003	0.15	0.06	0.04
N2004	0.175	0.06	0.04
N2005	0.2	0.06	0.04
N2006	0.225	0.06	0.04
N2007	0.25	0.06	0.04
N2008	0.275	0.06	0.04
N2009	0.3	0.06	0.04
N2010	0.325	0.06	0.04
N2011	0.35	0.06	0.04
N2012	0.375	0.06	0.04
N2013	0.4	0.06	0.04
N2014	0.425	0.06	0.04
N2015	0.45	0.06	0.04
N2016	0.475	0.06	0.04
N2017	0.025	-0.06	0.02
N2018	0.05	-0.06	0.02
N2019	0.075	-0.06	0.02
N2020	0.1	-0.06	0.02
N2021	0.125	-0.06	0.02
N2022	0.15	-0.06	0.02
N2023	0.175	-0.06	0.02
N2024	0.2	-0.06	0.02
N2025	0.225	-0.06	0.02
N2026	0.25	-0.06	0.02
N2027	0.275	-0.06	0.02
N2028	0.3	-0.06	0.02
N2029	0.325	-0.06	0.02
N2030	0.35	-0.06	0.02
N2031	0.375	-0.06	0.02
N2032	0.4	-0.06	0.02
N2033	0.425	-0.06	0.02
N2034	0.45	-0.06	0.02
N2035	0.475	-0.06	0.02
N2036	0.025	-0.04	0.02
N2037	0.05	-0.04	0.02
N2038	0.075	-0.04	0.02
N2039	0.1	-0.04	0.02
N2040	0.125	-0.04	0.02
N2041	0.15	-0.04	0.02
N2042	0.175	-0.04	0.02
N2043	0.2	-0.04	0.02
N2044	0.225	-0.04	0.02
N2045	0.25	-0.04	0.02
N2046	0.275	-0.04	0.02
N2047	0.3	-0.04	0.02
N2048	0.325	-0.04	0.02
N2049	0.35	-0.04	0.02
N2050	0.375	-0.04	0.02
N2051	0.4	-0.04	0.02
N2052	0.425	-0.04	0.02
N2053	0.45	-0.04	0.02
N2054	0.475	-0.04	0.02
N2055	0.025	-0.02	0.02
N2056	0.05	-0.02	0.02
N2057	0.075	-0.02	0.02
N2058	0.1	-0.02	0.02
N2059	0.125	-0.02	0.02
N2060	0.15	-0.02	0.02
N2061	0.175	-0.02	0.02
N2062	0.2	-0.02	0.02
N2063	0.225	-0.02	0.02
N2064	0.25	-0.02	0.02
N2065	0.275	-0.02	0.02
N2066	0.3	-0.02	0.02
N2067	0.325	-0.02	0.02
N2068	0.35	-0.02	0.02
N2069	0.375	-0.02	0.02
N2070	0.4	-0.02	0.02
N2071	0.425	-0.02	0.02
N2072	0.45	-0.02	0.02
N2073	0.475	-0.02	0.02
N2074	0.025	0	0.02
N2075	0.05	1.38778e-17	0.02
N2076	0.075	1.38778e-17	0.02
N2077	0.1	1.38778e-17	0.02
N2078	0.125	0	0.02
N2079	0.15	0	0.02
N2080	0.175	0	0.02
N2081	0.2	0	0.02
N2082	0.225	0	0.02
N2083	0.25	-1.38778e-17	0.02
N2084	0.275	0	0.02
N2085	0.3	0	0.02
N2086	0.325	0	0.02
N2087	0.35	0	0.02
N2088	0.375	0	0.02
N2089	0.4	0	0.02
N2090	0.425	0	0.02
N2091	0.45	0	0.02
N2092	0.475	0	0.02
N2093	0.025	0.02	0.02
N2094	0.05	0.02	0.02
N2095	0.075	0.02	0.02
N2096	0.1	0.02	0.02
N2097	0.125	0.02	0.02
N2098	0.15	0.02	0.02
N2099	0.175	0.02	0.02
N2100	0.2	0.02	0.02
N2101	0.225	0.02	0.02
N2102	0.25	0.02	0.02
N2103	0.275	0.02	0.02
N2104	0.3	0.02	0.02
N2105	0.325	0.02	0.02
N2106	0.35	0.02	0.02
N2107	0.375	0.02	0.02
N2108	0.4	0.02	0.02
N2109	0.425	0.02	0.02
N2110	0.45	0.02	0.02
N2111	0.475	0.02	0.02
N2112	0.025	0.04	0.02
N2113	0.05	0.04	0.02
N2114	0.075	0.04	0.02
N2115	0.1	0.04	0.02
N2116	0.125	0.04	0.02
N2117	0.15	0.04	0.02
N2118	0.175	0.04	0.02
N2119	0.2	0.04	0.02
N2120	0.225	0.04	0.02
N2121	0.25	0.04	0.02
N2122	0.275	0.04	0.02
N2123	0.3	0.04	0.02
N2124	0.325	0.04	0.02
N2125	0.35	0.04	0.02
N2126	0.375	0.04	0.02
N2127	0.4	0.04	0.02
N2128	0.425	0.04	0.02
N2129	0.45	0.04	0.02
N2130	0.475	0.04	0.02
N2131	0.025	0.06	0.02
N2132	0.05	0.06	0.02
N2133	0.075	0.06	0.02
N2134	0.1	0.06	0.02
N2135	0.125	0.06	0.02
N2136	0.15	0.06	0.02
N2137	0.175	0.06	0.02
N2138	0.2	0.06	0.02
N2139	0.225	0.06	0.02
N2140	0.25	0.06	0.02
N2141	0.275	0.06	0.02
N2142	0.3	0.06	0.02
N2143	0.325	0.06	0.02
N2144	0.35	0.06	0.02
N2145	0.375	0.06	0.02
N2146	0.4	0.06	0.02
N2147	0.425	0.06	0.02
N2148	0.45	0.06	0.02
N2149	0.475	0.06	0.02
N2150	0.025	-0.06	5.55112e-17
N2151	0.05	-0.06	2.77556e-17
N2152	0.075	-0.06	5.55112e-17
N2153	0.1	-0.06	4.16334e-17
N2154	0.125	-0.06	4.16334e-17
N2155	0.15	-0.06	6.93889e-17
N2156	0.175	-0.06	4.16334e-17
N2157	0.2	-0.06	1.38778e-17
N2158	0.225	-0.06	2.77556e-17
N2159	0.25	-0.06	5.55112e-17
N2160	0.275	-0.06	2.77556e-17
N2161	0.3	-0.06	2.77556e-17
N2162	0.325	-0.06	1.38778e-17
N2163	0.35	-0.06	1.38778e-17
N2164	0.375	-0.06	1.38778e-17
N2165	0.4	-0.06	1.38778e-17
N2166	0.425	-0.06	1.38778e-17
N2167	0.45	-0.06	0
N2168	0.475	-0.06	0
N2169	0.025	-0.04	0
N2170	0.05	-0.04	-1.38778e-17
N2171	0.075	-0.04	1.38778e-17
N2172	0.1	-0.04	0
N2173	0.125	-0.04	0
N2174	0.15	-0.04	1.38778e-17
N2175	0.175	-0.04	0
N2176	0.2	-0.04	-1.38778e-17
N2177	0.225	-0.04	0
N2178	0.25	-0.04	2.77556e-17
N2179	0.275	-0.04	0
N2180	0.3	-0.04	0
N2181	0.325	-0.04	0
N2182	0.35	-0.04	0
N2183	0.375	-0.04	0
N2184	0.4	-0.04	0
N2185	0.425	-0.04	0
N2186	0.45	-0.04	0
N2187	0.475	-0.04	0
N2188	0.025	-0.02	0
N2189	0.05	-0.02	0
N2190	0.075	-0.02	1.38778e-17
N2191	0.1	-0.02	0
N2192	0.125	-0.02	0
N2193	0.15	-0.02	1.38778e-17
N2194	0.175	-0.02	0
N2195	0.2	-0.02	-1.38778e-17
N2196	0.225	-0.02	0
N2197	0.25	-0.02	1.38778e-17
N2198	0.275	-0.02	0
N2199	0.3	-0.02	0
N2200	0.325	-0.02	0
N2201	0.35	-0.02	0
N2202	0.375	-0.02	0
N2203	0.4	-0.02	0
N2204	0.425	-0.02	0
N2205	0.45	-0.02	0
N2206	0.475	-0.02	0
N2207	0.025	0	0
N2208	0.05	1.38778e-17	1.38778e-17
N2209	0.075	1.38778e-17	2.77556e-17
N2210	0.1	1.38778e-17	0
N2211	0.125	0	0
N2212	0.15	0	1.38778e-17
N2213	0.175	0	0
N2214	0.2	0	-1.38778e-17
N2215	0.225	0	0
N2216	0.25	-1.38778e-17	1.38778e-17
N2217	0.275	0	0
N2218	0.3	0	0
N2219	0.325	0	0
N2220	0.35	0	0
N2221	0.375	0	0
N2222	0.4	0	0
N2223	0.425	0	0
N2224	0.45	0	0
N2225	0.475	0	0
N2226	0.025	0.02	0
N2227	0.05	0.02	2.77556e-17
N2228	0.075	0.02	2.77556e-17
N2229	0.1	0.02	0
N2230	0.125	0.02	0
N2231	0.15	0.02	1.38778e-17
N2232	0.175	0.02	0
N2233	0.2	0.02	-1.38778e-17
N2234	0.225	0.02	0
N2235	0.25	0.02	1.38778e-17
N2236	0.275	0.02	0
N2237	0.3	0.02	0
N2238	0.325	0.02	0
N2239	0.35	0.02	0
N2240	0.375	0.02	0
N2241	0.4	0.02	0
N2242	0.425	0.02	0
N2243	0.45	0.02	0
N2244	0.475	0.02	0
N2245	0.025	0.04	0
N2246	0.05	0.04	2.77556e-17
N2247	0.075	0.04	4.16334e-17
N2248	0.1	0.04	0
N2249	0.125	0.04	0
N2250	0.15	0.04	1.38778e-17
N2251	0.175	0.04	0
N2252	0.2	0.04	0
N2253	0.225	0.04	0
N2254	0.25	0.04	0
N2255	0.275	0.04	0
N2256	0.3	0.04	0
N2257	0.325	0.04	0
N2258	0.35	0.04	0
N2259	0.375	0.04	0
N2260	0.4	0.04	0
N2261	0.425	0.04	0
N2262	0.45	0.04	0
N2263	0.475	0.04	0
N2264	0.025	0.06	0
N2265	0.05	0.06	4.16334e-17
N2266	0.075	0.06	4.16334e-17
N2267	0.1	0.06	0
N2268	0.125	0.06	0
N2269	0.15	0.06	0
N2270	0.175	0.06	0
N2271	0.2	0.06	0
N2272	0.225	0.06	0
N2273	0.25	0.06	0
N2274	0.275	0.06	0
N2275	0.3	0.06	0
N2276	0.325	0.06	0
N2277	0.35	0.06	0
N2278	0.375	0.06	0
N2279	0.4	0.06	0
N2280	0.425	0.06	0
N2281	0.45	0.06	0
N2282	0.475	0.06	0
N2283	0.025	-0.06	-0.02
N2284	0.05	-0.06	-0.02
N2285	0.075	-0.06	-0.02
N2286	0.1	-0.06	-0.02
N2287	0.125	-0.06	-0.02
N2288	0.15	-0.06	-0.02
N2289	0.175	-0.06	-0.02
N2290	0.2	-0.06	-0.02
N2291	0.225	-0.06	-0.02
N2292	0.25	-0.06	-0.02
N2293	0.275	-0.06	-0.02
N2294	0.3	-0.06	-0.02
N2295	0.325	-0.06	-0.02
N2296	0.35	-0.06	-0.02
N2297	0.375	-0.06	-0.02
N2298	0.4	-0.06	-0.02
N2299	0.425	-0.06	-0.02
N2300	0.45	-0.06	-0.02
N2301	0.475	-0.06	-0.02
N2302	0.025	-0.04	-0.02
N2303	0.05	-0.04	-0.02
N2304	0.075	-0.04	-0.02
N2305	0.1	-0.04	-0.02
N2306	0.125	-0.04	-0.02
N2307	0.15	-0.04	-0.02
N2308	0.175	-0.04	-0.02
N2309	0.2	-0.04	-0.02
N2310	0.225	-0.04	-0.02
N2311	0.25	-0.04	-0.02
N2312	0.275	-0.04	-0.02
N2313	0.3	-0.04	-0.02
N2314	0.325	-0.04	-0.02
N2315	0.35	-0.04	-0.02
N2316	0.375	-0.04	-0.02
N2317	0.4	-0.04	-0.02
N2318	0.425	-0.04	-0.02
N2319	0.45	-0.04	-0.02
N2320	0.475	-0.04	-0.02
N2321	0.025	-0.02	-0.02
N2322	0.05	-0.02	-0.02
N2323	0.075	-0.02	-0.02
N2324	0.1	-0.02	-0.02
N2325	0.125	-0.02	-0.02
N2326	0.15	-0.02	-0.02
N2327	0.175	-0.02	-0.02
N2328	0.2	-0.02	-0.02
N2329	0.225	-0.02	-0.02
N2330	0.25	-0.02	-0.02
N2331	0.275	-0.02	-0.02
N2332	0.3	-0.02	-0.02
N2333	0.325	-0.02	-0.02
N2334	0.35	-0.02	-0.02
N2335	0.375	-0.02	-0.02
N2336	0.4	-0.02	-0.02
N2337	0.425	-0.02	-0.02
N2338	0.45	-0.02	-0.02
N2339	0.475	-0.02	-0.02
N2340	0.025	0	-0.02
N2341	0.05	1.38778e-17	-0.02
N2342	0.075	1.38778e-17	-0.02
N2343	0.1	1.38778e-17	-0.02
N2344	0.125	0	-0.02
N2345	0.15	0	-0.02
N2346	0.175	0	-0.02
N2347	0.2	0	-0.02
N2348	0.225	0	-0.02
N2349	0.25	-1.38778e-17	-0.02
N2350	0.275	0	-0.02
N2351	0.3	0	-0.02
N2352	0.325	0	-0.02
N2353	0.35	0	-0.02
N2354	0.375	0	-0.02
N2355	0.4	0	-0.02
N2356	0.425	0	-0.02
N2357	0.45	0	-0.02
N2358	0.475	0	-0.02
N2359	0.025	0.02	-0.02
N2360	0.05	0.02	-0.02
N2361	0.075	0.02	-0.02
N2362	0.1	0.02	-0.02
N2363	0.125	0.02	-0.02
N2364	0.15	0.02	-0.02
N2365	0.175	0.02	-0.02
N2366	0.2	0.02	-0.02
N2367	0.225	0.02	-0.02
N2368	0.25	0.02	-0.02
N2369	0.275	0.02	-0.02
N2370	0.3	0.02	-0.02
N2371	0.325	0.02	-0.02
N2372	0.35	0.02	-0.02
N2373	0.375	0.02	-0.02
N2374	0.4	0.02	-0.02
N2375	0.425	0.02	-0.02
N2376	0.45	0.02	-0.02
N2377	0.475	0.02	-0.02
N2378	0.025	0.04	-0.02
N2379	0.05	0.04	-0.02
N2380	0.075	0.04	-0.02
N2381	0.1	0.04	-0.02
N2382	0.125	0.04	-0.02
N2383	0.15	0.04	-0.02
N2384	0.175	0.04	-0.02
N2385	0.2	0.04	-0.02
N2386	0.225	0.04	-0.02
N2387	0.25	0.04	-0.02
N2388	0.275	0.04	-0.02
N2389	0.3	0.04	-0.02
N2390	0.325	0.04	-0.02
N2391	0.35	0.04	-0.02
N2392	0.375	0.04	-0.02
N2393	0.4	0.04	-0.02
N2394	0.425	0.04	-0.02
N2395	0.45	0.04	-0.02
N2396	0.475	0.04	-0.02
N2397	0.025	0.06	-0.02
N2398	0.05	0.06	-0.02
N2399	0.075	0.06	-0.02
N2400	0.1	0.06	-0.02
N2401	0.125	0.06	-0.02
N2402	0.15	0.06	-0.02
N2403	0.175	0.06	-0.02
N2404	0.2	0.06	-0.02
N2405	0.225	0.06	-0.02
N2406	0.25	0.06	-0.02
N2407	0.275	0.06	-0.02
N2408	0.3	0.06	-0.02
N2409	0.325	0.06	-0.02
N2410	0.35	0.06	-0.02
N2411	0.375	0.06	-0.02
N2412	0.4	0.06	-0.02
N2413	0.425	0.06	-0.02
N2414	0.45	0.06	-0.02
N2415	0.475	0.06	-0.02
N2416	0.025	-0.06	-0.04
N2417	0.05	-0.06	-0.04
N2418	0.075	-0.06	-0.04
N2419	0.1	-0.06	-0.04
N2420	0.125	-0.06	-0.04
N2421	0.15	-0.06	-0.04
N2422	0.175	-0.06	-0.04
N2423	0.2	-0.06	-0.04
N2424	0.225	-0.06	-0.04
N2425	0.25	-0.06	-0.04
N2426	0.275	-0.06	-0.04
N2427	0.3	-0.06	-0.04
N2428	0.325	-0.06	-0.04
N2429	0.35	-0.06	-0.04
N2430	0.375	-0.06	-0.04
N2431	0.4	-0.06	-0.04
N2432	0.425	-0.06	-0.04
N2433	0.45	-0.06	-0.04
N2434	0.475	-0.06	-0.04
N2435	0.025	-0.04	-0.04
N2436	0.05	-0.04	-0.04
N2437	0.075	-0.04	-0.04
N2438	0.1	-0.04	-0.04
N2439	0.125	-0.04	-0.04
N2440	0.15	-0.04	-0.04
N2441	0.175	-0.04	-0.04
N2442	0.2	-0.04	-0.04
N2443	0.225	-0.04	-0.04
N2444	0.25	-0.04	-0.04
N2445	0.275	-0.04	-0.04
N2446	0.3	-0.04	-0.04
N2447	0.325	-0.04	-0.04
N2448	0.35	-0.04	-0.04
N2449	0.375	-0.04	-0.04
N2450	0.4	-0.04	-0.04
N2451	0.425	-0.04	-0.04
N2452	0.45	-0.04	-0.04
N2453	0.475	-0.04	-0.04
N2454	0.025	-0.02	-0.04
N2455	0.05	-0.02	-0.04
N2456	0.075	-0.02	-0.04
N2457	0.1	-0.02	-0.04
N2458	0.125	-0.02	-0.04
N2459	0.15	-0.02	-0.04
N2460	0.175	-0.02	-0.04
N2461	0.2	-0.02	-0.04
N2462	0.225	-0.02	-0.04
N2463	0.25	-0.02	-0.04
N2464	0.275	-0.02	-0.04
N2465	0.3	-0.02	-0.04
N2466	0.325	-0.02	-0.04
N2467	0.35	-0.02	-0.04
N2468	0.375	-0.02	-0.04
N2469	0.4	-0.02	-0.04
N2470	0.425	-0.02	-0.04
N2471	0.45	-0.02	-0.04
N2472	0.475	-0.02	-0.04
N2473	0.025	0	-0.04
N2474	0.05	1.38778e-17	-0.04
N2475	0.075	1.38778e-17	-0.04
N2476	0.1	2.08167e-17	-0.04
N2477	0.125	0	-0.04
N2478	0.15	0	-0.04
N2479	0.175	0	-0.04
N2480	0.2	0	-0.04
N2481	0.225	0	-0.04
N2482	0.25	-1.38778e-17	-0.04
N2483	0.275	0	-0.04
N2484	0.3	0	-0.04
N2485	0.325	0	-0.04
N2486	0.35	0	-0.04
N2487	0.375	0	-0.04
N2488	0.4	0	-0.04
N2489	0.425	0	-0.04
N2490	0.45	0	-0.04
N2491	0.475	0	-0.04
N2492	0.025	0.02	-0.04
N2493	0.05	0.02	-0.04
N2494	0.075	0.02	-0.04
N2495	0.1	0.02	-0.04
N2496	0.125	0.02	-0.04
N2497	0.15	0.02	-0.04
N2498	0.175	0.02	-0.04
N2499	0.2	0.02	-0.04
N2500	0.225	0.02	-0.04
N2501	0.25	0.02	-0.04
N2502	0.275	0.02	-0.04
N2503	0.3	0.02	-0.04
N2504	0.325	0.02	-0.04
N2505	0.35	0.02	-0.04
N2506	0.375	0.02	-0.04
N2507	0.4	0.02	-0.04
N2508	0.425	0.02	-0.04
N2509	0.45	0.02	-0.04
N2510	0.475	0.02	-0.04
N2511	0.025	0.04	-0.04
N2512	0.05	0.04	-0.04
N2513	0.075	0.04	-0.04
N2514	0.1	0.04	-0.04
N2515	0.125	0.04	-0.04
N2516	0.15	0.04	-0.04
N2517	0.175	0.04	-0.04
N2518	0.2	0.04	-0.04
N2519	0.225	0.04	-0.04
N2520	0.25	0.04	-0.04
N2521	0.275	0.04	-0.04
N2522	0.3	0.04	-0.04
N2523	0.325	0.04	-0.04
N2524	0.35	0.04	-0.04
N2525	0.375	0.04	-0.04
N2526	0.4	0.04	-0.04
N2527	0.425	0.04	-0.04
N2528	0.45	0.04	-0.04
N2529	0.475	0.04	-0.04
N2530	0.025	0.06	-0.04
N2531	0.05	0.06	-0.04
N2532	0.075	0.06	-0.04
N2533	0.1	0.06	-0.04
N2534	0.125	0.06	-0.04
N2535	0.15	0.06	-0.04
N2536	0.175	0.06	-0.04
N2537	0.2	0.06	-0.04
N2538	0.225	0.06	-0.04
N2539	0.25	0.06	-0.04
N2540	0.275	0.06	-0.04
N2541	0.3	0.06	-0.04
N2542	0.325	0.06	-0.04
N2543	0.35	0.06	-0.04
N2544	0.375	0.06	-0.04
N2545	0.4	0.06	-0.04
N2546	0.425	0.06	-0.04
N2547	0.45	0.06	-0.04
N2548	0.475	0.06	-0.04
N2549	0.025	-0.06	-0.06
N2550	0.05	-0.06	-0.06
N2551	0.075	-0.06	-0.06
N2552	0.1	-0.06	-0.06
N2553	0.125	-0.06	-0.06
N2554	0.15	-0.06	-0.06
N2555	0.175	-0.06	-0.06
N2556	0.2	-0.06	-0.06
N2557	0.225	-0.06	-0.06
N2558	0.25	-0.06	-0.06
N2559	0.275	-0.06	-0.06
N2560	0.3	-0.06	-0.06
N2561	0.325	-0.06	-0.06
N2562	0.35	-0.06	-0.06
N2563	0.375	-0.06	-0.06
N2564	0.4	-0.06	-0.06
N2565	0.425	-0.06	-0.06
N2566	0.45	-0.06	-0.06
N2567	0.475	-0.06	-0.06
N2568	0.025	-0.04	-0.06
N2569	0.05	-0.04	-0.06
N2570	0.075	-0.04	-0.06
N2571	0.1	-0.04	-0.06
N2572	0.125	-0.04	-0.06
N2573	0.15	-0.04	-0.06
N2574	0.175	-0.04	-0.06
N2575	0.2	-0.04	-0.06
N2576	0.225	-0.04	-0.06
N2577	0.25	-0.04	-0.06
N2578	0.275	-0.04	-0.06
N2579	0.3	-0.04	-0.06
N2580	0.325	-0.04	-0.06
N2581	0.35	-0.04	-0.06
N2582	0.375	-0.04	-0.06
N2583	0.4	-0.04	-0.06
N2584	0.425	-0.04	-0.06
N2585	0.45	-0.04	-0.06
N2586	0.475	-0.04	-0.06
N2587	0.025	-0.02	-0.06
N2588	0.05	-0.02	-0.06
N2589	0.075	-0.02	-0.06
N2590	0.1	-0.02	-0.06
N2591	0.125	-0.02	-0.06
N2592	0.15	-0.02	-0.06
N2593	0.175	-0.02	-0.06
N2594	0.2	-0.02	-0.06
N2595	0.225	-0.02	-0.06
N2596	0.25	-0.02	-0.06
N2597	0.275	-0.02	-0.06
N2598	0.3	-0.02	-0.06
N2599	0.325	-0.02	-0.06
N2600	0.35	-0.02	-0.06
N2601	0.375	-0.02	-0.06
N2602	0.4	-0.02	-0.06
N2603	0.425	-0.02	-0.06
N2604	0.45	-0.02	-0.06
N2605	0.475	-0.02	-0.06
N2606	0.025	0	-0.06
N2607	0.05	1.38778e-17	-0.06
N2608	0.075	2.08167e-17	-0.06
N2609	0.1	2.08167e-17	-0.06
N2610	0.125	0	-0.06
N2611	0.15	6.93889e-18	-0.06
N2612	0.175	0	-0.06
N2613	0.2	-6.93889e-18	-0.06
N2614	0.225	0	-0.06
N2615	0.25	-1.38778e-17	-0.06
N2616	0.275	0	-0.06
N2617	0.3	0	-0.06
N2618	0.325	0	-0.06
N2619	0.35	0	-0.06
N2620	0.375	0	-0.06
N2621	0.4	0	-0.06
N2622	0.425	0	-0.06
N2623	0.45	0	-0.06
N2624	0.475	0	-0.06
N2625	0.025	0.02	-0.06
N2626	0.05	0.02	-0.06
N2627	0.075	0.02	-0.06
N2628	0.1	0.02	-0.06
N2629	0.125	0.02	-0.06
N2630	0.15	0.02	-0.06
N2631	0.175	0.02	-0.06
N2632	0.2	0.02	-0.06
N2633	0.225	0.02	-0.06
N2634	0.25	0.02	-0.06
N2635	0.275	0.02	-0.06
N2636	0.3	0.02	-0.06
N2637	0.325	0.02	-0.06
N2638	0.35	0.02	-0.06
N2639	0.375	0.02	-0.06
N2640	0.4	0.02	-0.06
N2641	0.425	0.02	-0.06
N2642	0.45	0.02	-0.06
N2643	0.475	0.02	-0.06
N2644	0.025	0.04	-0.06
N2645	0.05	0.04	-0.06
N2646	0.075	0.04	-0.06
N2647	0.1	0.04	-0.06
N2648	0.125	0.04	-0.06
N2649	0.15	0.04	-0.06
N2650	0.175	0.04	-0.06
N2651	0.2	0.04	-0.06
N2652	0.225	0.04	-0.06
N2653	0.25	0.04	-0.06
N2654	0.275	0.04	-0.06
N2655	0.3	0.04	-0.06
N2656	0.325	0.04	-0.06
N2657	0.35	0.04	-0.06
N2658	0.375	0.04	-0.06
N2659	0.4	0.04	-0.06
N2660	0.425	0.04	-0.06
N2661	0.45	0.04	-0.06
N2662	0.475	0.04	-0.06
N2663	0.025	0.06	-0.06
N2664	0.05	0.06	-0.06
N2665	0.075	0.06	-0.06
N2666	0.1	0.06	-0.06
N2667	0.125	0.06	-0.06
N2668	0.15	0.06	-0.06
N2669	0.175	0.06	-0.06
N2670	0.2	0.06	-0.06
N2671	0.225	0.06	-0.06
N2672	0.25	0.06	-0.06
N2673	0.275	0.06	-0.06
N2674	0.3	0.06	-0.06
N2675	0.325	0.06	-0.06
N2676	0.35	0.06	-0.06
N2677	0.375	0.06	-0.06
N2678	0.4	0.06	-0.06
N2679	0.425	0.06	-0.06
N2680	0.45	0.06	-0.06
N2681	0.475	0.06	-0.06
N2682	0.025	-0.06	-0.08
N2683	0.05	-0.06	-0.08
N2684	0.075	-0.06	-0.08
N2685	0.1	-0.06	-0.08
N2686	0.125	-0.06	-0.08
N2687	0.15	-0.06	-0.08
N2688	0.175	-0.06	-0.08
N2689	0.2	-0.06	-0.08
N2690	0.225	-0.06	-0.08
N2691	0.25	-0.06	-0.08
N2692	0.275	-0.06	-0.08
N2693	0.3	-0.06	-0.08
N2694	0.325	-0.06	-0.08
N2695	0.35	-0.06	-0.08
N2696	0.375	-0.06	-0.08
N2697	0.4	-0.06	-0.08
N2698	0.425	-0.06	-0.08
N2699	0.45	-0.06	-0.08
N2700	0.475	-0.06	-0.08
N2701	0.025	-0.04	-0.08
N2702	0.05	-0.04	-0.08
N2703	0.075	-0.04	-0.08
N2704	0.1	-0.04	-0.08
N2705	0.125	-0.04	-0.08
N2706	0.15	-0.04	-0.08
N2707	0.175	-0.04	-0.08
N2708	0.2	-0.04	-0.08
N2709	0.225	-0.04	-0.08
N2710	0.25	-0.04	-0.08
N2711	0.275	-0.04	-0.08
N2712	0.3	-0.04	-0.08
N2713	0.325	-0.04	-0.08
N2714	0.35	-0.04	-0.08
N2715	0.375	-0.04	-0.08
N2716	0.4	-0.04	-0.08
N2717	0.425	-0.04	-0.08
N2718	0.45	-0.04	-0.08
N2719	0.475	-0.04	-0.08
N2720	0.025	-0.02	-0.08
N2721	0.05	-0.02	-0.08
N2722	0.075	-0.02	-0.08
N2723	0.1	-0.02	-0.08
N2724	0.125	-0.02	-0.08
N2725	0.15	-0.02	-0.08
N2726	0.175	-0.02	-0.08
N2727	0.2	-0.02	-0.08
N2728	0.225	-0.02	-0.08
N2729	0.25	-0.02	-0.08
N2730	0.275	-0.02	-0.08
N2731	0.3	-0.02	-0.08
N2732	0.325	-0.02	-0.08
N2733	0.35	-0.02	-0.08
N2734	0.375	-0.02	-0.08
N2735	0.4	-0.02	-0.08
N2736	0.425	-0.02	-0.08
N2737	0.45	-0.02	-0.08
N2738	0.475	-0.02	-0.08
N2739	0.025	0	-0.08
N2740	0.05	1.38778e-17	-0.08
N2741	0.075	2.08167e-17	-0.08
N2742	0.1	2.08167e-17	-0.08
N2743	0.125	0	-0.08
N2744	0.15	6.93889e-18	-0.08
N2745	0.175	0	-0.08
N2746	0.2	-6.93889e-18	-0.08
N2747	0.225	0	-0.08
N2748	0.25	-1.38778e-17	-0.08
N2749	0.275	0	-0.08
N2750	0.3	0	-0.08
N2751	0.325	0	-0.08
N2752	0.35	0	-0.08
N2753	0.375	0	-0.08
N2754	0.4	0	-0.08
N2755	0.425	0	-0.08
N2756	0.45	0	-0.08
N2757	0.475	0	-0.08
N2758	0.025	0.02	-0.08
N2759	0.05	0.02	-0.08
N2760	0.075	0.02	-0.08
N2761	0.1	0.02	-0.08
N2762	0.125	0.02	-0.08
N2763	0.15	0.02	-0.08
N2764	0.175	0.02	-0.08
N2765	0.2	0.02	-0.08
N2766	0.225	0.02	-0.08
N2767	0.25	0.02	-0.08
N2768	0.275	0.02	-0.08
N2769	0.3	0.02	-0.08
N2770	0.325	0.02	-0.08
N2771	0.35	0.02	-0.08
N2772	0.375	0.02	-0.08
N2773	0.4	0.02	-0.08
N2774	0.425	0.02	-0.08
N2775	0.45	0.02	-0.08
N2776	0.475	0.02	-0.08
N2777	0.025	0.04	-0.08
N2778	0.05	0.04	-0.08
N2779	0.075	0.04	-0.08
N2780	0.1	0.04	-0.08
N2781	0.125	0.04	-0.08
N2782	0.15	0.04	-0.08
N2783	0.175	0.04	-0.08
N2784	0.2	0.04	-0.08
N2785	0.225	0.04	-0.08
N2786	0.25	0.04	-0.08
N2787	0.275	0.04	-0.08
N2788	0.3	0.04	-0.08
N2789	0.325	0.04	-0.08
N2790	0.35	0.04	-0.08
N2791	0.375	0.04	-0.08
N2792	0.4	0.04	-0.08
N2793	0.425	0.04	-0.08
N2794	0.45	0.04	-0.08
N2795	0.475	0.04	-0.08
N2796	0.025	0.06	-0.08
N2797	0.05	0.06	-0.08
N2798	0.075	0.06	-0.08
N2799	0.1	0.06	-0.08
N2800	0.125	0.06	-0.08
N2801	0.15	0.06	-0.08
N2802	0.175	0.06	-0.08
N2803	0.2	0.06	-0.08
N2804	0.225	0.06	-0.08
N2805	0.25	0.06	-0.08
N2806	0.275	0.06	-0.08
N2807	0.3	0.06	-0.08
N2808	0.325	0.06	-0.08
N2809	0.35	0.06	-0.08
N2810	0.375	0.06	-0.08
N2811	0.4	0.06	-0.08
N2812	0.425	0.06	-0.08
N2813	0.45	0.06	-0.08
N2814	0.475	0.06	-0.08
N2815	0.025	-0.06	-0.1
N2816	0.05	-0.06	-0.1
N2817	0.075	-0.06	-0.1
N2818	0.1	-0.06	-0.1
N2819	0.125	-0.06	-0.1
N2820	0.15	-0.06	-0.1
N2821	0.175	-0.06	-0.1
N2822	0.2	-0.06	-0.1
N2823	0.225	-0.06	-0.1
N2824	0.25	-0.06	-0.1
N2825	0.275	-0.06	-0.1
N2826	0.3	-0.06	-0.1
N2827	0.325	-0.06	-0.1
N2828	0.35	-0.06	-0.1
N2829	0.375	-0.06	-0.1
N2830	0.4	-0.06	-0.1
N2831	0.425	-0.06	-0.1
N2832	0.45	-0.06	-0.1
N2833	0.475	-0.06	-0.1
N2834	0.025	-0.04	-0.1
N2835	0.05	-0.04	-0.1
N2836	0.075	-0.04	-0.1
N2837	0.1	-0.04	-0.1
N2838	0.125	-0.04	-0.1
N2839	0.15	-0.04	-0.1
N2840	0.175	-0.04	-0.1
N2841	0.2	-0.04	-0.1
N2842	0.225	-0.04	-0.1
N2843	0.25	-0.04	-0.1
N2844	0.275	-0.04	-0.1
N2845	0.3	-0.04	-0.1
N2846	0.325	-0.04	-0.1
N2847	0.35	-0.04	-0.1
N2848	0.375	-0.04	-0.1
N2849	0.4	-0.04	-0.1
N2850	0.425	-0.04	-0.1
N2851	0.45	-0.04	-0.1
N2852	0.475	-0.04	-0.1
N2853	0.025	-0.02	-0.1
N2854	0.05	-0.02	-0.1
N2855	0.075	-0.02	-0.1
N2856	0.1	-0.02	-0.1
N2857	0.125	-0.02	-0.1
N2858	0.15	-0.02	-0.1
N2859	0.175	-0.02	-0.1
N2860	0.2	-0.02	-0.1
N2861	0.225	-0.02	-0.1
N2862	0.25	-0.02	-0.1
N2863	0.275	-0.02	-0.1
N2864	0.3	-0.02	-0.1
N2865	0.325	-0.02	-0.1
N2866	0.35	-0.02	-0.1
N2867	0.375	-0.02	-0.1
N2868	0.4	-0.02	-0.1
N2869	0.425	-0.02	-0.1
N2870	0.45	-0.02	-0.1
N2871	0.475	-0.02	-0.1
N2872	0.025	1.38778e-18	-0.1
N2873	0.05	1.66533e-17	-0.1
N2874	0.075	2.498e-17	-0.1
N2875	0.1	2.63678e-17	-0.1
N2876	0.125	6.93889e-18	-0.1
N2877	0.15	1.52656e-17	-0.1
N2878	0.175	9.71445e-18	-0.1
N2879	0.2	4.16334e-18	-0.1
N2880	0.225	1.249e-17	-0.1
N2881	0.25	0	-0.1
N2882	0.275	1.52656e-17	-0.1
N2883	0.3	1.66533e-17	-0.1
N2884	0.325	1.80411e-17	-0.1
N2885	0.35	1.94289e-17	-0.1
N2886	0.375	2.08167e-17	-0.1
N2887	0.4	2.22045e-17	-0.1
N2888	0.425	2.35922e-17	-0.1
N2889	0.45	2.498e-17	-0.1
N2890	0.475	2.63678e-17	-0.1
N2891	0.025	0.02	-0.1
N2892	0.05	0.02	-0.1
N2893	0.075	0.02	-0.1
N2894	0.1	0.02	-0.1
N2895	0.125	0.02	-0.1
N2896	0.15	0.02	-0.1
N2897	0.175	0.02	-0.1
N2898	0.2	0.02	-0.1
N2899	0.225	0.02	-0.1
N2900	0.25	0.02	-0.1
N2901	0.275	0.02	-0.1
N2902	0.3	0.02	-0.1
N2903	0.325	0.02	-0.1
N2904	0.35	0.02	-0.1
N2905	0.375	0.02	-0.1
N2906	0.4	0.02	-0.1
N2907	0.425	0.02	-0.1
N2908	0.45	0.02	-0.1
N2909	0.475	0.02	-0.1
N2910	0.025	0.04	-0.1
N2911	0.05	0.04	-0.1
N2912	0.075	0.04	-0.1
N2913	0.1	0.04	-0.1
N2914	0.125	0.04	-0.1
N2915	0.15	0.04	-0.1
N2916	0.175	0.04	-0.1
N2917	0.2	0.04	-0.1
N2918	0.225	0.04	-0.1
N2919	0.25	0.04	-0.1
N2920	0.275	0.04	-0.1
N2921	0.3	0.04	-0.1
N2922	0.325	0.04	-0.1
N2923	0.35	0.04	-0.1
N2924	0.375	0.04	-0.1
N2925	0.4	0.04	-0.1
N2926	0.425	0.04	-0.1
N2927	0.45	0.04	-0.1
N2928	0.475	0.04	-0.1
N2929	0.025	0.06	-0.1
N2930	0.05	0.06	-0.1
N2931	0.075	0.06	-0.1
N2932	0.1	0.06	-0.1
N2933	0.125	0.06	-0.1
N2934	0.15	0.06	-0.1
N2935	0.175	0.06	-0.1
N2936	0.2	0.06	-0.1
N2937	0.225	0.06	-0.1
N2938	0.25	0.06	-0.1
N2939	0.275	0.06	-0.1
N2940	0.3	0.06	-0.1
N2941	0.325	0.06	-0.1
N2942	0.35	0.06	-0.1
N2943	0.375	0.06	-0.1
N2944	0.4	0.06	-0.1
N2945	0.425	0.06	-0.1
N2946	0.45	0.06	-0.1
N2947	0.475	0.06	-0.1
N2948	0.025	-0.06	-0.12
N2949	0.05	-0.06	-0.12
N2950	0.075	-0.06	-0.12
N2951	0.1	-0.06	-0.12
N2952	0.125	-0.06	-0.12
N2953	0.15	-0.06	-0.12
N2954	0.175	-0.06	-0.12
N2955	0.2	-0.06	-0.12
N2956	0.225	-0.06	-0.12
N2957	0.25	-0.06	-0.12
N2958	0.275	-0.06	-0.12
N2959	0.3	-0.06	-0.12
N2960	0.325	-0.06	-0.12
N2961	0.35	-0.06	-0.12
N2962	0.375	-0.06	-0.12
N2963	0.4	-0.06	-0.12
N2964	0.425	-0.06	-0.12
N2965	0.45	-0.06	-0.12
N2966	0.475	-0.06	-0.12
N2967	0.025	-0.04	-0.12
N2968	0.05	-0.04	-0.12
N2969	0.075	-0.04	-0.12
N2970	0.1	-0.04	-0.12
N2971	0.125	-0.04	-0.12
N2972	0.15	-0.04	-0.12
N2973	0.175	-0.04	-0.12
N2974	0.2	-0.04	-0.12
N2975	0.225	-0.04	-0.12
N2976	0.25	-0.04	-0.12
N2977	0.275	-0.04	-0.12
N2978	0.3	-0.04	-0.12
N2979	0.325	-0.04	-0.12
N2980	0.35	-0.04	-0.12
N2981	0.375	-0.04	-0.12
N2982	0.4	-0.04	-0.12
N2983	0.425	-0.04	-0.12
N2984	0.45	-0.04	-0.12
N2985	0.475	-0.04	-0.12
N2986	0.025	-0.02	-0.12
N2987	0.05	-0.02	-0.12
N2988	0.075	-0.02	-0.12
N2989	0.1	-0.02	-0.12
N2990	0.125	-0.02	-0.12
N2991	0.15	-0.02	-0.12
N2992	0.175	-0.02	-0.12
N2993	0.2	-0.02	-0.12
N2994	0.225	-0.02	-0.12
N2995	0.25	-0.02	-0.12
N2996	0.275	-0.02	-0.12
N2997	0.3	-0.02	-0.12
N2998	0.325	-0.02	-0.12
N2999	0.35	-0.02	-0.12
N3000	0.375	-0.02	-0.12
N3001	0.4	-0.02	-0.12
N3002	0.425	-0.02	-0.12
N3003	0.45	-0.02	-0.12
N3004	0.475	-0.02	-0.12
N3005	0.025	0	-0.12
N3006	0.05	1.38778e-17	-0.12
N3007	0.075	2.08167e-17	-0.12
N3008	0.1	2.77556e-17	-0.12
N3009	0.125	0	-0.12
N3010	0.15	6.93889e-18	-0.12
N3011	0.175	0	-0.12
N3012	0.2	-6.93889e-18	-0.12
N3013	0.225	0	-0.12
N3014	0.25	-1.38778e-17	-0.12
N3015	0.275	0	-0.12
N3016	0.3	0	-0.12
N3017	0.325	0	-0.12
N3018	0.35	0	-0.12
N3019	0.375	0	-0.12
N3020	0.4	0	-0.12
N3021	0.425	0	-0.12
N3022	0.45	0	-0.12
N3023	0.475	0	-0.12
N3024	0.025	0.02	-0.12
N3025	0.05	0.02	-0.12
N3026	0.075	0.02	-0.12
N3027	0.1	0.02	-0.12
N3028	0.125	0.02	-0.12
N3029	0.15	0.02	-0.12
N3030	0.175	0.02	-0.12
N3031	0.2	0.02	-0.12
N3032	0.225	0.02	-0.12
N3033	0.25	0.02	-0.12
N3034	0.275	0.02	-0.12
N3035	0.3	0.02	-0.12
N3036	0.325	0.02	-0.12
N3037	0.35	0.02	-0.12
N3038	0.375	0.02	-0.12
N3039	0.4	0.02	-0.12
N3040	0.425	0.02	-0.12
N3041	0.45	0.02	-0.12
N3042	0.475	0.02	-0.12
N3043	0.025	0.04	-0.12
N3044	0.05	0.04	-0.12
N3045	0.075	0.04	-0.12
N3046	0.1	0.04	-0.12
N3047	0.125	0.04	-0.12
N3048	0.15	0.04	-0.12
N3049	0.175	0.04	-0.12
N3050	0.2	0.04	-0.12
N3051	0.225	0.04	-0.12
N3052	0.25	0.04	-0.12
N3053	0.275	0.04	-0.12
N3054	0.3	0.04	-0.12
N3055	0.325	0.04	-0.12
N3056	0.35	0.04	-0.12
N3057	0.375	0.04	-0.12
N3058	0.4	0.04	-0.12
N3059	0.425	0.04	-0.12
N3060	0.45	0.04	-0.12
N3061	0.475	0.04	-0.12
N3062	0.025	0.06	-0.12
N3063	0.05	0.06	-0.12
N3064	0.075	0.06	-0.12
N3065	0.1	0.06	-0.12
N3066	0.125	0.06	-0.12
N3067	0.15	0.06	-0.12
N3068	0.175	0.06	-0.12
N3069	0.2	0.06	-0.12
N3070	0.225	0.06	-0.12
N3071	0.25	0.06	-0.12
N3072	0.275	0.06	-0.12
N3073	0.3	0.06	-0.12
N3074	0.325	0.06	-0.12
N3075	0.35	0.06	-0.12
N3076	0.375	0.06	-0.12
N3077	0.4	0.06	-0.12
N3078	0.425	0.06	-0.12
N3079	0.45	0.06	-0.12
N3080	0.475	0.06	-0.12
N3081	0.025	-0.06	-0.14
N3082	0.05	-0.06	-0.14
N3083	0.075	-0.06	-0.14
N3084	0.1	-0.06	-0.14
N3085	0.125	-0.06	-0.14
N3086	0.15	-0.06	-0.14
N3087	0.175	-0.06	-0.14
N3088	0.2	-0.06	-0.14
N3089	0.225	-0.06	-0.14
N3090	0.25	-0.06	-0.14
N3091	0.275	-0.06	-0.14
N3092	0.3	-0.06	-0.14
N3093	0.325	-0.06	-0.14
N3094	0.35	-0.06	-0.14
N3095	0.375	-0.06	-0.14
N3096	0.4	-0.06	-0.14
N3097	0.425	-0.06	-0.14
N3098	0.45	-0.06	-0.14
N3099	0.475	-0.06	-0.14
N3100	0.025	-0.04	-0.14
N3101	0.05	-0.04	-0.14
N3102	0.075	-0.04	-0.14
N3103	0.1	-0.04	-0.14
N3104	0.125	-0.04	-0.14
N3105	0.15	-0.04	-0.14
N3106	0.175	-0.04	-0.14
N3107	0.2	-0.04	-0.14
N3108	0.225	-0.04	-0.14
N3109	0.25	-0.04	-0.14
N3110	0.275	-0.04	-0.14
N3111	0.3	-0.04	-0.14
N3112	0.325	-0.04	-0.14
N3113	0.35	-0.04	-0.14
N3114	0.375	-0.04	-0.14
N3115	0.4	-0.04	-0.14
N3116	0.425	-0.04	-0.14
N3117	0.45	-0.04	-0.14
N3118	0.475	-0.04	-0.14
N3119	0.025	-0.02	-0.14
N3120	0.05	-0.02	-0.14
N3121	0.075	-0.02	-0.14
N3122	0.1	-0.02	-0.14
N3123	0.125	-0.02	-0.14
N3124	0.15	-0.02	-0.14
N3125	0.175	-0.02	-0.14
N3126	0.2	-0.02	-0.14
N3127	0.225	-0.02	-0.14
N3128	0.25	-0.02	-0.14
N3129	0.275	-0.02	-0.14
N3130	0.3	-0.02	-0.14
N3131	0.325	-0.02	-0.14
N3132	0.35	-0.02	-0.14
N3133	0.375	-0.02	-0.14
N3134	0.4	-0.02	-0.14
N3135	0.425	-0.02	-0.14
N3136	0.45	-0.02	-0.14
N3137	0.475	-0.02	-0.14
N3138	0.025	0	-0.14
N3139	0.05	1.38778e-17	-0.14
N3140	0.075	2.77556e-17	-0.14
N3141	0.1	2.77556e-17	-0.14
N3142	0.125	0	-0.14
N3143	0.15	1.38778e-17	-0.14
N3144	0.175	0	-0.14
N3145	0.2	-1.38778e-17	-0.14
N3146	0.225	0	-0.14
N3147	0.25	-1.38778e-17	-0.14
N3148	0.275	0	-0.14
N3149	0.3	0	-0.14
N3150	0.325	0	-0.14
N3151	0.35	0	-0.14
N3152	0.375	0	-0.14
N3153	0.4	0	-0.14
N3154	0.425	0	-0.14
N3155	0.45	0	-0.14
N3156	0.475	0	-0.14
N3157	0.025	0.02	-0.14
N3158	0.05	0.02	-0.14
N3159	0.075	0.02	-0.14
N3160	0.1	0.02	-0.14
N3161	0.125	0.02	-0.14
N3162	0.15	0.02	-0.14
N3163	0.175	0.02	-0.14
N3164	0.2	0.02	-0.14
N3165	0.225	0.02	-0.14
N3166	0.25	0.02	-0.14
N3167	0.275	0.02	-0.14
N3168	0.3	0.02	-0.14
N3169	0.325	0.02	-0.14
N3170	0.35	0.02	-0.14
N3171	0.375	0.02	-0.14
N3172	0.4	0.02	-0.14
N3173	0.425	0.02	-0.14
N3174	0.45	0.02	-0.14
N3175	0.475	0.02	-0.14
N3176	0.025	0.04	-0.14
N3177	0.05	0.04	-0.14
N3178	0.075	0.04	-0.14
N3179	0.1	0.04	-0.14
N3180	0.125	0.04	-0.14
N3181	0.15	0.04	-0.14
N3182	0.175	0.04	-0.14
N3183	0.2	0.04	-0.14
N3184	0.225	0.04	-0.14
N3185	0.25	0.04	-0.14
N3186	0.275	0.04	-0.14
N3187	0.3	0.04	-0.14
N3188	0.325	0.04	-0.14
N3189	0.35	0.04	-0.14
N3190	0.375	0.04	-0.14
N3191	0.4	0.04	-0.14
N3192	0.425	0.04	-0.14
N3193	0.45	0.04	-0.14
N3194	0.475	0.04	-0.14
N3195	0.025	0.06	-0.14
N3196	0.05	0.06	-0.14
N3197	0.075	0.06	-0.14
N3198	0.1	0.06	-0.14
N3199	0.125	0.06	-0.14
N3200	0.15	0.06	-0.14
N3201	0.175	0.06	-0.14
N3202	0.2	0.06	-0.14
N3203	0.225	0.06	-0.14
N3204	0.25	0.06	-0.14
N3205	0.275	0.06	-0.14
N3206	0.3	0.06	-0.14
N3207	0.325	0.06	-0.14
N3208	0.35	0.06	-0.14
N3209	0.375	0.06	-0.14
N3210	0.4	0.06	-0.14
N3211	0.425	0.06	-0.14
N3212	0.45	0.06	-0.14
N3213	0.475	0.06	-0.14
