3.2177446997348e-24	-1.2022779874499e-12	2.6733847694205e-11	-7.3869567875436e-09	-6.6579880595493e-21	-3.060881205674e-20
-2.1428571428572e-11	-4.7045010386032e-10	-4.6671445710789e-10	1.5363070420583e-21	9.3342891421989e-10	-9.4090020772973e-10
4.2857142857133e-11	-1.0218094495095e-09	2.1101930080818e-10	2.6565543529058e-22	-4.2203860162022e-10	-2.0436188990406e-09
3.5283413262256e-24	1.2022779873684e-12	2.6733847693802e-11	7.3869567875422e-09	-3.8548666321147e-21	2.7202458868234e-20
2.1428571428566e-11	-4.70450103861e-10	4.6671445710812e-10	-8.907539662717e-22	-9.3342891422283e-10	-9.4090020773531e-10
4.2857142857149e-11	1.0218094495093e-09	2.1101930080768e-10	4.9440843706236e-22	-4.2203860161619e-10	2.0436188990408e-09
1.210536089143e-23	-1.2022779871189e-12	-2.6733847693893e-11	7.3869567875427e-09	4.0315077854102e-21	-2.5229103851047e-20
-2.1428571428577e-11	-4.7045010386083e-10	4.6671445710812e-10	-1.3930444490635e-21	-9.3342891422342e-10	-9.4090020773464e-10
-4.285714285714e-11	1.0218094495095e-09	2.1101930080767e-10	5.1101142214059e-22	-4.2203860161565e-10	2.0436188990384e-09
-2.6193432160267e-23	1.2022779875499e-12	-2.6733847694119e-11	-7.3869567875421e-09	6.7521760826358e-21	2.7621750581506e-20
2.1428571428572e-11	-4.7045010386056e-10	-4.6671445710773e-10	-3.5513957546263e-22	9.3342891422147e-10	-9.4090020772938e-10
-4.2857142857146e-11	-1.0218094495098e-09	2.1101930080846e-10	-1.3232151380656e-21	-4.2203860161973e-10	-2.0436188990393e-09
-7.350126287419e-24	1.6737012594887e-11	3.3660148107244e-11	-2.3883738654932e-09	3.6798475535452e-21	-1.0931659103467e-20
-1.0714285714286e-11	-6.5806678187873e-10	-2.3302680520792e-10	1.2845537340548e-21	4.6605361041759e-10	-1.3161335637696e-09
4.285714285714e-11	-5.0809683583178e-10	2.9946973855635e-10	-6.3626344976667e-22	-5.9893947711642e-10	-1.0161936716747e-09
-1.2135280807843e-23	1.5721217815392e-22	3.5356181401972e-11	5.3344783797543e-22	6.071590110567e-21	1.4046314399878e-21
-1.5274366608996e-24	-7.2052382688204e-10	2.1674353481198e-22	6.3811208534462e-22	-1.4528264236758e-21	-1.4410476537787e-09
4.2857142857143e-11	-2.7650612237859e-22	3.286414717247e-10	-5.5099922318835e-22	-6.5728294345334e-10	-1.5772104771141e-21
-1.028759817386e-23	-1.6737012594616e-11	3.3660148107099e-11	2.3883738654939e-09	5.1047826828899e-21	1.2942272336751e-20
1.0714285714283e-11	-6.58066781879e-10	2.3302680520829e-10	-1.7583363740756e-22	-4.6605361042049e-10	-1.3161335637726e-09
4.2857142857145e-11	5.0809683583125e-10	2.99469738556e-10	-1.544412442709e-22	-5.9893947711509e-10	1.0161936716717e-09
-1.6168114460175e-23	-1.0650134974515e-11	-1.9872339705625e-11	-8.3769596933167e-09	-2.6214514815058e-21	1.065386818542e-22
-2.142857142857e-11	-2.2755171110798e-11	-3.4788979122945e-10	7.7448581480042e-22	6.9577958246326e-10	-4.5510342220723e-11
3.2142857142852e-11	-7.6521025686037e-10	9.0210208370162e-12	2.3711124180897e-22	-1.8042041674826e-11	-1.5304205137365e-09
-3.6647448430692e-24	-7.3634758322428e-12	-3.1840396040865e-11	-6.4367520767697e-09	-2.0212414742191e-21	9.0284857467345e-21
-2.1428571428569e-11	2.9578628258621e-10	-2.3167722447762e-10	1.2276947604646e-22	4.6335444895874e-10	5.9157256517952e-10
2.1428571428569e-11	-5.0991270723892e-10	-1.3530871075274e-10	-1.3925593690266e-22	2.7061742150686e-10	-1.0198254144879e-09
7.973048723505e-25	-2.9896690304441e-12	-2.1480785267972e-11	-3.4190350451389e-09	-7.6492174091617e-22	1.3083275632113e-20
-2.1428571428569e-11	4.869388108614e-10	-1.1578539052193e-10	5.8574929074803e-23	2.3157078104608e-10	9.738776217328e-10
1.0714285714285e-11	-2.5494190662365e-10	-2.2196986356039e-10	-3.8647954247945e-22	4.4393972712343e-10	-5.0988381325174e-10
-4.2051271849201e-24	-1.1930125787833e-12	-7.6636789334939e-23	1.3241857020363e-22	8.7143709773112e-22	1.4903838566083e-20
-2.1428571428571e-11	5.5066930024282e-10	-1.6185729408645e-22	5.9538424851778e-23	1.1653976196075e-21	1.1013386004956e-09
6.408327340781e-25	1.8772799378406e-22	-2.5087822237723e-10	-4.9628776879586e-22	5.0175644475754e-10	9.735479601223e-22
5.8261038165172e-24	-2.9896690302904e-12	2.1480785267828e-11	3.4190350451392e-09	2.1851927206923e-21	1.4501907346307e-20
-2.1428571428571e-11	4.8693881086157e-10	1.1578539052165e-10	2.2228642494175e-22	-2.3157078104384e-10	9.7387762173047e-10
-1.0714285714284e-11	2.5494190662405e-10	-2.2196986356051e-10	-3.3395357358233e-22	4.4393972712426e-10	5.0988381325329e-10
5.1524418470074e-24	-7.3634758319144e-12	3.1840396040776e-11	6.43675207677e-09	3.0446536729483e-21	1.1325059518305e-20
-2.1428571428572e-11	2.9578628258607e-10	2.3167722447744e-10	-3.7638838329276e-23	-4.6335444895735e-10	5.9157256517704e-10
-2.1428571428569e-11	5.0991270723927e-10	-1.3530871075296e-10	-1.9147171307007e-22	2.7061742150872e-10	1.0198254144885e-09
-3.0760558148262e-24	-1.0650134974202e-11	1.9872339705588e-11	8.3769596933168e-09	2.8437423871775e-21	3.2347262370733e-21
-2.1428571428574e-11	-2.2755171111112e-11	3.4788979122946e-10	-4.7205375983908e-22	-6.9577958246359e-10	-4.5510342224484e-11
-3.2142857142854e-11	7.652102568605e-10	9.0210208366822e-12	9.6955826769515e-23	-1.8042041671825e-11	1.530420513736e-09
-4.1425069132256e-24	1.6737012594695e-11	-3.3660148107143e-11	2.3883738654931e-09	-5.0718825036193e-21	-1.2401275084136e-20
-1.071428571429e-11	-6.5806678187882e-10	2.3302680520828e-10	-9.1720880169241e-22	-4.6605361042075e-10	-1.3161335637724e-09
-4.2857142857142e-11	5.0809683583144e-10	2.9946973855612e-10	-6.2974940244281e-22	-5.9893947711504e-10	1.0161936716716e-09
-6.8610830132799e-24	-1.3713058154093e-22	-3.5356181401992e-11	-5.1689868476537e-22	-6.1268339514072e-21	-1.5214923099888e-21
-2.3408342957166e-24	-7.2052382688188e-10	2.1961362535534e-22	-4.6784293392298e-22	-1.3220434334968e-21	-1.4410476537783e-09
-4.2857142857144e-11	-1.3378515497051e-22	3.2864147172473e-10	-5.9975118054069e-22	-6.5728294345388e-10	-1.4709436177952e-21
-7.9827611789701e-24	-1.6737012594895e-11	-3.3660148107223e-11	-2.3883738654938e-09	-3.7376306934631e-21	1.0168155848054e-20
1.0714285714285e-11	-6.5806678187876e-10	-2.3302680520786e-10	-5.5159497094397e-22	4.6605361041832e-10	-1.3161335637693e-09
-4.2857142857145e-11	-5.0809683583177e-10	2.9946973855638e-10	-6.714032777224e-22	-5.9893947711741e-10	-1.0161936716737e-09
-4.1006810149927e-24	1.0650134974404e-11	-1.9872339705705e-11	8.3769596933164e-09	-2.4466823377369e-21	-1.4207025182458e-21
2.1428571428571e-11	-2.2755171111096e-11	3.4788979122951e-10	-9.9371614210825e-22	-6.9577958246344e-10	-4.5510342223764e-11
3.2142857142862e-11	7.6521025686032e-10	9.0210208366311e-12	6.4053748552938e-22	-1.8042041671899e-11	1.5304205137372e-09
-1.2400877652856e-24	7.3634758320435e-12	-3.1840396040868e-11	6.4367520767694e-09	-2.8375048829326e-21	-9.7366244466557e-21
2.1428571428572e-11	2.9578628258608e-10	2.3167722447749e-10	-8.640569947293e-22	-4.6335444895742e-10	5.9157256517809e-10
2.1428571428575e-11	5.0991270723906e-10	-1.3530871075306e-10	8.7959268255721e-22	2.7061742150851e-10	1.0198254144892e-09
2.1161572435788e-23	2.9896690303223e-12	-2.1480785267861e-11	3.4190350451388e-09	-2.1255966395747e-21	-1.367702076651e-20
2.1428571428573e-11	4.8693881086135e-10	1.1578539052168e-10	-3.6204641240841e-22	-2.3157078104411e-10	9.7387762173324e-10
1.0714285714287e-11	2.5494190662389e-10	-2.2196986356057e-10	1.198031368996e-21	4.4393972712421e-10	5.0988381325347e-10
8.669805384876e-24	1.1930125787089e-12	7.8531166223624e-23	-7.3673600582988e-23	-8.1406656362108e-22	-1.4622219615297e-20
2.1428571428573e-11	5.5066930024279e-10	-1.5228655590527e-22	4.0926861069335e-23	1.0710279439426e-21	1.101338600496e-09
8.272815867489e-25	1.0212126273335e-22	-2.5087822237728e-10	1.2363918699031e-21	5.0175644475749e-10	8.9718077189033e-22
1.1070621508382e-24	2.9896690303175e-12	2.1480785268023e-11	-3.4190350451389e-09	6.3991558545703e-22	-1.3714086677252e-20
2.1428571428573e-11	4.8693881086161e-10	-1.1578539052195e-10	5.1655592785749e-22	2.3157078104588e-10	9.7387762173255e-10
-1.0714285714286e-11	-2.5494190662371e-10	-2.2196986356037e-10	9.8965940281504e-22	4.43939727123e-10	-5.0988381325166e-10
7.1817013287107e-24	7.3634758320228e-12	3.1840396040979e-11	-6.4367520767696e-09	1.8014058570941e-21	-1.0313950873881e-20
2.1428571428573e-11	2.9578628258645e-10	-2.3167722447765e-10	7.5872929640615e-22	4.6335444895836e-10	5.9157256517824e-10
-2.1428571428573e-11	-5.0991270723904e-10	-1.3530871075269e-10	2.6685864380855e-22	2.7061742150627e-10	-1.0198254144872e-09
-4.6874746076957e-24	1.0650134974353e-11	1.9872339705736e-11	-8.3769596933163e-09	2.412737818646e-21	-2.2598657133789e-21
2.1428571428572e-11	-2.2755171110713e-11	-3.4788979122949e-10	4.7434425849815e-22	6.957795824633e-10	-4.5510342220527e-11
-3.214285714286e-11	-7.6521025686057e-10	9.0210208371646e-12	-5.8420680893195e-22	-1.8042041674965e-11	-1.5304205137354e-09
2.2138592444122e-25	8.4821137682183e-12	-1.3495098310998e-11	-3.437152085283e-09	3.8573021297191e-22	-5.2039234902838e-21
-1.0714285714284e-11	-2.1136017253883e-10	-1.740778227848e-10	4.8280125129891e-22	3.4815564557146e-10	-4.2272034508004e-10
3.2142857142855e-11	-3.8190185078682e-10	9.6945354688441e-11	-3.6262661013787e-22	-1.9389070937798e-10	-7.638037015818e-10
1.710143157436e-24	7.3614394007003e-12	-2.7516883688901e-11	-2.9081742591424e-09	-2.1375081110774e-22	5.6339764275063e-22
-1.0714285714284e-11	1.0736977942912e-10	-1.1574657254053e-10	-1.0863591590238e-22	2.3149314508281e-10	2.1473955886148e-10
2.142857142857e-11	-2.5489147978771e-10	-4.8029028961432e-11	-3.9689806000914e-22	9.6058057923232e-11	-5.097829595807e-10
2.5764070946773e-24	8.4790034150418e-12	-1.9310072142753e-11	-1.5954951726313e-09	-2.1717479560254e-22	2.9490440846452e-21
-1.0714285714284e-11	2.9858037192656e-10	-5.7851852585453e-11	-9.9933757754063e-23	1.1570370517214e-10	5.9716074386012e-10
1.0714285714285e-11	-1.2747228998975e-10	-1.3498366358375e-10	-3.3712941399078e-22	2.6996732716873e-10	-2.5494457998202e-10
9.4635288287168e-24	9.0891180963103e-12	-1.728168313576e-23	8.4612210952047e-23	2.0953917739808e-22	3.8836662903119e-21
-1.0714285714285e-11	3.6231525941892e-10	-1.0914068590753e-22	4.0409873186489e-23	8.8696087060391e-22	7.2463051884474e-10
3.6350710512584e-27	1.8039161260905e-22	-1.6396782904798e-10	-3.5243346701336e-22	3.2793565809774e-10	4.7332179379079e-22
2.0561943484512e-24	8.4790034151071e-12	1.9310072142722e-11	1.5954951726315e-09	4.9087671310057e-22	3.4902981872161e-21
-1.0714285714285e-11	2.9858037192673e-10	5.7851852585262e-11	2.984904388732e-22	-1.1570370517068e-10	5.9716074385861e-10
-1.0714285714285e-11	1.2747228999003e-10	-1.3498366358379e-10	-3.6138099245764e-22	2.6996732716913e-10	2.5494457998277e-10
3.4148210865207e-25	7.3614394007988e-12	2.7516883688899e-11	2.9081742591425e-09	2.1712319778845e-22	1.2340231667293e-21
-1.0714285714286e-11	1.0736977942907e-10	1.1574657254045e-10	1.406185836759e-22	-2.3149314508212e-10	2.1473955885995e-10
-2.1428571428571e-11	2.5489147978785e-10	-4.8029028961564e-11	-2.977139346852e-22	9.6058057923556e-11	5.0978295958062e-10
3.1422033794508e-24	8.4821137682527e-12	1.3495098311049e-11	3.437152085283e-09	-9.6520136998295e-22	-4.6787786594604e-21
-1.0714285714288e-11	-2.1136017253891e-10	1.740778227849e-10	-1.3239272080949e-22	-3.481556455724e-10	-4.2272034508251e-10
-3.2142857142857e-11	3.8190185078677e-10	9.6945354688259e-11	-3.7034588546361e-22	-1.9389070937741e-10	7.6380370158034e-10
-2.2121742375187e-24	6.6278300964693e-23	-1.153422488692e-11	2.2064729819845e-22	2.2815485083029e-21	5.6990068388713e-22
4.6145207511808e-25	-2.7461227194119e-10	8.8090292372279e-23	-1.4127501692324e-23	-5.7651580638105e-22	-5.4922454388646e-10
3.2142857142857e-11	-1.170864463546e-22	1.2612549739881e-10	-2.9763638650277e-22	-2.5225099479914e-10	-1.0176615668132e-21
1.917190746064e-24	3.9292593709207e-24	-2.6085382017603e-11	1.0332967142241e-22	4.7343266345786e-22	1.5765101200916e-22
1.6127598564083e-24	4.4509334525892e-11	3.9291079096269e-24	-2.3726250115438e-22	1.6528627680394e-22	8.9018669054085e-11
2.1428571428572e-11	1.4199395319782e-23	-1.8838088739446e-11	-8.228508390342e-23	3.767617747908e-11	-3.6354264804279e-22
4.7465508231659e-24	-1.0592066928839e-23	-1.8587791480622e-11	3.4881081578819e-23	-7.0450958634754e-24	1.0825160811291e-22
1.6447939200475e-24	2.3579023511864e-10	-7.155617169563e-23	-1.8156291328112e-22	5.7653761680736e-22	4.7158047024327e-10
1.0714285714286e-11	9.8093604008559e-23	-1.0593188674313e-10	5.5156144751094e-23	2.1186377348742e-10	1.5370372874428e-22
3.7013716548986e-24	-1.9040022539061e-23	-3.6180884536908e-24	4.220795855764e-23	-1.5877422372045e-23	1.4273783009879e-22
6.3712193237994e-25	2.995318773769e-10	-9.4616557573834e-23	2.7485176115348e-23	6.8996586901985e-22	5.9906375476036e-10
2.5112282512444e-25	1.297946547498e-22	-1.349584765547e-10	9.7503914704688e-23	2.6991695311068e-10	4.2014635886585e-22
3.1671534721611e-24	-1.1908625292555e-23	1.8587791480628e-11	-4.0751860166121e-24	-2.5600839848265e-23	7.7014912454917e-23
8.9772055469789e-25	2.3579023511875e-10	-9.1354182279526e-23	4.0116423240634e-22	5.4147735651797e-22	4.7158047024193e-10
-1.0714285714286e-11	9.3178987947258e-23	-1.0593188674316e-10	6.5767321046501e-23	2.1186377348686e-10	3.6458308615701e-22
-4.4929493970772e-25	-1.9210766748831e-23	2.6085382017597e-11	-3.7366883265366e-23	-5.3689777283856e-22	-1.0027516413207e-22
-1.595392294719e-26	4.450933452598e-11	-4.5575914995503e-23	3.0135657880115e-22	1.5732607704686e-22	8.9018669053305e-11
-2.1428571428572e-11	3.7987300279217e-23	-1.8838088739446e-11	-5.3359611858206e-23	3.7676177478437e-11	1.7480652788718e-24
-3.8144327775567e-24	-6.1367471435736e-23	1.1534224886914e-11	-2.0421292740554e-22	-2.3556114527634e-21	-5.6642714630571e-22
-1.1958878887661e-24	-2.7461227194113e-10	5.8259081790127e-23	-4.9015298055169e-23	-4.6822057741553e-22	-5.4922454388737e-10
-3.2142857142858e-11	-8.5868456166393e-24	1.2612549739884e-10	-2.3440230608221e-22	-2.5225099479986e-10	-7.054784337569e-22
-5.9845733506016e-24	-8.4821137681597e-12	-1.3495098311105e-11	3.4371520852832e-09	1.0703771147631e-21	5.5389746028881e-21
1.0714285714286e-11	-2.1136017253891e-10	1.7407782278496e-10	-4.1748144788849e-22	-3.4815564557232e-10	-4.2272034508197e-10
3.2142857142859e-11	3.8190185078662e-10	9.6945354688205e-11	1.833424825091e-22	-1.9389070937714e-10	7.6380370158047e-10
3.8841996360145e-24	-7.3614394007389e-12	-2.7516883688942e-11	2.9081742591425e-09	-1.4489670889355e-22	-4.8620536912067e-22
1.0714285714287e-11	1.07369779429e-10	1.1574657254049e-10	-5.0286341037919e-22	-2.3149314508217e-10	2.1473955886142e-10
2.1428571428573e-11	2.5489147978775e-10	-4.8029028961635e-11	4.7061003078655e-22	9.6058057923949e-11	5.0978295958055e-10
8.8159848604875e-24	-8.479003415102e-12	-1.9310072142748e-11	1.5954951726314e-09	-4.6930431768256e-22	-2.8910323707023e-21
1.0714285714287e-11	2.9858037192659e-10	5.7851852585292e-11	-2.6456834709787e-22	-1.1570370517078e-10	5.9716074386029e-10
1.0714285714287e-11	1.2747228998996e-10	-1.3498366358385e-10	6.5607297140889e-22	2.6996732716899e-10	2.5494457998277e-10
9.8979166638986e-24	-9.0891180963581e-12	2.2547048843628e-23	-2.3725692233006e-23	-2.1236678304852e-22	-3.6409126861684e-21
1.0714285714287e-11	3.6231525941884e-10	-1.140633799045e-22	3.860041559653e-23	7.4203624234521e-22	7.2463051884528e-10
6.9419759659449e-25	8.5038044379573e-23	-1.63967829048e-10	7.3532721384913e-22	3.2793565809753e-10	6.2450843778046e-22
3.4582194803605e-24	-8.4790034151341e-12	1.9310072142783e-11	-1.5954951726314e-09	1.3635603372797e-22	-3.1421495602044e-21
1.0714285714287e-11	2.985803719267e-10	-5.7851852585475e-11	4.577680946907e-22	1.1570370517205e-10	5.9716074385933e-10
-1.0714285714286e-11	-1.2747228998984e-10	-1.3498366358374e-10	5.6801054791467e-22	2.6996732716863e-10	-2.5494457998169e-10
-5.9980881156299e-25	-7.3614394007948e-12	2.7516883688947e-11	-2.9081742591425e-09	7.3611097555746e-23	-1.2164603714323e-21
1.0714285714287e-11	1.0736977942926e-10	-1.1574657254056e-10	5.7122485949175e-22	2.3149314508264e-10	2.1473955886078e-10
-2.1428571428572e-11	-2.5489147978775e-10	-4.8029028961409e-11	2.8517617073262e-22	9.6058057922716e-11	-5.0978295958024e-10
-4.8601594152922e-24	-8.4821137682688e-12	1.3495098311051e-11	-3.4371520852832e-09	-5.0628820266756e-22	4.2082684416665e-21
1.0714285714285e-11	-2.1136017253867e-10	-1.7407782278483e-10	2.5217517819378e-22	3.4815564557155e-10	-4.2272034508079e-10
-3.2142857142859e-11	-3.8190185078681e-10	9.6945354688503e-11	-8.336429610886e-23	-1.9389070937896e-10	-7.6380370158117e-10
