N1	0	-0.075	0.15
N2	0	-0.075	-0.15
N3	0	0.075	0.15
N4	0	0.075	-0.15
N5	0.5	-0.075	0.15
N6	0.5	-0.075	-0.15
N7	0.5	0.075	0.15
N8	0.5	0.075	-0.15
N9	0	-0.075	-0.125
N10	0	-0.075	-0.1
N11	0	-0.075	-0.075
N12	0	-0.075	-0.05
N13	0	-0.075	-0.025
N14	0	-0.075	0
N15	0	-0.075	0.025
N16	0	-0.075	0.05
N17	0	-0.075	0.075
N18	0	-0.075	0.1
N19	0	-0.075	0.125
N20	0	-0.05	0.15
N21	0	-0.025	0.15
N22	0	0	0.15
N23	0	0.025	0.15
N24	0	0.05	0.15
N25	0	0.075	-0.125
N26	0	0.075	-0.1
N27	0	0.075	-0.075
N28	0	0.075	-0.05
N29	0	0.075	-0.025
N30	0	0.075	0
N31	0	0.075	0.025
N32	0	0.075	0.05
N33	0	0.075	0.075
N34	0	0.075	0.1
N35	0	0.075	0.125
N36	0	-0.05	-0.15
N37	0	-0.025	-0.15
N38	0	0	-0.15
N39	0	0.025	-0.15
N40	0	0.05	-0.15
N41	0.5	-0.075	-0.125
N42	0.5	-0.075	-0.1
N43	0.5	-0.075	-0.075
N44	0.5	-0.075	-0.05
N45	0.5	-0.075	-0.025
N46	0.5	-0.075	0
N47	0.5	-0.075	0.025
N48	0.5	-0.075	0.05
N49	0.5	-0.075	0.075
N50	0.5	-0.075	0.1
N51	0.5	-0.075	0.125
N52	0.5	-0.05	0.15
N53	0.5	-0.025	0.15
N54	0.5	0	0.15
N55	0.5	0.025	0.15
N56	0.5	0.05	0.15
N57	0.5	0.075	-0.125
N58	0.5	0.075	-0.1
N59	0.5	0.075	-0.075
N60	0.5	0.075	-0.05
N61	0.5	0.075	-0.025
N62	0.5	0.075	0
N63	0.5	0.075	0.025
N64	0.5	0.075	0.05
N65	0.5	0.075	0.075
N66	0.5	0.075	0.1
N67	0.5	0.075	0.125
N68	0.5	-0.05	-0.15
N69	0.5	-0.025	-0.15
N70	0.5	0	-0.15
N71	0.5	0.025	-0.15
N72	0.5	0.05	-0.15
N73	0.166667	-0.075	-0.15
N74	0.333333	-0.075	-0.15
N75	0.166667	-0.075	0.15
N76	0.333333	-0.075	0.15
N77	0.166667	0.075	-0.15
N78	0.333333	0.075	-0.15
N79	0.166667	0.075	0.15
N80	0.333333	0.075	0.15
N81	0	-0.05	-0.125
N82	0	-0.025	-0.125
N83	0	0	-0.125
N84	0	0.025	-0.125
N85	0	0.05	-0.125
N86	0	-0.05	-0.1
N87	0	-0.025	-0.1
N88	0	0	-0.1
N89	0	0.025	-0.1
N90	0	0.05	-0.1
N91	0	-0.05	-0.075
N92	0	-0.025	-0.075
N93	0	0	-0.075
N94	0	0.025	-0.075
N95	0	0.05	-0.075
N96	0	-0.05	-0.05
N97	0	-0.025	-0.05
N98	0	0	-0.05
N99	0	0.025	-0.05
N100	0	0.05	-0.05
N101	0	-0.05	-0.025
N102	0	-0.025	-0.025
N103	0	0	-0.025
N104	0	0.025	-0.025
N105	0	0.05	-0.025
N106	0	-0.05	5.55112e-17
N107	0	-0.025	0
N108	0	0	0
N109	0	0.025	0
N110	0	0.05	0
N111	0	-0.05	0.025
N112	0	-0.025	0.025
N113	0	0	0.025
N114	0	0.025	0.025
N115	0	0.05	0.025
N116	0	-0.05	0.05
N117	0	-0.025	0.05
N118	0	0	0.05
N119	0	0.025	0.05
N120	0	0.05	0.05
N121	0	-0.05	0.075
N122	0	-0.025	0.075
N123	0	-2.77556e-17	0.075
N124	0	0.025	0.075
N125	0	0.05	0.075
N126	0	-0.05	0.1
N127	0	-0.025	0.1
N128	0	0	0.1
N129	0	0.025	0.1
N130	0	0.05	0.1
N131	0	-0.05	0.125
N132	0	-0.025	0.125
N133	0	0	0.125
N134	0	0.025	0.125
N135	0	0.05	0.125
N136	0.5	-0.05	0.125
N137	0.5	-0.025	0.125
N138	0.5	0	0.125
N139	0.5	0.025	0.125
N140	0.5	0.05	0.125
N141	0.5	-0.05	0.1
N142	0.5	-0.025	0.1
N143	0.5	0	0.1
N144	0.5	0.025	0.1
N145	0.5	0.05	0.1
N146	0.5	-0.05	0.075
N147	0.5	-0.025	0.075
N148	0.5	0	0.075
N149	0.5	0.025	0.075
N150	0.5	0.05	0.075
N151	0.5	-0.05	0.05
N152	0.5	-0.025	0.05
N153	0.5	0	0.05
N154	0.5	0.025	0.05
N155	0.5	0.05	0.05
N156	0.5	-0.05	0.025
N157	0.5	-0.025	0.025
N158	0.5	1.38778e-17	0.025
N159	0.5	0.025	0.025
N160	0.5	0.05	0.025
N161	0.5	-0.05	0
N162	0.5	-0.025	0
N163	0.5	0	0
N164	0.5	0.025	0
N165	0.5	0.05	0
N166	0.5	-0.05	-0.025
N167	0.5	-0.025	-0.025
N168	0.5	0	-0.025
N169	0.5	0.025	-0.025
N170	0.5	0.05	-0.025
N171	0.5	-0.05	-0.05
N172	0.5	-0.025	-0.05
N173	0.5	0	-0.05
N174	0.5	0.025	-0.05
N175	0.5	0.05	-0.05
N176	0.5	-0.05	-0.075
N177	0.5	-0.025	-0.075
N178	0.5	-2.77556e-17	-0.075
N179	0.5	0.025	-0.075
N180	0.5	0.05	-0.075
N181	0.5	-0.05	-0.1
N182	0.5	-0.025	-0.1
N183	0.5	2.77556e-17	-0.1
N184	0.5	0.025	-0.1
N185	0.5	0.05	-0.1
N186	0.5	-0.05	-0.125
N187	0.5	-0.025	-0.125
N188	0.5	0	-0.125
N189	0.5	0.025	-0.125
N190	0.5	0.05	-0.125
N191	0.166667	-0.075	-0.125
N192	0.166667	-0.075	-0.1
N193	0.166667	-0.075	-0.075
N194	0.166667	-0.075	-0.05
N195	0.166667	-0.075	-0.025
N196	0.166667	-0.075	0
N197	0.166667	-0.075	0.025
N198	0.166667	-0.075	0.05
N199	0.166667	-0.075	0.075
N200	0.166667	-0.075	0.1
N201	0.166667	-0.075	0.125
N202	0.333333	-0.075	-0.125
N203	0.333333	-0.075	-0.1
N204	0.333333	-0.075	-0.075
N205	0.333333	-0.075	-0.05
N206	0.333333	-0.075	-0.025
N207	0.333333	-0.075	0
N208	0.333333	-0.075	0.025
N209	0.333333	-0.075	0.05
N210	0.333333	-0.075	0.075
N211	0.333333	-0.075	0.1
N212	0.333333	-0.075	0.125
N213	0.333333	0.075	-0.125
N214	0.333333	0.075	-0.1
N215	0.333333	0.075	-0.075
N216	0.333333	0.075	-0.05
N217	0.333333	0.075	-0.025
N218	0.333333	0.075	0
N219	0.333333	0.075	0.025
N220	0.333333	0.075	0.05
N221	0.333333	0.075	0.075
N222	0.333333	0.075	0.1
N223	0.333333	0.075	0.125
N224	0.166667	0.075	-0.125
N225	0.166667	0.075	-0.1
N226	0.166667	0.075	-0.075
N227	0.166667	0.075	-0.05
N228	0.166667	0.075	-0.025
N229	0.166667	0.075	0
N230	0.166667	0.075	0.025
N231	0.166667	0.075	0.05
N232	0.166667	0.075	0.075
N233	0.166667	0.075	0.1
N234	0.166667	0.075	0.125
N235	0.166667	-0.05	-0.15
N236	0.333333	-0.05	-0.15
N237	0.166667	-0.025	-0.15
N238	0.333333	-0.025	-0.15
N239	0.166667	0	-0.15
N240	0.333333	0	-0.15
N241	0.166667	0.025	-0.15
N242	0.333333	0.025	-0.15
N243	0.166667	0.05	-0.15
N244	0.333333	0.05	-0.15
N245	0.166667	0.05	0.15
N246	0.333333	0.05	0.15
N247	0.166667	0.025	0.15
N248	0.333333	0.025	0.15
N249	0.166667	0	0.15
N250	0.333333	0	0.15
N251	0.166667	-0.025	0.15
N252	0.333333	-0.025	0.15
N253	0.166667	-0.05	0.15
N254	0.333333	-0.05	0.15
N255	0.166667	-0.05	0.125
N256	0.333333	-0.05	0.125
N257	0.166667	-0.025	0.125
N258	0.333333	-0.025	0.125
N259	0.166667	0	0.125
N260	0.333333	0	0.125
N261	0.166667	0.025	0.125
N262	0.333333	0.025	0.125
N263	0.166667	0.05	0.125
N264	0.333333	0.05	0.125
N265	0.166667	-0.05	0.1
N266	0.333333	-0.05	0.1
N267	0.166667	-0.025	0.1
N268	0.333333	-0.025	0.1
N269	0.166667	0	0.1
N270	0.333333	0	0.1
N271	0.166667	0.025	0.1
N272	0.333333	0.025	0.1
N273	0.166667	0.05	0.1
N274	0.333333	0.05	0.1
N275	0.166667	-0.05	0.075
N276	0.333333	-0.05	0.075
N277	0.166667	-0.025	0.075
N278	0.333333	-0.025	0.075
N279	0.166667	-1.85037e-17	0.075
N280	0.333333	-9.25186e-18	0.075
N281	0.166667	0.025	0.075
N282	0.333333	0.025	0.075
N283	0.166667	0.05	0.075
N284	0.333333	0.05	0.075
N285	0.166667	-0.05	0.05
N286	0.333333	-0.05	0.05
N287	0.166667	-0.025	0.05
N288	0.333333	-0.025	0.05
N289	0.166667	0	0.05
N290	0.333333	0	0.05
N291	0.166667	0.025	0.05
N292	0.333333	0.025	0.05
N293	0.166667	0.05	0.05
N294	0.333333	0.05	0.05
N295	0.166667	-0.05	0.025
N296	0.333333	-0.05	0.025
N297	0.166667	-0.025	0.025
N298	0.333333	-0.025	0.025
N299	0.166667	4.62593e-18	0.025
N300	0.333333	9.25186e-18	0.025
N301	0.166667	0.025	0.025
N302	0.333333	0.025	0.025
N303	0.166667	0.05	0.025
N304	0.333333	0.05	0.025
N305	0.166667	-0.05	4.16334e-17
N306	0.333333	-0.05	1.38778e-17
N307	0.166667	-0.025	0
N308	0.333333	-0.025	0
N309	0.166667	0	0
N310	0.333333	0	0
N311	0.166667	0.025	0
N312	0.333333	0.025	0
N313	0.166667	0.05	0
N314	0.333333	0.05	0
N315	0.166667	-0.05	-0.025
N316	0.333333	-0.05	-0.025
N317	0.166667	-0.025	-0.025
N318	0.333333	-0.025	-0.025
N319	0.166667	0	-0.025
N320	0.333333	0	-0.025
N321	0.166667	0.025	-0.025
N322	0.333333	0.025	-0.025
N323	0.166667	0.05	-0.025
N324	0.333333	0.05	-0.025
N325	0.166667	-0.05	-0.05
N326	0.333333	-0.05	-0.05
N327	0.166667	-0.025	-0.05
N328	0.333333	-0.025	-0.05
N329	0.166667	0	-0.05
N330	0.333333	0	-0.05
N331	0.166667	0.025	-0.05
N332	0.333333	0.025	-0.05
N333	0.166667	0.05	-0.05
N334	0.333333	0.05	-0.05
N335	0.166667	-0.05	-0.075
N336	0.333333	-0.05	-0.075
N337	0.166667	-0.025	-0.075
N338	0.333333	-0.025	-0.075
N339	0.166667	-9.25186e-18	-0.075
N340	0.333333	-1.85037e-17	-0.075
N341	0.166667	0.025	-0.075
N342	0.333333	0.025	-0.075
N343	0.166667	0.05	-0.075
N344	0.333333	0.05	-0.075
N345	0.166667	-0.05	-0.1
N346	0.333333	-0.05	-0.1
N347	0.166667	-0.025	-0.1
N348	0.333333	-0.025	-0.1
N349	0.166667	9.25186e-18	-0.1
N350	0.333333	1.85037e-17	-0.1
N351	0.166667	0.025	-0.1
N352	0.333333	0.025	-0.1
N353	0.166667	0.05	-0.1
N354	0.333333	0.05	-0.1
N355	0.166667	-0.05	-0.125
N356	0.333333	-0.05	-0.125
N357	0.166667	-0.025	-0.125
N358	0.333333	-0.025	-0.125
N359	0.166667	0	-0.125
N360	0.333333	0	-0.125
N361	0.166667	0.025	-0.125
N362	0.333333	0.025	-0.125
N363	0.166667	0.05	-0.125
N364	0.333333	0.05	-0.125
