# Fnode
-0.00347222	-0.0867365	0.0441472	-4.32389e-14	-0.0882944	-0.173473
-2.97993e-16	0.00569651	-0.00634335	0.0235908	-1.51962e-15	2.15617e-14
-1.7228e-16	-0.00948993	0.00493949	0.0235908	2.83887e-15	-1.94011e-14
-0.00347222	-0.0867365	-0.0441472	9.97032e-15	0.0882944	-0.173473
4.5672e-16	0.00569651	0.00634335	-0.0235908	7.76289e-15	2.15591e-14
1.9288e-16	0.00948993	0.00493949	0.0235908	-1.19262e-16	4.85723e-16
-0.00347222	0.0867365	0.0441472	-4.18242e-15	-0.0882944	0.173473
-3.82832e-16	0.00569651	0.00634335	0.0235908	4.85723e-15	-9.25735e-15
-2.97288e-16	0.00948993	0.00493949	-0.0235908	4.45737e-15	2.38386e-14
-0.00347222	0.0867365	-0.0441472	-8.65974e-15	0.0882944	0.173473
-3.85651e-16	0.00569651	-0.00634335	-0.0235908	-1.01256e-14	6.95624e-16
4.41487e-16	-0.00948993	0.00493949	-0.0235908	-6.08888e-16	-6.17562e-16
-0.00694444	-0.173467	-0.0516837	4.18138e-14	0.103367	-0.346934
-2.10335e-16	0.01199	0.0111409	-0.0288783	9.23914e-15	1.15598e-13
1.00289e-16	0.00153261	-0.00477227	0.0760598	4.78084e-15	-7.45931e-15
-0.00694444	-0.173485	-0.0413504	3.04479e-14	0.0827009	-0.346969
-3.40114e-16	0.0124372	0.00888616	-0.0150178	1.73325e-14	-1.01035e-14
1.76915e-16	0.00202106	-0.00715886	0.119956	1.54174e-14	-3.07263e-16
-0.00694444	-0.173494	-0.031012	2.50008e-14	0.062024	-0.346987
-4.43005e-16	0.0126431	0.00665918	-0.00841761	7.76853e-15	3.51791e-14
1.28961e-16	0.00185569	-0.00898393	0.143391	8.17792e-15	1.13651e-14
-0.00694444	-0.173496	-0.0206741	1.34961e-15	0.0413482	-0.346993
-5.32018e-16	0.0127546	0.00443805	-0.00450808	1.0973e-14	2.06987e-14
3.01178e-16	0.0013726	-0.0102809	0.156317	-1.70521e-14	7.02747e-15
-0.00694444	-0.173497	-0.0103369	-4.99947e-15	0.0206737	-0.346994
-3.15286e-16	0.0128101	0.00221877	-0.00196324	8.45992e-15	1.12323e-15
2.66819e-16	0.000722452	-0.0110576	0.162788	2.85579e-15	9.16102e-15
-0.00694444	-0.173497	-6.27889e-16	-7.08027e-15	-1.21729e-15	-0.346994
-2.28983e-16	0.0128269	-5.68484e-16	2.37679e-15	-2.20047e-16	2.48794e-14
3.05625e-16	-4.55195e-16	-0.0113163	0.164752	1.44806e-15	1.43519e-14
-0.00694444	-0.173497	0.0103369	-1.53263e-14	-0.0206737	-0.346994
-4.37367e-16	0.0128101	-0.00221877	0.00196324	-4.85018e-15	-8.2755e-15
2.26896e-16	-0.000722452	-0.0110576	0.162788	1.02739e-14	8.3109e-15
-0.00694444	-0.173496	0.0206741	-1.36453e-14	-0.0413482	-0.346993
-1.36718e-16	0.0127546	-0.00443805	0.00450808	-6.36448e-15	7.31385e-14
2.17369e-16	-0.0013726	-0.0102809	0.156317	-1.16797e-14	-3.7476e-15
-0.00694444	-0.173494	0.031012	-1.65354e-14	-0.062024	-0.346987
-3.83699e-16	0.0126431	-0.00665918	0.00841761	-8.01356e-15	-8.25295e-15
4.23113e-16	-0.00185569	-0.00898393	0.143391	1.14e-14	1.50137e-14
-0.00694444	-0.173485	0.0413504	-1.82493e-14	-0.0827009	-0.346969
-5.40583e-16	0.0124372	-0.00888616	0.0150178	-1.38145e-14	2.071e-14
2.8894e-16	-0.00202106	-0.00715886	0.119956	-6.34649e-15	-1.95991e-14
-0.00694444	-0.173467	0.0516837	-2.02338e-14	-0.103367	-0.346934
-5.01444e-16	0.01199	-0.0111409	0.0288783	-2.24473e-14	1.21647e-14
2.21069e-16	-0.00153261	-0.00477227	0.0760598	-2.10389e-15	1.66638e-14
-0.00694444	-0.0626078	0.0882926	6.40286e-15	-0.176585	-0.125216
3.50929e-16	-0.0108817	-0.0001342	0.0751532	-6.05505e-15	-1.91132e-14
4.36391e-16	-0.0139922	0.00997512	0.0279717	1.86856e-14	-6.56875e-15
-0.00694444	-0.0313131	0.0882986	1.86136e-15	-0.176597	-0.0626263
3.74538e-16	-0.0139786	-0.000107436	0.11449	3.83309e-15	-3.95933e-14
3.71881e-17	-0.00691068	0.01004	0.0113649	1.51849e-14	-1.07928e-14
-0.00694444	-3.21801e-16	0.0883009	-4.51332e-15	-0.176602	-6.91558e-16
3.49291e-16	-0.0149541	6.30474e-16	0.125855	-4.75293e-15	9.50282e-15
2.49366e-16	-2.99149e-16	0.0100556	1.17348e-14	3.99368e-14	1.0863e-14
-0.00694444	0.0313131	0.0882986	-1.42594e-14	-0.176597	0.0626263
3.77695e-16	-0.0139786	0.000107436	0.11449	1.68648e-15	-2.40372e-14
-2.60209e-16	0.00691068	0.01004	-0.0113649	3.73365e-14	1.2802e-14
-0.00694444	0.0626078	0.0882926	-8.83365e-15	-0.176585	0.125216
2.85416e-16	-0.0108817	0.0001342	0.0751532	-8.74301e-16	-5.92425e-14
-4.32271e-16	0.0139922	0.00997512	-0.0279717	2.33667e-14	9.13419e-15
-0.00694444	0.173467	-0.0516837	-2.71172e-14	0.103367	0.346934
-8.08598e-16	0.01199	-0.0111409	-0.0288783	-1.34146e-14	3.6967e-15
-2.21638e-16	-0.00153261	-0.00477227	-0.0760598	2.97939e-15	1.45023e-15
-0.00694444	0.173485	-0.0413504	-1.34059e-14	0.0827009	0.346969
-6.93564e-16	0.0124372	-0.00888616	-0.0150178	-1.02245e-14	-1.81777e-15
-1.17114e-16	-0.00202106	-0.00715886	-0.119956	1.71152e-15	-1.22998e-14
-0.00694444	0.173494	-0.031012	-8.79158e-15	0.062024	0.346987
-9.052e-16	0.0126431	-0.00665918	-0.00841761	-7.94503e-15	3.66838e-14
-3.44065e-16	-0.00185569	-0.00898393	-0.143391	-1.09244e-14	-8.62786e-15
-0.00694444	0.173496	-0.0206741	-9.81853e-16	0.0413482	0.346993
-7.62953e-16	0.0127546	-0.00443805	-0.00450808	-8.44593e-15	-5.54019e-14
-2.72609e-16	-0.0013726	-0.0102809	-0.156317	6.32307e-16	-1.26944e-14
-0.00694444	0.173497	-0.0103369	3.43302e-15	0.0206737	0.346994
-6.28078e-16	0.0128101	-0.00221877	-0.00196324	-4.00483e-15	-1.00522e-13
-3.08713e-16	-0.000722452	-0.0110576	-0.162788	-2.00447e-15	5.6205e-15
-0.00694444	0.173497	4.39346e-16	6.09126e-15	1.31554e-16	0.346994
-7.96238e-16	0.0128269	-5.57873e-17	-7.70597e-16	-2.40431e-16	-1.19045e-15
-2.97189e-16	5.10809e-16	-0.0113163	-0.164752	3.0169e-15	-2.2123e-14
-0.00694444	0.173497	0.0103369	1.31284e-14	-0.0206737	0.346994
-6.01732e-16	0.0128101	0.00221877	0.00196324	3.14267e-15	3.96475e-14
-2.67364e-16	0.000722452	-0.0110576	-0.162788	2.36475e-15	-1.93508e-15
-0.00694444	0.173496	0.0206741	1.7316e-14	-0.0413482	0.346993
-4.15358e-16	0.0127546	0.00443805	0.00450808	4.75141e-15	6.27306e-14
-2.67547e-16	0.0013726	-0.0102809	-0.156317	1.25225e-16	-1.79186e-14
-0.00694444	0.173494	0.031012	3.09613e-14	-0.062024	0.346987
-3.8706e-16	0.0126431	0.00665918	0.00841761	7.88735e-15	-2.857e-14
-2.01099e-16	0.00185569	-0.00898393	-0.143391	-5.00077e-15	-1.11064e-14
-0.00694444	0.173485	0.0413504	1.77289e-14	-0.0827009	0.346969
-3.63967e-16	0.0124372	0.00888616	0.0150178	1.25204e-14	3.95361e-14
-1.49064e-16	0.00202106	-0.00715886	-0.119956	5.94143e-15	1.04202e-15
-0.00694444	0.173467	0.0516837	1.57374e-14	-0.103367	0.346934
-3.34585e-16	0.01199	0.0111409	0.0288783	1.4465e-14	1.51029e-14
1.04598e-16	0.00153261	-0.00477227	-0.0760598	-1.01494e-14	-2.15067e-14
-0.00694444	-0.0626078	-0.0882926	-1.32342e-14	0.176585	-0.125216
7.90383e-17	-0.0108817	0.0001342	-0.0751532	3.7444e-15	1.16972e-14
9.79035e-17	0.0139922	0.00997512	0.0279717	5.35336e-15	1.44251e-14
-0.00694444	-0.0313131	-0.0882986	-4.75227e-15	0.176597	-0.0626263
8.72783e-17	-0.0139786	0.000107436	-0.11449	-7.97973e-17	-1.49073e-14
5.54786e-16	0.00691068	0.01004	0.0113649	1.25368e-14	4.25593e-15
-0.00694444	8.4523e-16	-0.0883009	3.55185e-16	0.176602	-4.23457e-15
-6.81014e-18	-0.0149541	-7.75425e-17	-0.125855	3.22379e-15	-8.43509e-16
5.41342e-16	-5.52483e-16	0.0100556	7.41323e-15	2.32349e-14	5.05994e-15
-0.00694444	0.0313131	-0.0882986	4.92315e-15	0.176597	0.0626263
-4.52925e-17	-0.0139786	-0.000107436	-0.11449	-6.90095e-16	9.62251e-15
5.06214e-16	-0.00691068	0.01004	-0.0113649	-1.22298e-16	1.21621e-14
-0.00694444	0.0626078	-0.0882926	4.52763e-15	0.176585	0.125216
7.10152e-17	-0.0108817	-0.0001342	-0.0751532	2.76775e-15	4.70674e-15
6.54208e-16	-0.0139922	0.00997512	-0.0279717	1.77523e-14	3.13768e-15
-0.0138889	-0.125158	-0.103348	-4.11129e-15	0.206696	-0.250317
5.71917e-18	-0.0201453	0.000128805	-0.100587	4.90255e-15	5.86766e-14
1.96349e-16	0.00180151	-0.00928682	0.0987737	-9.60603e-17	1.8925e-14
-0.0138889	-0.0625903	-0.103341	5.43229e-15	0.206681	-0.125181
6.76542e-17	-0.025832	0.000115762	-0.163535	-9.35016e-16	-9.6919e-15
9.04767e-17	0.000689002	-0.00908019	0.0428472	-2.40519e-15	-7.65664e-15
-0.0138889	6.04206e-16	-0.10334	1.46346e-15	0.206679	-1.13689e-15
5.06187e-17	-0.0277003	6.82709e-18	-0.183652	-9.41196e-16	-6.18039e-15
3.31928e-16	-1.7328e-15	-0.00902299	6.13615e-15	1.03242e-14	-1.20197e-15
-0.0138889	0.0625903	-0.103341	-4.14078e-15	0.206681	0.125181
8.62754e-17	-0.025832	-0.000115762	-0.163535	-4.66857e-15	2.43815e-15
-3.05203e-17	-0.000689002	-0.00908019	-0.0428472	-5.78357e-15	8.51316e-16
-0.0138889	0.125158	-0.103348	1.67227e-15	0.206696	0.250317
5.02528e-17	-0.0201453	-0.000128805	-0.100587	1.96544e-15	2.17621e-14
-1.67184e-16	-0.00180151	-0.00928682	-0.0987737	-1.68008e-15	-2.60026e-14
-0.0138889	-0.125137	-0.0826869	5.67775e-15	0.165374	-0.250273
2.57877e-16	-0.018694	3.75408e-05	-0.0555659	-5.89806e-16	1.14925e-14
2.63949e-16	0.00262353	-0.0139827	0.167134	1.74782e-14	1.0489e-14
-0.0138889	-0.062575	-0.0826798	2.328e-15	0.16536	-0.12515
1.09559e-16	-0.0236256	3.78296e-05	-0.0950012	3.12163e-15	-7.68634e-14
1.11158e-16	0.00109857	-0.013673	0.0768696	1.3713e-14	-8.72067e-15
-0.0138889	5.2418e-16	-0.0826778	-2.04112e-15	0.165356	4.4317e-15
3.4747e-17	-0.025296	7.44334e-16	-0.108906	-2.47202e-15	-3.39132e-14
1.73472e-17	-8.51382e-17	-0.0135776	-1.60681e-14	1.76417e-14	-3.03522e-15
-0.0138889	0.062575	-0.0826798	-3.24393e-15	0.16536	0.12515
9.34582e-17	-0.0236256	-3.78296e-05	-0.0950012	9.23523e-16	-4.7456e-14
-1.07173e-16	-0.00109857	-0.013673	-0.0768696	-7.12538e-15	-2.80678e-15
-0.0138889	0.125137	-0.0826869	-5.55632e-15	0.165374	0.250273
2.02746e-17	-0.018694	-3.75408e-05	-0.0555659	3.12684e-16	-3.71031e-14
-4.27894e-16	-0.00262353	-0.0139827	-0.167134	4.19369e-15	4.03453e-15
-0.0138889	-0.125135	-0.0620179	7.21992e-15	0.124036	-0.25027
6.58653e-17	-0.0179371	1.13573e-05	-0.0313212	4.77266e-15	-9.19672e-14
2.9253e-16	0.002544	-0.0176172	0.207151	-2.30588e-15	1.9782e-14
-0.0138889	-0.0625699	-0.062013	3.34541e-15	0.124026	-0.12514
1.09599e-16	-0.0223484	1.14798e-05	-0.0540834	-2.11116e-15	-1.44372e-14
2.35251e-16	0.0011354	-0.0172739	0.0990509	-2.02954e-14	1.24257e-14
-0.0138889	1.98351e-15	-0.0620116	-1.04021e-15	0.124023	-4.67391e-15
3.44133e-17	-0.0238436	-1.21625e-16	-0.0623596	9.62853e-16	-2.5508e-14
2.81791e-17	-2.58949e-15	-0.017162	1.45281e-14	-5.17314e-14	1.10437e-14
-0.0138889	0.0625699	-0.062013	-1.01915e-15	0.124026	0.12514
9.73071e-17	-0.0223484	-1.14798e-05	-0.0540834	1.33422e-15	-2.2469e-15
-1.68587e-16	-0.0011354	-0.0172739	-0.0990509	4.56709e-15	-6.59855e-15
-0.0138889	0.125135	-0.0620179	-6.70471e-15	0.124036	0.25027
8.77662e-17	-0.0179371	-1.13573e-05	-0.0313212	6.65266e-16	-7.68951e-14
-3.16133e-16	-0.002544	-0.0176172	-0.207151	-2.5261e-14	-2.73335e-14
-0.0138889	-0.125136	-0.0413457	-3.14852e-16	0.0826914	-0.250273
1.98734e-16	-0.0175234	3.34836e-06	-0.0168149	3.7702e-15	-4.24201e-14
3.78786e-16	0.0019287	-0.0202063	0.229435	-3.15459e-15	1.61913e-14
-0.0138889	-0.0625686	-0.0413432	-8.67362e-19	0.0826865	-0.125137
2.35123e-16	-0.0216362	3.39184e-06	-0.0291039	-4.55018e-15	3.47066e-14
2.44508e-16	0.000889435	-0.0198529	0.111817	-1.55904e-14	2.34556e-15
-0.0138889	4.41116e-16	-0.0413424	-8.59447e-16	0.0826847	1.80709e-15
2.3082e-16	-0.0230236	3.32619e-16	-0.033594	-5.17903e-16	2.30893e-14
-4.04001e-17	4.77076e-16	-0.0197359	-1.56304e-15	-3.28036e-15	-3.56567e-16
-0.0138889	0.0625686	-0.0413432	-1.68702e-15	0.0826865	0.125137
2.32968e-16	-0.0216362	-3.39184e-06	-0.0291039	-2.41625e-15	4.12951e-14
-4.70205e-17	-0.000889435	-0.0198529	-0.111817	7.42462e-16	-1.21796e-14
-0.0138889	0.125136	-0.0413457	-6.4098e-15	0.0826914	0.250273
2.23346e-16	-0.0175234	-3.34836e-06	-0.0168149	-9.30896e-16	-9.02447e-14
-3.73006e-16	-0.0019287	-0.0202063	-0.229435	1.77555e-14	-1.05396e-14
-0.0138889	-0.125137	-0.0206729	-1.249e-16	0.0413457	-0.250274
1.17311e-16	-0.0173166	8.98616e-07	-0.00732556	-7.3047e-15	-7.67823e-14
4.97791e-16	0.00102684	-0.0217582	0.240633	-4.22535e-15	1.8979e-14
-0.0138889	-0.0625685	-0.0206719	-5.13478e-16	0.0413438	-0.125137
1.87974e-16	-0.0212785	9.11759e-07	-0.0126856	-9.3404e-17	-1.40283e-14
2.56454e-16	0.000480626	-0.0214019	0.118268	1.122e-14	7.73618e-15
-0.0138889	5.06437e-16	-0.0206715	-8.64109e-16	0.0413431	6.30843e-16
1.84663e-16	-0.0226108	3.28011e-16	-0.0146466	-4.6702e-17	6.23763e-15
3.45996e-17	-1.02796e-15	-0.0212833	-1.56732e-15	6.7394e-16	-7.59895e-15
-0.0138889	0.0625685	-0.0206719	-1.11326e-15	0.0413438	0.125137
3.56215e-16	-0.0212785	-9.11759e-07	-0.0126856	-2.9268e-16	1.84553e-14
-1.64853e-16	-0.000480626	-0.0214019	-0.118268	1.11679e-14	-7.51658e-15
-0.0138889	0.125137	-0.0206729	-2.26034e-15	0.0413457	0.250274
1.96728e-16	-0.0173166	-8.98616e-07	-0.00732556	-6.07587e-16	-3.09284e-14
-4.91814e-16	-0.00102684	-0.0217582	-0.240633	-3.54057e-15	-1.18762e-14
-0.0138889	-0.125137	-6.86683e-16	-2.03591e-15	1.57935e-15	-0.250274
1.91253e-16	-0.0172539	-1.34358e-16	-2.47779e-14	-2.102e-15	2.44874e-14
4.15791e-16	-1.83704e-15	-0.0222753	0.244032	3.46034e-15	1.4468e-14
-0.0138889	-0.0625685	-1.02061e-16	-1.71152e-15	-8.6713e-16	-0.125137
1.14424e-16	-0.0211699	-3.17345e-16	-2.78458e-15	-3.13024e-15	1.57253e-15
2.22172e-16	2.10696e-15	-0.0219184	0.120229	-1.85331e-14	7.96573e-15
-0.0138889	1.19308e-16	-5.66445e-17	2.50451e-17	5.88372e-16	-2.33087e-15
1.56484e-16	-0.0224854	-1.37503e-16	-9.98314e-15	-6.95916e-16	2.65444e-14
-1.5625e-17	3.21675e-16	-0.0217995	6.27319e-16	-4.09308e-15	2.77788e-15
-0.0138889	0.0625685	2.79345e-16	1.12375e-15	-5.53279e-17	0.125137
1.78134e-16	-0.0211699	-5.1896e-16	-8.96595e-15	-3.39966e-15	-7.32617e-14
-2.70129e-16	-1.21061e-15	-0.0219184	-0.120229	-1.33285e-14	2.20706e-15
-0.0138889	0.125137	3.54876e-16	1.75603e-15	1.46078e-15	0.250274
7.73036e-17	-0.0172539	-3.65454e-16	-3.51585e-15	3.18325e-15	-2.1207e-15
-4.09565e-16	-4.61253e-16	-0.0222753	-0.244032	3.5919e-14	-1.03016e-14
-0.0138889	-0.125137	0.0206729	-3.98986e-16	-0.0413457	-0.250274
4.8518e-17	-0.0173166	-8.98616e-07	0.00732556	1.6057e-16	-4.28329e-14
4.76405e-16	-0.00102684	-0.0217582	0.240633	4.11845e-15	1.13377e-14
-0.0138889	-0.0625685	0.0206719	-1.3572e-15	-0.0413438	-0.125137
4.4642e-17	-0.0212785	-9.11759e-07	0.0126856	-1.01335e-15	-1.19102e-14
2.73598e-16	-0.000480626	-0.0214019	0.118268	-8.67058e-15	1.64123e-15
-0.0138889	-5.08671e-16	0.0206715	2.63461e-16	-0.0413431	-1.14822e-15
4.1098e-18	-0.0226108	4.05111e-16	0.0146466	4.13112e-16	4.08657e-14
-2.08438e-17	-5.14386e-16	-0.0212833	-6.71923e-15	-1.92901e-14	-1.11579e-14
-0.0138889	0.0625685	0.0206719	2.29851e-15	-0.0413438	0.125137
1.11835e-16	-0.0212785	9.11759e-07	0.0126856	1.16405e-15	-2.10222e-14
-2.31565e-16	0.000480626	-0.0214019	-0.118268	1.84531e-16	4.56964e-16
-0.0138889	0.125137	0.0206729	5.40063e-15	-0.0413457	0.250274
-2.10877e-17	-0.0173166	8.98616e-07	0.00732556	-5.63677e-16	-6.0103e-14
-4.83608e-16	0.00102684	-0.0217582	-0.240633	-2.80353e-15	-1.00729e-14
-0.0138889	-0.125136	0.0413457	-2.92214e-15	-0.0826914	-0.250273
1.72551e-16	-0.0175234	-3.34836e-06	0.0168149	-2.70617e-16	-1.01158e-13
3.95253e-16	-0.0019287	-0.0202063	0.229435	3.3736e-15	-8.98684e-15
-0.0138889	-0.0625686	0.0413432	-1.41206e-15	-0.0826865	-0.125137
2.55452e-16	-0.0216362	-3.39184e-06	0.0291039	-3.01181e-15	3.05277e-14
2.1001e-16	-0.000889435	-0.0198529	0.111817	-2.83476e-15	1.31189e-14
-0.0138889	-1.15135e-17	0.0413424	6.10081e-16	-0.0826847	-3.43632e-15
1.56007e-16	-0.0230236	-2.35903e-17	0.033594	-1.65177e-15	5.19693e-14
-7.93568e-17	-3.07173e-15	-0.0197359	-1.78731e-15	-9.3018e-15	1.10003e-14
-0.0138889	0.0625686	0.0413432	4.55452e-15	-0.0826865	0.125137
2.61239e-16	-0.0216362	3.39184e-06	0.0291039	-8.47304e-16	5.35336e-15
-1.92161e-16	0.000889435	-0.0198529	-0.111817	3.64422e-15	-3.76262e-15
-0.0138889	0.125136	0.0413457	7.17048e-15	-0.0826914	0.250273
2.18684e-16	-0.0175234	3.34836e-06	0.0168149	3.16153e-15	-9.8469e-14
-3.79362e-16	0.0019287	-0.0202063	-0.229435	-2.13631e-14	-3.08228e-15
-0.0138889	-0.125135	0.0620179	-8.01009e-15	-0.124036	-0.25027
1.58239e-16	-0.0179371	-1.13573e-05	0.0313212	5.82e-16	4.17895e-15
2.53763e-16	-0.002544	-0.0176172	0.207151	1.77818e-14	6.16364e-15
-0.0138889	-0.0625699	0.062013	-1.21084e-15	-0.124026	-0.12514
1.48793e-16	-0.0223484	-1.14798e-05	0.0540834	-1.62695e-15	2.16402e-14
1.51745e-16	-0.0011354	-0.0172739	0.0990509	-6.60171e-15	1.01873e-14
-0.0138889	4.28754e-16	0.0620116	3.50653e-15	-0.124023	-2.29433e-15
1.33428e-16	-0.0238436	9.83481e-17	0.0623596	-6.79489e-16	-4.57109e-14
-1.19174e-16	1.22873e-15	-0.017162	-8.34239e-15	-1.38344e-15	-4.42704e-15
-0.0138889	0.0625699	0.062013	2.61249e-15	-0.124026	0.12514
1.63904e-16	-0.0223484	1.14798e-05	0.0540834	3.00129e-15	-4.57659e-14
-2.23515e-16	0.0011354	-0.0172739	-0.0990509	1.46313e-14	-7.45714e-15
-0.0138889	0.125135	0.0620179	4.74794e-15	-0.124036	0.25027
1.49457e-16	-0.0179371	1.13573e-05	0.0313212	3.09735e-15	1.57461e-14
-4.54816e-16	0.002544	-0.0176172	-0.207151	-4.36999e-15	-6.83655e-15
-0.0138889	-0.125137	0.0826869	-7.95891e-15	-0.165374	-0.250273
5.94143e-17	-0.018694	-3.75408e-05	0.0555659	-3.62817e-15	-1.00458e-13
3.8275e-16	-0.00262353	-0.0139827	0.167134	1.09652e-14	-4.20107e-15
-0.0138889	-0.062575	0.0826798	9.67976e-16	-0.16536	-0.12515
1.87892e-16	-0.0236256	-3.78296e-05	0.0950012	-2.11615e-15	-6.25164e-14
1.30809e-16	-0.00109857	-0.013673	0.0768696	-1.76109e-14	6.33651e-15
-0.0138889	-6.84514e-16	0.0826778	1.0829e-15	-0.165356	-7.44386e-15
2.19653e-16	-0.025296	1.62995e-17	0.108906	5.77622e-16	9.58435e-17
1.27489e-16	-7.17559e-16	-0.0135776	-4.90629e-15	2.56999e-15	-5.99184e-15
-0.0138889	0.062575	0.0826798	5.58754e-15	-0.16536	0.12515
2.54408e-16	-0.0236256	3.78296e-05	0.0950012	-4.85506e-16	-4.03657e-14
-2.7532e-16	0.00109857	-0.013673	-0.0768696	-2.1194e-15	6.19849e-15
-0.0138889	0.125137	0.0826869	3.75134e-15	-0.165374	0.250273
1.86103e-16	-0.018694	3.75408e-05	0.0555659	8.19657e-16	-1.79433e-13
-2.44e-16	0.00262353	-0.0139827	-0.167134	8.71221e-15	-1.24182e-14
-0.0138889	-0.125158	0.103348	-5.76969e-15	-0.206696	-0.250317
4.15412e-16	-0.0201453	-0.000128805	0.100587	-4.45781e-15	-3.88127e-14
2.55113e-16	-0.00180151	-0.00928682	0.0987737	-1.21768e-14	-5.72936e-15
-0.0138889	-0.0625903	0.103341	-1.45413e-15	-0.206681	-0.125181
5.57578e-16	-0.025832	-0.000115762	0.163535	2.23302e-15	2.52003e-14
-7.23163e-17	-0.000689002	-0.00908019	0.0428472	-1.94914e-14	3.3723e-15
-0.0138889	-4.73293e-16	0.10334	1.49099e-15	-0.206679	-5.09453e-15
5.688e-16	-0.0277003	6.54222e-16	0.183652	3.6955e-16	5.4466e-15
1.50921e-16	-1.47952e-15	-0.00902299	-1.31731e-15	-3.93088e-15	-4.05088e-15
-0.0138889	0.0625903	0.103341	2.85449e-15	-0.206681	0.125181
3.80338e-16	-0.025832	0.000115762	0.163535	-9.91394e-16	1.11764e-14
5.70832e-17	0.000689002	-0.00908019	-0.0428472	4.67942e-15	-3.07783e-15
-0.0138889	0.125158	0.103348	6.48093e-15	-0.206696	0.250317
4.26146e-16	-0.0201453	0.000128805	0.100587	3.20317e-15	8.17662e-15
-1.07173e-16	0.00180151	-0.00928682	-0.0987737	1.03043e-15	1.45543e-14
0.00347222	-2.69099e-15	1.37694e-15	7.10543e-15	0.0882944	0.173473
-2.46331e-16	-0.00569651	0.00634335	-0.0235908	1.91513e-15	-1.22402e-14
1.66533e-16	0.00948993	-0.00493949	-0.0235908	-2.78944e-15	1.04361e-14
0.00347222	-1.26808e-15	-1.21387e-15	1.31006e-14	-0.0882944	0.173473
6.93889e-18	-0.00569651	-0.00634335	0.0235908	-2.83107e-15	4.16334e-16
-3.29597e-16	-0.00948993	-0.00493949	-0.0235908	-6.70297e-15	1.44329e-15
0.00347222	2.22543e-15	1.30755e-15	-1.62093e-14	0.0882944	-0.173473
-5.30825e-16	-0.00569651	-0.00634335	-0.0235908	-2.80331e-15	-6.71685e-15
-2.23779e-16	-0.00948993	-0.00493949	0.0235908	-6.3699e-15	-2.77556e-16
0.00347222	1.73906e-15	-1.0842e-15	-2.16493e-15	-0.0882944	-0.173473
2.54137e-16	-0.00569651	0.00634335	0.0235908	-2.498e-16	-5.82867e-15
-3.81639e-17	0.00948993	-0.00493949	0.0235908	-3.16414e-15	1.03251e-14
0.00694444	-3.46945e-17	-1.5361e-15	7.88258e-15	-0.103367	0.346934
-3.22659e-16	-0.01199	-0.0111409	0.0288783	-7.77156e-15	4.66294e-15
-1.00614e-16	-0.00153261	0.00477227	-0.0760598	-2.91434e-15	-3.60822e-15
0.00694444	-1.07379e-15	-9.57567e-16	1.43219e-14	-0.0827009	0.346969
-3.29597e-16	-0.0124372	-0.00888616	0.0150178	-4.63518e-15	7.77156e-16
-2.27764e-16	-0.00202106	0.00715886	-0.119956	-3.77823e-15	-6.11143e-15
0.00694444	-1.00614e-15	-8.0231e-16	1.63758e-14	-0.062024	0.346987
-2.55004e-16	-0.0126431	-0.00665918	0.00841761	-5.05151e-15	3.10862e-15
-2.04968e-16	-0.00185569	0.00898393	-0.143391	-1.53003e-15	-5.73673e-15
0.00694444	-1.58727e-15	-2.35922e-16	1.14908e-14	-0.0413482	0.346993
-2.56739e-16	-0.0127546	-0.00443805	0.00450808	-3.78864e-15	-9.32587e-15
-1.13109e-16	-0.0013726	0.0102809	-0.156317	-4.31252e-15	-4.52069e-15
0.00694444	-1.51094e-15	-1.71738e-16	1.12688e-14	-0.0206737	0.346994
-4.00721e-16	-0.0128101	-0.00221877	0.00196324	-3.32373e-15	-7.66054e-15
-1.30104e-16	-0.000722452	0.0110576	-0.162788	-3.11209e-15	-3.37837e-15
0.00694444	-1.46671e-15	2.50654e-16	1.29432e-14	-2.94283e-15	0.346994
-2.32453e-16	-0.0128269	-3.93247e-16	-1.12072e-14	-3.27881e-15	-9.76996e-15
-1.4086e-16	-4.80041e-16	0.0113163	-0.164752	-5.06539e-16	-3.11485e-15
0.00694444	-5.51642e-16	6.245e-16	1.32394e-14	0.0206737	0.346994
-3.62557e-16	-0.0128101	0.00221877	-0.00196324	-1.70003e-15	-1.92624e-14
-1.87811e-16	0.000722452	0.0110576	-0.162788	-1.18308e-15	-4.7037e-15
0.00694444	-1.2039e-15	7.30319e-16	1.54876e-14	0.0413482	0.346993
-3.69496e-16	-0.0127546	0.00443805	-0.00450808	-7.21645e-16	-1.42109e-14
-1.67591e-16	0.0013726	0.0102809	-0.156317	-1.68962e-15	-2.09902e-15
0.00694444	-5.79398e-16	6.7741e-16	1.61537e-14	0.062024	0.346987
-3.747e-16	-0.0126431	0.00665918	-0.00841761	-1.11022e-16	-1.9984e-14
-3.29597e-17	0.00185569	0.00898393	-0.143391	-2.14065e-15	-3.59261e-15
0.00694444	-1.44502e-15	1.40599e-15	1.18794e-14	0.0827009	0.346969
-3.1572e-16	-0.0124372	0.00888616	-0.0150178	3.88578e-16	-2.05391e-14
5.31259e-18	0.00202106	0.00715886	-0.119956	-2.56739e-15	-4.40099e-15
0.00694444	-9.47159e-16	1.64885e-15	1.4988e-14	0.103367	0.346934
-3.86843e-16	-0.01199	0.0111409	-0.0288783	-3.33067e-16	-2.25375e-14
3.1225e-17	0.00153261	0.00477227	-0.0760598	-2.23432e-15	-3.94129e-15
0.00694444	-6.33174e-16	1.41553e-15	-1.5335e-15	0.176585	0.125216
2.60209e-17	0.0108817	0.0001342	-0.0751532	1.47105e-15	-4.4964e-15
-5.55112e-17	0.0139922	-0.00997512	-0.0279717	-6.27276e-15	1.58484e-14
0.00694444	2.71484e-16	1.04083e-15	-2.94209e-15	0.176597	0.0626263
-6.8508e-17	0.0139786	0.000107436	-0.11449	1.26364e-15	-3.52496e-15
-2.63678e-16	0.00691068	-0.01004	-0.0113649	-3.30291e-15	1.31839e-14
0.00694444	8.98948e-16	8.25728e-16	-6.40113e-15	0.176602	-2.71809e-15
-8.78678e-17	0.0149541	9.282e-18	-0.125855	5.93221e-16	-1.22125e-15
-2.84495e-16	-1.96612e-16	-0.0100556	-2.33754e-15	-5.21805e-15	1.07622e-14
0.00694444	1.1241e-15	1.52309e-15	-1.25872e-14	0.176597	-0.0626263
-5.07949e-17	0.0139786	-0.000107436	-0.11449	1.64885e-15	3.30291e-15
-4.61436e-16	-0.00691068	-0.01004	0.0113649	-7.77156e-15	5.68989e-15
0.00694444	1.40513e-15	1.10328e-15	-1.43774e-14	0.176585	-0.125216
-8.64109e-17	0.0108817	-0.0001342	-0.0751532	4.67942e-16	-7.28584e-15
-4.83988e-16	-0.0139922	-0.00997512	0.0279717	-7.16094e-15	-3.05311e-15
0.00694444	3.67761e-16	-2.40259e-16	-1.66533e-15	-0.103367	-0.346934
2.77556e-16	-0.01199	0.0111409	0.0288783	7.21645e-16	-1.70974e-14
1.0842e-18	0.00153261	0.00477227	0.0760598	-9.95731e-16	5.29091e-16
0.00694444	8.4828e-16	-2.25514e-16	3.55271e-15	-0.0827009	-0.346969
1.68268e-16	-0.0124372	0.00888616	0.0150178	3.60822e-16	-8.43769e-15
1.40513e-16	0.00202106	0.00715886	0.119956	-3.38271e-15	-2.44769e-15
0.00694444	9.52363e-16	-3.41741e-16	-8.54872e-15	-0.062024	-0.346987
7.11237e-17	-0.0126431	0.00665918	0.00841761	3.88578e-16	-3.4972e-15
8.78204e-18	0.00185569	0.00898393	0.143391	-3.50067e-15	1.83881e-16
0.00694444	1.07032e-15	-1.46584e-16	-8.38218e-15	-0.0413482	-0.346993
-8.67362e-18	-0.0127546	0.00443805	0.00450808	-1.42941e-15	-1.09357e-14
8.41612e-17	0.0013726	0.0102809	0.156317	-2.85882e-15	1.56125e-16
0.00694444	8.19657e-16	-1.12757e-16	-8.85403e-15	-0.0206737	-0.346994
-8.32667e-17	-0.0128101	0.00221877	0.00196324	-1.58901e-15	-1.14353e-14
1.40933e-16	0.000722452	0.0110576	0.162788	-1.14145e-15	-1.03129e-15
0.00694444	9.08128e-16	-1.9166e-16	-1.30143e-14	3.23402e-15	-0.346994
-2.94903e-16	-0.0128269	-3.14351e-16	-9.00105e-15	-1.40062e-15	-1.24345e-14
1.12138e-16	5.38489e-16	0.0113163	0.164752	-4.96478e-15	-7.78784e-16
0.00694444	7.91034e-16	-1.82146e-17	-1.40721e-14	0.0206737	-0.346994
-3.52149e-16	-0.0128101	-0.00221877	-0.00196324	-1.65146e-15	-1.12688e-14
1.48102e-16	-0.000722452	0.0110576	0.162788	-8.43076e-16	-1.22992e-15
0.00694444	7.73687e-16	-1.0842e-16	-1.71529e-14	0.0413482	-0.346993
-4.21538e-16	-0.0127546	-0.00443805	-0.00450808	-3.15026e-15	-1.55431e-15
1.23192e-16	-0.0013726	0.0102809	0.156317	-4.03844e-15	-2.70964e-15
0.00694444	1.1241e-15	4.77049e-17	-1.2601e-14	0.062024	-0.346987
-5.23886e-16	-0.0126431	-0.00665918	-0.00841761	-3.83027e-15	-3.66374e-15
2.0898e-16	-0.00185569	0.00898393	0.143391	-3.85109e-15	9.6971e-16
0.00694444	1.36523e-15	1.67401e-16	-2.22045e-14	0.0827009	-0.346969
-6.48787e-16	-0.0124372	-0.00888616	-0.0150178	-4.41314e-15	-1.55431e-15
1.78568e-16	-0.00202106	0.00715886	0.119956	-3.47986e-15	-2.39739e-15
0.00694444	1.45023e-15	2.98372e-16	-1.74305e-14	0.103367	-0.346934
-7.18176e-16	-0.01199	-0.0111409	-0.0288783	-4.08007e-15	-6.10623e-15
3.63967e-16	-0.00153261	0.00477227	0.0760598	-3.02189e-15	-9.20618e-15
0.00694444	-1.53523e-15	-7.63278e-16	1.42664e-14	-0.176585	0.125216
2.01228e-16	0.0108817	-0.0001342	0.0751532	6.66134e-16	8.16014e-15
-4.97866e-16	-0.0139922	-0.00997512	-0.0279717	-1.01308e-14	-2.33147e-15
0.00694444	-9.67976e-16	-9.36751e-16	1.12133e-14	-0.176597	0.0626263
2.8444e-16	0.0139786	-0.000107436	0.11449	4.47017e-16	1.38778e-15
-3.1225e-16	-0.00691068	-0.01004	-0.0113649	-6.38378e-15	3.41394e-15
0.00694444	-6.48836e-16	-8.60423e-16	7.14706e-15	-0.176602	2.15431e-15
2.67398e-16	0.0149541	2.61969e-16	0.125855	1.46525e-15	1.04361e-14
-3.57353e-16	-2.28128e-16	-0.0100556	-2.30024e-15	-5.57887e-15	8.21782e-15
0.00694444	-4.25007e-17	-1.31145e-15	-2.498e-16	-0.176597	-0.0626263
2.23806e-16	0.0139786	0.000107436	0.11449	8.66061e-16	1.59595e-15
-3.24393e-16	0.00691068	-0.01004	0.0113649	-5.21805e-15	1.78191e-14
0.00694444	5.67255e-16	-1.49186e-15	-5.68989e-15	-0.176585	-0.125216
1.75424e-16	0.0108817	0.0001342	0.0751532	2.10422e-15	-3.60822e-16
-2.18575e-16	0.0139922	-0.00997512	0.0279717	-4.32987e-15	2.0095e-14
0.0138889	-9.4369e-16	-7.13188e-16	5.55112e-15	-0.206696	0.250317
1.45717e-16	0.0201453	-0.000128805	0.100587	1.94289e-15	1.05853e-14
8.32667e-17	-0.00180151	0.00928682	-0.0987737	-6.18949e-15	-2.77556e-17
0.0138889	-1.02782e-15	-8.6476e-16	1.2032e-14	-0.206681	0.125181
3.31664e-16	0.025832	-0.000115762	0.163535	8.79071e-16	2.52576e-14
-2.97071e-17	-0.000689002	0.00908019	-0.0428472	-5.07233e-15	-2.33667e-15
0.0138889	-9.01097e-16	-7.63278e-16	6.52603e-15	-0.206679	1.86678e-15
3.54534e-16	0.0277003	2.16742e-16	0.183652	9.77625e-16	1.08802e-14
2.04697e-16	3.76277e-17	0.00902299	-3.34585e-16	-4.76702e-15	-1.79181e-15
0.0138889	-4.94396e-16	-9.30679e-16	2.10942e-15	-0.206681	-0.125181
3.02547e-16	0.025832	0.000115762	0.163535	1.59464e-15	1.2601e-14
1.05493e-16	0.000689002	0.00908019	0.0428472	-4.56579e-15	-1.01134e-15
0.0138889	-2.09902e-16	-7.32053e-16	1.19349e-15	-0.206696	-0.250317
2.70129e-16	0.0201453	0.000128805	0.100587	1.32186e-15	8.74301e-15
1.23491e-16	0.00180151	0.00928682	0.0987737	-2.91434e-15	-3.05311e-15
0.0138889	-8.01442e-16	-5.46438e-16	6.35603e-15	-0.165374	0.250273
2.51074e-16	0.018694	-3.75408e-05	0.0555659	1.09851e-15	2.16493e-15
-6.40763e-17	-0.00262353	0.0139827	-0.167134	-1.33921e-15	-4.29171e-15
0.0138889	-8.05779e-16	-8.20524e-16	7.46625e-15	-0.16536	0.12515
2.42509e-16	0.0236256	-3.78296e-05	0.0950012	1.11803e-15	8.29892e-15
-4.67291e-17	-0.00109857	0.013673	-0.0768696	-9.85323e-16	-5.96918e-15
0.0138889	-5.72183e-16	-4.19803e-16	4.01437e-15	-0.165356	1.33899e-15
2.44914e-16	0.025296	2.31416e-16	0.108906	1.23529e-15	-7.74381e-15
9.75782e-18	-5.65636e-17	0.0135776	-1.85811e-15	-7.42462e-16	-2.64269e-15
0.0138889	-2.09902e-16	-5.96745e-16	-1.66533e-16	-0.16536	-0.12515
1.94018e-16	0.0236256	3.78296e-05	0.0950012	1.26678e-15	6.38378e-15
1.48861e-16	0.00109857	0.013673	0.0768696	-2.60902e-15	-1.5387e-15
0.0138889	2.01228e-16	-7.56339e-16	-4.88498e-15	-0.165374	-0.250273
1.44578e-16	0.018694	3.75408e-05	0.0555659	3.06786e-15	-1.47105e-15
-1.23599e-17	0.00262353	0.0139827	0.167134	-1.1588e-15	2.36963e-15
0.0138889	-7.2338e-16	-5.86337e-16	6.99441e-15	-0.124036	0.25027
1.90332e-16	0.0179371	-1.13573e-05	0.0313212	1.53653e-15	0
-1.21539e-16	-0.002544	0.0176172	-0.207151	-6.05072e-15	-3.73659e-15
0.0138889	-7.01696e-16	-8.00575e-16	6.99441e-15	-0.124026	0.12514
1.31134e-16	0.0223484	-1.14798e-05	0.0540834	2.15865e-15	1.49047e-14
-1.36067e-16	-0.0011354	0.0172739	-0.0990509	-7.11931e-15	-5.35075e-15
0.0138889	-3.70899e-17	-4.50161e-16	2.50396e-15	-0.124023	-3.63208e-16
1.60028e-16	0.0238436	2.2096e-16	0.0623596	1.42944e-15	-1.97065e-15
2.92735e-18	-4.5547e-16	0.017162	-1.19587e-15	-4.52416e-15	-1.11207e-15
0.0138889	-9.19403e-17	-6.27103e-16	-3.05311e-16	-0.124026	-0.12514
2.00957e-16	0.0223484	1.14798e-05	0.0540834	1.7434e-15	5.41234e-15
-4.03323e-17	0.0011354	0.0172739	0.0990509	-1.46411e-15	-1.29584e-15
0.0138889	4.30211e-16	-4.4062e-16	-3.9968e-15	-0.124036	-0.25027
9.05309e-17	0.0179371	1.13573e-05	0.0313212	1.55995e-15	-7.77156e-16
1.01481e-16	0.002544	0.0176172	0.207151	-3.18495e-15	-1.85962e-15
0.0138889	-8.39606e-16	-2.80158e-16	8.84015e-15	-0.0826914	0.250273
1.72984e-16	0.0175234	-3.34836e-06	0.0168149	6.91287e-16	5.77316e-15
-1.90169e-16	-0.0019287	0.0202063	-0.229435	-1.8735e-16	-2.73392e-15
0.0138889	-4.33681e-16	-2.68882e-16	5.84949e-15	-0.0826865	0.125137
1.54607e-16	0.0216362	-3.39184e-06	0.0291039	6.30355e-16	5.10703e-15
-1.40458e-16	-0.000889435	0.0198529	-0.111817	1.86656e-15	-4.28043e-15
0.0138889	-1.97816e-16	-2.63678e-16	2.56105e-15	-0.0826847	5.04805e-16
1.59872e-16	0.0230236	2.11382e-16	0.033594	1.40621e-15	2.98372e-15
-5.0578e-17	2.95509e-17	0.0197359	-1.80238e-15	-7.49401e-16	-1.60058e-15
0.0138889	6.59195e-17	-2.77556e-16	-5.13478e-16	-0.0826865	-0.125137
1.56776e-16	0.0216362	3.39184e-06	0.0291039	1.2477e-15	4.3715e-15
1.17961e-16	0.000889435	0.0198529	0.111817	-3.44169e-15	-1.93769e-15
0.0138889	3.98986e-16	-3.34802e-16	-5.07927e-15	-0.0826914	-0.250273
2.13371e-16	0.0175234	3.34836e-06	0.0168149	1.6224e-15	1.45717e-14
1.19533e-16	0.0019287	0.0202063	0.229435	1.59595e-16	3.38271e-16
0.0138889	-7.2338e-16	-7.84962e-17	9.08995e-15	-0.0413457	0.250274
9.75782e-18	0.0173166	-8.98616e-07	0.00732556	1.24293e-15	6.70297e-15
-1.51463e-16	-0.00102684	0.0217582	-0.240633	-4.61436e-15	-2.6602e-15
0.0138889	-2.15973e-16	-1.53089e-16	4.84682e-15	-0.0413438	0.125137
7.61381e-17	0.0212785	-9.11759e-07	0.0126856	1.1395e-15	1.19349e-14
-9.29703e-17	-0.000480626	0.0214019	-0.118268	-6.39072e-15	-3.38965e-15
0.0138889	-2.14335e-17	1.38778e-17	1.73483e-15	-0.0413431	-1.23979e-16
1.28671e-16	0.0226108	2.607e-16	0.0146466	1.45054e-15	5.45397e-15
2.73761e-17	-1.72583e-18	0.0212833	-1.25269e-15	-1.18655e-15	-2.52042e-15
0.0138889	-5.20417e-18	-1.72605e-16	-3.49373e-15	-0.0413438	-0.125137
9.32956e-17	0.0212785	9.11759e-07	0.0126856	1.36707e-15	-4.55191e-15
1.33221e-16	0.000480626	0.0214019	0.118268	-4.72539e-15	-1.81062e-15
0.0138889	6.80012e-16	-2.96204e-16	-6.46705e-15	-0.0413457	-0.250274
9.49761e-17	0.0173166	8.98616e-07	0.00732556	2.30371e-15	7.42462e-15
1.56477e-16	0.00102684	0.0217582	0.240633	-2.08861e-15	-2.34448e-15
0.0138889	-4.28477e-16	2.89983e-16	8.28542e-15	-1.72593e-15	0.250274
1.02403e-16	0.0172539	2.17647e-16	2.67126e-15	1.31074e-15	-7.59115e-15
-2.0894e-16	-4.2934e-16	0.0222753	-0.244032	3.19189e-16	-4.48069e-15
0.0138889	-1.37911e-16	8.80971e-17	4.47965e-15	-5.6968e-16	0.125137
7.48371e-17	0.0211699	1.11652e-16	3.13204e-15	5.74843e-16	1.1352e-14
-7.8905e-17	-2.74476e-16	0.0219184	-0.120229	-7.28584e-16	-5.33446e-15
0.0138889	1.03099e-17	7.13629e-17	6.79415e-16	1.22423e-17	4.52383e-16
7.44076e-17	0.0224854	1.4508e-16	2.5559e-15	7.69617e-16	-4.46865e-15
-1.80262e-17	9.12792e-17	0.0217995	-1.57209e-15	-2.5327e-15	-2.12645e-15
0.0138889	2.39392e-16	3.33435e-17	-3.24979e-15	8.26324e-16	-0.125137
3.18213e-17	0.0211699	7.04494e-17	1.58098e-15	6.98798e-16	-3.20577e-15
6.53e-17	-9.75549e-17	0.0219184	0.120229	-2.63678e-15	1.03616e-16
0.0138889	6.95624e-16	-4.70561e-17	-6.89184e-15	1.55703e-15	-0.250274
8.70614e-17	0.0172539	1.60579e-16	2.34892e-15	1.21113e-15	4.57967e-16
1.5927e-16	2.33027e-16	0.0222753	0.244032	1.45023e-15	-5.17263e-16
0.0138889	-5.3603e-16	4.15033e-16	7.26502e-15	0.0413457	0.250274
8.45136e-17	0.0173166	8.98616e-07	-0.00732556	2.12981e-15	5.80092e-15
-1.48753e-16	0.00102684	0.0217582	-0.240633	-4.10783e-15	-4.13471e-15
0.0138889	-2.28983e-16	2.64979e-16	3.58741e-15	0.0413438	0.125137
9.10188e-17	0.0212785	9.11759e-07	-0.0126856	1.02457e-15	4.89886e-15
-1.38507e-17	0.000480626	0.0214019	-0.118268	-4.4062e-15	-3.05528e-15
0.0138889	2.34469e-16	2.07299e-16	-3.33202e-16	0.0413431	-6.9313e-16
9.26205e-17	0.0226108	1.99861e-16	-0.0146466	1.56189e-15	6.06459e-15
-1.19804e-17	2.03517e-16	0.0212833	-1.19045e-15	-1.44329e-15	-2.34793e-15
0.0138889	1.5439e-16	1.04517e-16	-5.17988e-15	0.0413438	-0.125137
4.29073e-17	0.0212785	-9.11759e-07	-0.0126856	1.27318e-15	4.44089e-16
1.47804e-16	-0.000480626	0.0214019	0.118268	-3.95517e-15	-1.69873e-15
0.0138889	1.19176e-15	-2.08167e-17	-9.86711e-15	0.0413457	-0.250274
7.48642e-17	0.0173166	-8.98616e-07	-0.00732556	1.27329e-15	6.70297e-15
2.39473e-16	-0.00102684	0.0217582	0.240633	-5.91888e-15	-2.85709e-15
0.0138889	-2.93168e-16	5.42968e-16	6.52256e-15	0.0826914	0.250273
9.12898e-17	0.0175234	3.34836e-06	-0.0168149	1.50834e-15	-2.83107e-15
-1.99547e-16	0.0019287	0.0202063	-0.229435	-4.9058e-15	-4.34548e-15
0.0138889	-1.32706e-16	4.58834e-16	2.53964e-15	0.0826865	0.125137
5.95498e-17	0.0216362	3.39184e-06	-0.0291039	4.6187e-16	1.55986e-14
-1.36989e-16	0.000889435	0.0198529	-0.111817	-4.51722e-15	-4.02196e-15
0.0138889	2.66979e-16	2.56739e-16	-1.02528e-15	0.0826847	-5.30717e-16
4.05729e-17	0.0230236	9.06071e-17	-0.033594	1.64456e-15	7.21645e-16
-7.4051e-17	-2.90416e-16	0.0197359	-1.14925e-15	-2.56739e-15	-1.46335e-15
0.0138889	4.68375e-16	2.37657e-16	-4.35763e-15	0.0826865	-0.125137
3.41253e-17	0.0216362	-3.39184e-06	-0.0291039	1.49295e-15	-1.19349e-15
6.16911e-17	-0.000889435	0.0198529	0.111817	-2.158e-15	-1.30885e-15
0.0138889	6.85216e-16	7.89299e-17	-7.81319e-15	0.0826914	-0.250273
5.29633e-17	0.0175234	-3.34836e-06	-0.0168149	1.22732e-15	5.13478e-15
8.45136e-17	-0.0019287	0.0202063	0.229435	-2.73392e-15	-7.07767e-16
0.0138889	-5.72459e-17	9.45424e-16	4.96825e-15	0.124036	0.25027
9.47593e-17	0.0179371	1.13573e-05	-0.0313212	1.15316e-15	-3.02536e-15
-1.26093e-16	0.002544	0.0176172	-0.207151	1.4988e-15	-2.85535e-15
0.0138889	3.20924e-16	6.80879e-16	9.29812e-16	0.124026	0.12514
4.58075e-17	0.0223484	1.14798e-05	-0.0540834	1.97693e-15	7.38298e-15
-1.20997e-16	0.0011354	0.0172739	-0.0990509	-1.88044e-15	-1.64278e-15
0.0138889	4.09428e-16	5.75928e-16	-2.27875e-15	0.124023	-6.83915e-16
7.46067e-18	0.0238436	1.00298e-16	-0.0623596	2.21774e-15	-7.17482e-15
-1.79652e-16	-9.68794e-17	0.017162	-9.40003e-16	-7.35523e-16	-2.72929e-15
0.0138889	5.64652e-16	3.52149e-16	-9.0622e-15	0.124026	-0.12514
-9.89334e-18	0.0223484	-1.14798e-05	-0.0540834	1.48969e-15	-2.2482e-15
1.73364e-16	-0.0011354	0.0172739	0.0990509	-2.00534e-15	-3.88058e-15
0.0138889	9.19403e-16	3.17454e-16	-1.41553e-14	0.124036	-0.25027
5.31801e-17	0.0179371	-1.13573e-05	-0.0313212	1.49056e-15	9.24261e-15
1.01698e-16	-0.002544	0.0176172	0.207151	-6.42542e-15	1.1588e-15
0.0138889	-2.34188e-16	1.09981e-15	1.4988e-15	0.165374	0.250273
3.38542e-17	0.018694	3.75408e-05	-0.0555659	9.61037e-16	-1.52656e-15
-1.53957e-17	0.00262353	0.0139827	-0.167134	-2.10248e-15	-3.26822e-15
0.0138889	4.89192e-16	6.22766e-16	1.4988e-15	0.16536	0.12515
-1.68322e-17	0.0236256	3.78296e-05	-0.0950012	1.64473e-15	-9.27036e-15
-2.40693e-17	0.00109857	0.013673	-0.0768696	-1.11716e-15	-1.28196e-15
0.0138889	5.09452e-16	5.96745e-16	-2.8007e-15	0.165356	4.37367e-16
1.05777e-17	0.025296	1.66846e-16	-0.108906	1.8625e-15	-2.77556e-15
1.43006e-16	4.75097e-17	0.0135776	-7.34439e-16	-2.30371e-15	-3.60134e-15
0.0138889	5.51642e-16	6.00214e-16	-7.02216e-15	0.16536	-0.12515
-2.26869e-17	0.0236256	-3.78296e-05	-0.0950012	1.2954e-15	-1.38778e-16
-7.14489e-17	-0.00109857	0.013673	0.0768696	-4.30905e-15	-1.13624e-15
0.0138889	1.02349e-15	4.59702e-16	-1.89848e-14	0.165374	-0.250273
-5.51317e-17	0.018694	-3.75408e-05	-0.0555659	4.59702e-16	6.66134e-16
2.14455e-16	-0.00262353	0.0139827	0.167134	-4.57273e-15	-4.68722e-15
0.0138889	3.10516e-16	1.06881e-15	4.44089e-15	0.206696	0.250317
6.59195e-17	0.0201453	0.000128805	-0.100587	2.02616e-15	-4.18589e-15
1.00614e-16	0.00180151	0.00928682	-0.0987737	-1.94289e-16	2.05391e-15
0.0138889	5.13478e-16	9.4369e-16	-8.60423e-16	0.206681	0.125181
-4.64174e-17	0.025832	0.000115762	-0.163535	1.47213e-15	-7.21645e-16
-8.95551e-17	0.000689002	0.00908019	-0.0428472	-2.55351e-15	-3.02015e-15
0.0138889	5.90705e-16	9.45424e-16	-4.62136e-15	0.206679	-1.16985e-15
-5.24076e-17	0.0277003	2.09742e-16	-0.183652	1.69114e-15	-3.747e-15
2.62702e-16	2.90817e-16	0.00902299	-2.00512e-15	-2.22045e-16	-2.43841e-15
0.0138889	7.71085e-16	8.00575e-16	-1.24761e-14	0.206681	-0.125181
-5.01715e-17	0.025832	-0.000115762	-0.163535	1.30711e-15	-1.02696e-15
-4.33681e-18	-0.000689002	0.00908019	0.0428472	-3.51802e-15	-2.95597e-15
0.0138889	1.42768e-15	6.43582e-16	-1.13243e-14	0.206696	-0.250317
4.01155e-17	0.0201453	-0.000128805	-0.100587	1.98105e-15	2.83107e-15
1.0842e-16	-0.00180151	0.00928682	0.0987737	-1.19349e-15	-8.32667e-17
