{
    "meshType"      : "MED",
    "meshFile"      : "./Box3_03x08x16_hex08.med",
    "matrixFormat"  : "NPZ",
    "KMatrix"       : "./Stiff.npz",
    "MMatrix"       : "./Mass.npz",
    "lowerMatrix"   : false,
    "DOFfile"       : "NA",
    "R1name"        : "R1",
    "R2name"        : "R2",
    "p1"            : [0.0, 0.0, 0.0],
    "p2"            : [0.5, 0.0, 0.0],
    "writeInertia"  : "./mass_03x08x16_hex08.txt",
    "inertiaThresh" : 1e-10,
    "writeElastic"  : "./stiff_03x08x16_hex08.txt",
    "elasticThresh" : 1e-10
}
