3.981807728082645416e+09 3.915341681860946138e-02 0.000000000000000000e+00 0.000000000000000000e+00 0.000000000000000000e+00 -3.012915144514405341e-03
3.894556871896445033e-02 3.981807728167297840e+09 0.000000000000000000e+00 0.000000000000000000e+00 0.000000000000000000e+00 -3.336430618655942485e-03
0.000000000000000000e+00 0.000000000000000000e+00 1.249999999996148682e+10 -1.314959130523468781e-05 9.368299414470803508e-07 0.000000000000000000e+00
0.000000000000000000e+00 0.000000000000000000e+00 -1.566735399492681741e-05 6.510416666652609408e+07 5.173537922379533675e-07 0.000000000000000000e+00
0.000000000000000000e+00 0.000000000000000000e+00 7.866106544843572793e-07 4.491566767894331641e-07 6.510416666652733088e+07 0.000000000000000000e+00
-3.012201522776386357e-03 -3.339210106421468868e-03 0.000000000000000000e+00 0.000000000000000000e+00 0.000000000000000000e+00 4.224068976671051979e+07
