3.086439975974763632e+08 1.792020805235589867e-03 6.866634554368534064e-09 1.986017905375923881e-21 5.489653316277945211e-21 -2.869764155634817768e-04
1.789991142224760506e-03 1.562483454455685914e+08 3.871144490258000956e-20 1.193520738874249995e-21 5.107263486285205777e-22 -1.176438724879798521e-04
6.866634554368240415e-09 3.892758650451128323e-20 6.249999999990307093e+08 -1.251914254534251332e-07 -3.060328859931899427e-07 -6.260996707956254942e-21
1.999122706647382081e-21 1.197786044672355453e-21 -7.452858806234828824e-08 3.255208333332152572e+06 1.421955385623647380e-08 -2.453604201578249590e-11
5.428612502218069729e-21 4.586656058323744984e-22 -1.460227405509181101e-07 1.066163509426330651e-08 3.255208333316150587e+06 2.239127551062974017e-23
-2.871924704098693937e-04 -1.176508421334852605e-04 -6.260800837989231520e-21 -2.453604201578185935e-11 1.695953364107180960e-23 2.205709953857795801e+06
