{
    "meshType"      : "MED",
    "meshFile"      : "./cyl_C3D20_z05_r04_c06.med",
    "matrixFormat"  : "NPZ",
    "KMatrix"       : "./Stiff.npz",
    "MMatrix"       : "./Mass.npz",
    "lowerMatrix"   : false,
    "DOFfile"       : "NA",
    "R1name"        : "R1",
    "R2name"        : "R2",
    "p1"            : [0.0, 0.0, 0.0],
    "p2"            : [0.0, 0.0, 0.5],
    "writeInertia"  : "./cyl_C3D20_z05_r04_c06_inertia.txt",
    "inertiaThresh" : 1e-10,
    "writeElastic"  : "./cyl_C3D20_z05_r04_c06_elastic.txt",
    "elasticThresh" : 1e-10
}
