# Fnode
-0.00347222	-0.0732512	0.0372515	2.47337e-14	-0.074503	-0.146502
8.33751e-17	0.00133359	-0.00250875	0.0235908	5.95715e-16	4.2993e-14
-2.44366e-16	-0.00476115	0.0013818	0.0235908	-7.53548e-15	-4.17531e-14
-0.00347222	-0.0732512	-0.0372515	1.09895e-14	0.074503	-0.146502
6.71433e-16	0.00133359	0.00250875	-0.0235908	4.99514e-15	-1.07301e-14
6.27225e-16	0.00476115	0.0013818	0.0235908	1.43093e-14	2.70257e-14
-0.00347222	0.0732512	0.0372515	-1.05315e-14	-0.074503	0.146502
4.21484e-17	0.00133359	0.00250875	0.0235908	1.21928e-14	4.06337e-15
-2.06175e-16	0.00476115	0.0013818	-0.0235908	8.76806e-15	2.05268e-14
-0.00347222	0.0732512	-0.0372515	-1.24605e-14	0.074503	0.146502
-9.45966e-17	0.00133359	-0.00250875	-0.0235908	6.87806e-15	1.26938e-15
-1.45622e-16	-0.00476115	0.0013818	-0.0235908	-1.92089e-14	-4.42606e-14
-0.00694444	-0.146495	-0.0554454	1.13104e-15	0.110891	-0.29299
3.01517e-16	0.00341849	0.00437007	-0.0288783	9.14118e-15	6.93334e-14
-9.35124e-19	0.0019289	-0.003856	0.0760598	-7.26746e-15	8.1249e-15
-0.00694444	-0.146517	-0.0443601	7.13318e-15	0.0887202	-0.293034
2.58609e-16	0.00398138	0.00346758	-0.0150178	9.89334e-15	-3.82324e-14
9.02471e-17	0.00254366	-0.00641629	0.119956	8.63751e-15	1.02286e-14
-0.00694444	-0.146528	-0.0332692	2.55698e-15	0.0665384	-0.293057
-1.31731e-17	0.00424053	0.00259484	-0.00841761	7.63896e-15	4.50005e-14
-3.7632e-17	0.00233552	-0.00837421	0.143391	-2.24495e-15	2.42218e-15
-0.00694444	-0.146532	-0.0221789	1.57166e-15	0.0443577	-0.293064
-9.91503e-17	0.00438085	0.00172839	-0.00450808	9.75511e-15	1.28179e-14
5.42804e-17	0.00172752	-0.00976562	0.156317	-4.05708e-15	4.5022e-15
-0.00694444	-0.146533	-0.0110892	1.72258e-15	0.0221785	-0.293065
3.34693e-16	0.00445067	0.000863922	-0.00196324	1.21107e-14	3.48853e-15
-1.23709e-17	0.00090926	-0.0105988	0.162788	1.64582e-16	-8.50245e-16
-0.00694444	-0.146533	-5.6036e-16	4.61024e-15	2.30615e-15	-0.293065
1.72957e-16	0.00447183	-1.45957e-16	1.88246e-14	9.42842e-15	5.91714e-15
-1.3584e-17	9.10878e-18	-0.0108764	0.164752	2.50451e-16	1.31722e-15
-0.00694444	-0.146533	0.0110892	2.72959e-15	-0.0221785	-0.293065
1.82146e-17	0.00445067	-0.000863922	0.00196324	8.65199e-15	2.65525e-14
1.52072e-17	-0.00090926	-0.0105988	0.162788	4.68516e-15	1.4528e-15
-0.00694444	-0.146532	0.0221789	6.69603e-16	-0.0443577	-0.293064
3.50848e-16	0.00438085	-0.00172839	0.00450808	9.74264e-15	6.79031e-14
-3.13665e-17	-0.00172752	-0.00976562	0.156317	-3.004e-15	4.3932e-15
-0.00694444	-0.146528	0.0332692	-6.36297e-15	-0.0665384	-0.293057
1.51111e-16	0.00424053	-0.00259484	0.00841761	9.9494e-15	1.09013e-13
1.81468e-17	-0.00233552	-0.00837421	0.143391	1.03813e-14	1.31236e-15
-0.00694444	-0.146517	0.0443601	-4.89192e-16	-0.0887202	-0.293034
-1.33709e-16	0.00398138	-0.00346758	0.0150178	9.11218e-15	2.46443e-14
-2.60704e-17	-0.00254366	-0.00641629	0.119956	-6.67717e-15	4.94656e-15
-0.00694444	-0.146495	0.0554454	-2.35922e-15	-0.110891	-0.29299
1.02674e-16	0.00341849	-0.00437007	0.0288783	8.62814e-15	2.67304e-14
-4.50554e-17	-0.0019289	-0.003856	0.0760598	7.8667e-15	-1.42731e-14
-0.00694444	-0.0787966	0.074501	5.40843e-15	-0.149002	-0.157593
1.12459e-16	-0.00920632	-0.000143967	0.0751532	-6.61767e-15	3.26168e-14
-2.4709e-16	-0.00683626	0.00286674	0.0279717	-4.084e-15	-5.32859e-14
-0.00694444	-0.0394099	0.0745075	4.9136e-15	-0.149015	-0.0788198
1.40762e-16	-0.013104	-0.000115256	0.11449	-2.90907e-15	-5.82793e-14
-2.54245e-17	-0.00331063	0.0029363	0.0113649	3.45538e-15	-3.65936e-14
-0.00694444	1.38709e-15	0.07451	-1.65341e-15	-0.14902	4.91561e-15
4.03781e-17	-0.0143318	7.12319e-16	0.125855	-6.37375e-16	-4.73576e-14
3.19948e-16	-4.04395e-15	0.00295307	-7.41139e-15	1.31103e-14	-1.9333e-14
-0.00694444	0.0394099	0.0745075	-7.10673e-15	-0.149015	0.0788198
1.16408e-16	-0.013104	0.000115256	0.11449	-3.11718e-15	-3.6238e-14
-1.72795e-16	0.00331063	0.0029363	-0.0113649	5.51338e-15	-9.71098e-15
-0.00694444	0.0787966	0.074501	-1.78197e-14	-0.149002	0.157593
1.03164e-16	-0.00920632	0.000143967	0.0751532	4.16414e-15	-6.56598e-14
-1.84694e-16	0.00683626	0.00286674	-0.0279717	1.45212e-14	1.42681e-14
-0.00694444	0.146495	-0.0554454	-8.59035e-15	0.110891	0.29299
2.86988e-16	0.00341849	-0.00437007	-0.0288783	5.88429e-15	4.65322e-14
-4.24478e-17	-0.0019289	-0.003856	-0.0760598	-7.25483e-15	-2.25173e-15
-0.00694444	0.146517	-0.0443601	1.23859e-15	0.0887202	0.293034
9.5464e-17	0.00398138	-0.00346758	-0.0150178	3.63831e-15	8.52625e-14
-4.55229e-17	-0.00254366	-0.00641629	-0.119956	-4.68636e-15	-1.96319e-15
-0.00694444	0.146528	-0.0332692	6.62664e-16	0.0665384	0.293057
-6.92263e-17	0.00424053	-0.00259484	-0.00841761	7.64297e-15	4.23368e-14
1.65324e-17	-0.00233552	-0.00837421	-0.143391	1.15644e-14	-7.2977e-15
-0.00694444	0.146532	-0.0221789	-9.36751e-17	0.0443577	0.293064
-1.91741e-16	0.00438085	-0.00172839	-0.00450808	7.92422e-15	4.70188e-14
-1.12046e-17	-0.00172752	-0.00976562	-0.156317	-1.27579e-14	4.76888e-15
-0.00694444	0.146533	-0.0110892	-5.51989e-15	0.0221785	0.293065
-1.51165e-16	0.00445067	-0.000863922	-0.00196324	1.11639e-14	1.95755e-14
-9.64771e-19	-0.00090926	-0.0105988	-0.162788	7.71876e-15	-5.85314e-15
-0.00694444	0.146533	6.44999e-16	-1.75814e-15	-2.97299e-15	0.293065
-3.46565e-16	0.00447183	-6.09007e-16	1.50008e-14	9.23e-15	2.84278e-14
-5.72945e-17	-8.60271e-16	-0.0108764	-0.164752	1.63246e-14	3.46817e-15
-0.00694444	0.146533	0.0110892	-2.63331e-15	-0.0221785	0.293065
-2.48065e-16	0.00445067	0.000863922	0.00196324	9.14042e-15	1.49195e-14
-4.35333e-18	0.00090926	-0.0105988	-0.162788	-5.10735e-15	5.11086e-16
-0.00694444	0.146532	0.0221789	-5.00815e-15	-0.0443577	0.293064
7.33463e-17	0.00438085	0.00172839	0.00450808	9.90928e-15	3.62921e-14
-7.06722e-17	0.00172752	-0.00976562	-0.156317	4.17515e-15	9.49372e-15
-0.00694444	0.146528	0.0332692	-9.12465e-16	-0.0665384	0.293057
8.9013e-17	0.00424053	0.00259484	0.00841761	8.4159e-15	4.71411e-14
-6.80303e-17	0.00233552	-0.00837421	-0.143391	-2.20321e-15	3.47458e-15
-0.00694444	0.146517	0.0443601	-1.5786e-15	-0.0887202	0.293034
1.33384e-16	0.00398138	0.00346758	0.0150178	1.26279e-14	9.67238e-14
-6.26483e-17	0.00254366	-0.00641629	-0.119956	9.48232e-15	-4.26118e-15
-0.00694444	0.146495	0.0554454	4.30211e-15	-0.110891	0.29299
4.94667e-17	0.00341849	0.00437007	0.0288783	1.37821e-14	6.74634e-15
-2.12654e-17	0.0019289	-0.003856	-0.0760598	-9.97889e-15	-3.34802e-16
-0.00694444	-0.0787966	-0.074501	-1.09938e-15	0.149002	-0.157593
-4.52045e-17	-0.00920632	0.000143967	-0.0751532	-4.04909e-15	-8.08761e-15
4.91144e-16	0.00683626	0.00286674	0.0279717	-5.79747e-15	2.92622e-14
-0.00694444	-0.0394099	-0.0745075	2.65846e-15	0.149015	-0.0788198
2.53398e-17	-0.013104	0.000115256	-0.11449	-1.93372e-15	6.05418e-15
3.2873e-16	0.00331063	0.0029363	0.0113649	3.60738e-15	-3.36536e-16
-0.00694444	-6.91346e-16	-0.07451	7.18718e-16	0.14902	3.32834e-15
9.93654e-18	-0.0143318	4.45616e-16	-0.125855	-1.72182e-15	-4.95857e-14
5.00251e-16	-3.94989e-15	0.00295307	5.11982e-15	2.31865e-15	-1.239e-14
-0.00694444	0.0394099	-0.0745075	-3.38791e-15	0.149015	0.0788198
-1.85856e-17	-0.013104	-0.000115256	-0.11449	-1.91276e-15	-7.27631e-14
3.05257e-16	-0.00331063	0.0029363	-0.0113649	2.05917e-16	-3.26653e-14
-0.00694444	0.0787966	-0.074501	-1.47571e-15	0.149002	0.157593
-8.58807e-17	-0.00920632	-0.000143967	-0.0751532	-4.28421e-15	9.55936e-15
-1.06767e-16	-0.00683626	0.00286674	-0.0279717	1.08556e-15	-5.48147e-14
-0.0138889	-0.157521	-0.11087	-7.60329e-15	0.221741	-0.315043
1.31742e-16	-0.0163761	0.00013818	-0.100587	-5.34452e-15	-2.30235e-14
-1.08624e-16	0.00226734	-0.00743552	0.0987737	7.69827e-15	1.35086e-14
-0.0138889	-0.0787746	-0.110862	-3.84675e-15	0.221724	-0.157549
1.03165e-16	-0.0235332	0.000124188	-0.163535	-7.43416e-15	-8.78397e-14
1.72641e-16	0.00086716	-0.00721385	0.0428472	3.03123e-14	3.0265e-15
-0.0138889	4.01735e-16	-0.110861	-1.41822e-15	0.221722	7.49403e-15
7.53402e-17	-0.0258847	4.07401e-16	-0.183652	-6.84869e-15	-1.04287e-14
7.20469e-17	-1.67941e-15	-0.00715249	7.86114e-15	-1.6894e-15	-2.8131e-15
-0.0138889	0.0787746	-0.110862	6.83134e-15	0.221724	0.157549
1.37158e-16	-0.0235332	-0.000124188	-0.163535	-7.21251e-15	7.32676e-14
5.07068e-17	-0.00086716	-0.00721385	-0.0428472	-5.91552e-15	1.55394e-14
-0.0138889	0.157521	-0.11087	1.13243e-14	0.221741	0.315043
-4.76702e-17	-0.0163761	-0.00013818	-0.100587	-2.4841e-15	-1.58678e-14
8.28995e-17	-0.00226734	-0.00743552	-0.0987737	2.28352e-14	1.16216e-15
-0.0138889	-0.157494	-0.0887052	-9.0275e-15	0.17741	-0.314987
8.47372e-18	-0.0145495	4.02732e-05	-0.0555659	-6.00529e-15	-1.17438e-13
7.11914e-17	0.00330191	-0.0124731	0.167134	-1.28272e-15	9.69965e-15
-0.0138889	-0.0787553	-0.0886976	-6.87818e-16	0.177395	-0.157511
8.09357e-17	-0.0207563	4.0583e-05	-0.0950012	-3.19514e-15	-1.79284e-14
4.27582e-18	0.00138264	-0.012141	0.0768696	-4.32402e-15	4.81983e-15
-0.0138889	-2.56643e-16	-0.0886955	1.7936e-15	0.177391	5.9935e-15
4.27989e-17	-0.0228586	4.23544e-16	-0.108906	-5.05416e-15	-6.82366e-14
-1.10921e-16	-1.66291e-15	-0.0120386	-4.94949e-15	-1.6471e-14	-5.48679e-15
-0.0138889	0.0787553	-0.0886976	5.42188e-15	0.177395	0.157511
2.8999e-17	-0.0207563	-4.0583e-05	-0.0950012	-4.94415e-15	-6.79834e-14
-4.12336e-17	-0.00138264	-0.012141	-0.0768696	1.4432e-14	5.55686e-15
-0.0138889	0.157494	-0.0887052	8.97199e-15	0.17741	0.314987
-2.68924e-17	-0.0145495	-4.02732e-05	-0.0555659	-6.85037e-15	-7.41323e-14
7.49997e-17	-0.00330191	-0.0124731	-0.167134	-1.11828e-14	4.39106e-15
-0.0138889	-0.157492	-0.0665318	-5.64826e-15	0.133064	-0.314984
-6.91772e-17	-0.0135969	1.21839e-05	-0.0313212	-3.83649e-15	-6.53783e-14
5.82759e-18	0.00320181	-0.0163722	0.207151	-1.79117e-14	2.01983e-14
-0.0138889	-0.0787489	-0.0665266	-2.86229e-17	0.133053	-0.157498
1.32307e-17	-0.0191488	1.23154e-05	-0.0540834	-4.20581e-15	2.73106e-14
6.22942e-17	0.00142899	-0.0160039	0.0990509	-6.06936e-15	1.83642e-15
-0.0138889	5.01344e-16	-0.0665251	2.95139e-15	0.13305	-1.84165e-15
-8.65312e-17	-0.0210306	6.30657e-16	-0.0623596	-1.5538e-15	2.85603e-14
-3.65647e-17	-2.99859e-16	-0.0158839	4.45835e-15	2.79334e-15	2.94067e-15
-0.0138889	0.0787489	-0.0665266	4.92922e-15	0.133053	0.157498
-6.65463e-17	-0.0191488	-1.23154e-05	-0.0540834	-2.17751e-15	-8.45678e-18
1.76081e-17	-0.00142899	-0.0160039	-0.0990509	6.58306e-15	2.12389e-15
-0.0138889	0.157492	-0.0665318	6.07674e-15	0.133064	0.314984
-3.90558e-17	-0.0135969	-1.21839e-05	-0.0313212	-9.12112e-16	-2.27748e-14
-8.98261e-17	-0.00320181	-0.0163722	-0.207151	-6.90919e-15	-1.03801e-14
-0.0138889	-0.157493	-0.044355	-5.04978e-15	0.08871	-0.314987
1.64833e-18	-0.0130763	3.59207e-06	-0.0168149	-2.24202e-15	-1.98406e-14
-1.68238e-17	0.00242741	-0.0191497	0.229435	2.07538e-15	9.42286e-15
-0.0138889	-0.0787473	-0.0443524	-1.84141e-15	0.0887048	-0.157495
9.71953e-17	-0.0182525	3.63871e-06	-0.0291039	-3.6356e-16	-7.39166e-15
3.4625e-17	0.00111942	-0.0187707	0.111817	5.7209e-15	3.13181e-15
-0.0138889	-3.15624e-16	-0.0443514	1.44898e-15	0.0887029	-1.38409e-15
5.75449e-17	-0.0199986	2.25465e-16	-0.033594	-2.53085e-15	8.01382e-14
1.22328e-17	-1.62774e-16	-0.0186451	-2.25552e-15	-1.1875e-14	7.40827e-15
-0.0138889	0.0787473	-0.0443524	2.39565e-15	0.0887048	0.157495
-4.76913e-17	-0.0182525	-3.63871e-06	-0.0291039	-2.34433e-15	4.91339e-15
-3.782e-17	-0.00111942	-0.0187707	-0.111817	4.07573e-15	-2.54716e-15
-0.0138889	0.157493	-0.044355	2.63504e-15	0.08871	0.314987
-3.8806e-17	-0.0130763	-3.59207e-06	-0.0168149	-1.50298e-15	1.4303e-14
3.84062e-17	-0.00242741	-0.0191497	-0.229435	-1.16222e-14	-1.20894e-14
-0.0138889	-0.157494	-0.0221775	-6.17475e-15	0.0443551	-0.314988
4.70078e-17	-0.012816	9.64022e-07	-0.00732556	-2.00906e-15	2.59718e-14
-6.05036e-17	0.00129235	-0.0208146	0.240633	2.95575e-15	3.1263e-15
-0.0138889	-0.0787471	-0.0221765	-2.13718e-15	0.044353	-0.157494
5.12929e-17	-0.0178023	9.7812e-07	-0.0126856	1.47133e-16	6.42611e-14
-1.49637e-17	0.000604903	-0.0204324	0.118268	4.6213e-15	2.76119e-16
-0.0138889	1.20697e-16	-0.0221761	5.5831e-16	0.0443522	8.19819e-16
5.45396e-17	-0.019479	1.22918e-16	-0.0146466	-3.70626e-15	3.33277e-14
1.49188e-17	-1.55299e-15	-0.0203052	-1.5065e-16	2.07846e-14	2.28216e-15
-0.0138889	0.0787471	-0.0221765	2.86186e-15	0.044353	0.157494
7.43864e-17	-0.0178023	-9.7812e-07	-0.0126856	-9.20691e-17	6.85142e-14
-2.01492e-17	-0.000604903	-0.0204324	-0.118268	6.39376e-15	-4.022e-15
-0.0138889	0.157494	-0.0221775	5.85296e-15	0.0443551	0.314988
-4.59481e-17	-0.012816	-9.64022e-07	-0.00732556	-4.65868e-15	5.89878e-14
-4.74034e-17	-0.00129235	-0.0208146	-0.240633	5.14367e-15	4.27014e-15
-0.0138889	-0.157494	-1.09938e-15	-4.77461e-15	-4.5174e-16	-0.314989
-6.94033e-17	-0.0127371	2.60685e-16	-1.68577e-14	1.01939e-17	-7.13548e-14
-2.48852e-17	4.72991e-16	-0.0213694	0.244032	-1.52912e-14	1.00551e-14
-0.0138889	-0.0787471	-3.85336e-16	-2.8508e-15	-8.0855e-16	-0.157494
2.13283e-17	-0.0176656	2.88591e-16	2.03193e-16	-2.00652e-15	-4.59919e-16
-1.57723e-17	2.25065e-15	-0.0209864	0.120229	-1.06636e-14	9.07615e-15
-0.0138889	7.85652e-16	-3.032e-16	5.1131e-16	-1.17426e-16	3.09784e-16
-5.2433e-17	-0.0193213	-9.76117e-17	-4.97887e-15	-2.99578e-15	-1.75101e-14
-4.44728e-18	3.12267e-16	-0.0208589	-1.30744e-15	-6.07934e-15	6.7499e-15
-0.0138889	0.0787471	4.11899e-17	3.03318e-15	8.20079e-16	0.157494
-1.82146e-17	-0.0176656	6.45348e-17	-5.45974e-15	-2.35149e-15	-8.31655e-14
-4.37217e-17	-8.98935e-16	-0.0209864	-0.120229	-8.68684e-15	6.35981e-16
-0.0138889	0.157494	5.90006e-16	6.53091e-15	1.48431e-15	0.314989
5.04688e-17	-0.0127371	1.54678e-16	-8.33417e-15	-2.3397e-15	-1.1803e-14
5.35633e-18	-1.23617e-15	-0.0213694	-0.244032	-1.47551e-14	-4.98002e-15
-0.0138889	-0.157494	0.0221775	-4.81776e-15	-0.0443551	-0.314988
-1.01464e-16	-0.012816	-9.64022e-07	0.00732556	-3.6653e-15	5.53944e-14
-1.46215e-17	-0.00129235	-0.0208146	0.240633	-2.80396e-15	8.15754e-15
-0.0138889	-0.0787471	0.0221765	-3.00151e-15	-0.044353	-0.157494
-1.20258e-16	-0.0178023	-9.7812e-07	0.0126856	-2.53353e-15	-7.49882e-14
1.92615e-17	-0.000604903	-0.0204324	0.118268	-3.33392e-15	2.84166e-15
-0.0138889	-2.06197e-16	0.0221761	2.21719e-17	-0.0443522	-2.57677e-15
-1.61671e-16	-0.019479	4.61267e-16	0.0146466	-1.24742e-15	1.88445e-14
-2.56431e-17	-3.22044e-16	-0.0203052	-2.94036e-16	3.92394e-15	9.84988e-15
-0.0138889	0.0787471	0.0221765	2.80592e-15	-0.044353	0.157494
-1.40272e-16	-0.0178023	9.7812e-07	0.0126856	-2.15897e-15	9.09038e-15
-4.36688e-17	0.000604903	-0.0204324	-0.118268	-5.69466e-15	-1.32571e-16
-0.0138889	0.157494	0.0221775	4.29691e-15	-0.0443551	0.314988
-8.79483e-17	-0.012816	9.64022e-07	0.00732556	-1.98298e-15	6.04074e-15
-7.91383e-18	0.00129235	-0.0208146	-0.240633	-2.9898e-15	5.9708e-15
-0.0138889	-0.157493	0.044355	-3.37664e-15	-0.08871	-0.314987
-5.25033e-17	-0.0130763	-3.59207e-06	0.0168149	-6.2284e-15	-7.82198e-15
-2.02847e-17	-0.00242741	-0.0191497	0.229435	-5.53919e-15	6.39408e-16
-0.0138889	-0.0787473	0.0443524	-2.42037e-15	-0.0887048	-0.157495
3.53755e-17	-0.0182525	-3.63871e-06	0.0291039	-7.71545e-16	5.62404e-14
-4.17181e-17	-0.00111942	-0.0187707	0.111817	9.25041e-16	5.26171e-15
-0.0138889	3.63748e-16	0.0443514	-4.51245e-16	-0.0887029	-4.54793e-15
-2.90388e-17	-0.0199986	4.07664e-16	0.033594	-4.7802e-15	2.27613e-14
-5.06339e-17	4.35707e-16	-0.0186451	2.88067e-15	-2.3319e-15	2.24604e-15
-0.0138889	0.0787473	0.0443524	4.01068e-15	-0.0887048	0.157495
5.23195e-17	-0.0182525	3.63871e-06	0.0291039	-2.12369e-15	-1.5925e-14
-6.18385e-17	0.00111942	-0.0187707	-0.111817	-1.46736e-15	1.16461e-15
-0.0138889	0.157493	0.044355	5.32387e-15	-0.08871	0.314987
-3.49189e-17	-0.0130763	3.59207e-06	0.0168149	-4.4609e-15	5.97494e-14
-3.82859e-19	0.00242741	-0.0191497	-0.229435	-6.03684e-15	5.1873e-15
-0.0138889	-0.157492	0.0665318	-7.51829e-15	-0.133064	-0.314984
-2.26049e-16	-0.0135969	-1.21839e-05	0.0313212	-5.01941e-15	-1.46158e-14
-3.44742e-17	-0.00320181	-0.0163722	0.207151	5.91194e-15	-1.9155e-15
-0.0138889	-0.0787489	0.0665266	-3.36016e-15	-0.133053	-0.157498
-6.52825e-17	-0.0191488	-1.23154e-05	0.0540834	-1.8062e-15	-1.88814e-14
2.05151e-17	-0.00142899	-0.0160039	0.0990509	-7.99317e-15	2.40865e-15
-0.0138889	8.25918e-16	0.0665251	-8.83625e-17	-0.13305	-1.29619e-15
-6.01707e-17	-0.0210306	-4.11505e-16	0.0623596	-6.49749e-16	3.86431e-15
-4.77523e-17	1.44032e-16	-0.0158839	-2.55107e-15	-1.99797e-15	-8.21331e-15
-0.0138889	0.0787489	0.0665266	3.20056e-15	-0.133053	0.157498
-5.48708e-17	-0.0191488	1.23154e-05	0.0540834	-2.38419e-15	-4.63859e-14
4.34291e-17	0.00142899	-0.0160039	-0.0990509	-8.60119e-15	2.20147e-15
-0.0138889	0.157492	0.0665318	4.37844e-15	-0.133064	0.314984
-4.99258e-17	-0.0135969	1.21839e-05	0.0313212	-3.14869e-15	-7.33031e-14
-1.24277e-17	0.00320181	-0.0163722	-0.207151	-4.36348e-15	5.39553e-16
-0.0138889	-0.157494	0.0887052	-5.69857e-15	-0.17741	-0.314987
-1.48282e-16	-0.0145495	-4.02732e-05	0.0555659	-3.27242e-15	5.37714e-14
-1.92615e-17	-0.00330191	-0.0124731	0.167134	-1.89952e-15	3.83764e-15
-0.0138889	-0.0787553	0.0886976	-2.13631e-15	-0.177395	-0.157511
-1.00367e-16	-0.0207563	-4.0583e-05	0.0950012	-1.11602e-15	2.773e-14
-8.9711e-17	-0.00138264	-0.012141	0.0768696	4.5916e-16	-3.2985e-15
-0.0138889	4.50937e-16	0.0886955	-1.13364e-15	-0.177391	-4.85899e-15
-1.27307e-16	-0.0228586	5.33345e-16	0.108906	-8.86647e-16	7.40293e-15
8.58282e-17	1.01371e-15	-0.0120386	5.41147e-15	-5.81891e-16	2.20406e-15
-0.0138889	0.0787553	0.0886976	1.44589e-15	-0.177395	0.157511
-1.20502e-16	-0.0207563	4.0583e-05	0.0950012	-4.15695e-15	-2.2016e-14
-4.0024e-17	0.00138264	-0.012141	-0.0768696	-4.47342e-16	2.78078e-15
-0.0138889	0.157494	0.0887052	5.37764e-15	-0.17741	0.314987
-1.83224e-16	-0.0145495	4.02732e-05	0.0555659	-4.14556e-15	3.94745e-14
-6.64751e-17	0.00330191	-0.0124731	-0.167134	-1.08242e-14	6.7748e-15
-0.0138889	-0.157521	0.11087	-5.4505e-15	-0.221741	-0.315043
1.05022e-16	-0.0163761	-0.00013818	0.100587	9.19774e-16	-5.63524e-14
-1.29809e-16	-0.00226734	-0.00743552	0.0987737	-1.63295e-14	1.22117e-14
-0.0138889	-0.0787746	0.110862	-4.29344e-15	-0.221724	-0.157549
4.596e-17	-0.0235332	-0.000124188	0.163535	-6.52438e-15	-2.06382e-14
-1.10499e-16	-0.00086716	-0.00721385	0.0428472	-4.12463e-15	-1.46519e-15
-0.0138889	4.85197e-17	0.110861	-1.08897e-15	-0.221722	-7.36488e-15
8.71377e-17	-0.0258847	4.9302e-16	0.183652	-4.33383e-15	-1.7221e-14
-1.29444e-16	-2.90313e-16	-0.00715249	6.7123e-16	1.3893e-15	5.21095e-17
-0.0138889	0.0787746	0.110862	1.13364e-15	-0.221724	0.157549
-3.73338e-17	-0.0235332	0.000124188	0.163535	-4.74539e-15	-9.70274e-15
3.16291e-17	0.00086716	-0.00721385	-0.0428472	-4.51895e-16	3.54114e-15
-0.0138889	0.157521	0.11087	5.46091e-15	-0.221741	0.315043
-4.54891e-17	-0.0163761	0.00013818	0.100587	-4.52863e-15	-7.0363e-14
-5.99032e-17	0.00226734	-0.00743552	-0.0987737	-7.99057e-16	1.96498e-14
0.00347222	1.17419e-14	-6.657e-16	1.83742e-14	0.074503	0.146502
-1.17961e-16	-0.00133359	0.00250875	-0.0235908	2.66454e-15	-5.13478e-15
1.07553e-16	0.00476115	-0.0013818	-0.0235908	-5.13478e-16	-5.71765e-15
0.00347222	6.09517e-15	1.97975e-16	1.93179e-14	-0.074503	0.146502
-7.45931e-17	-0.00133359	-0.00250875	0.0235908	-7.34135e-15	9.02056e-15
-6.76542e-17	-0.00476115	-0.0013818	-0.0235908	-5.10703e-15	1.42664e-14
0.00347222	-6.23525e-15	2.704e-16	-1.82077e-14	0.074503	-0.146502
6.76542e-17	-0.00133359	-0.00250875	-0.0235908	-7.75768e-15	5.25968e-15
-1.99493e-17	-0.00476115	-0.0013818	0.0235908	-4.51028e-15	1.77081e-14
0.00347222	-1.0479e-14	3.82507e-16	-2.13718e-14	-0.074503	-0.146502
-1.92554e-16	-0.00133359	0.00250875	0.0235908	2.20657e-15	2.35922e-15
3.64292e-17	0.00476115	-0.0013818	0.0235908	-1.29063e-15	-1.47105e-15
0.00694444	4.44436e-15	1.2013e-16	2.69784e-14	-0.110891	0.29299
-1.01481e-16	-0.00341849	-0.00437007	0.0288783	-9.57567e-15	1.17684e-14
-8.1532e-17	-0.0019289	0.003856	-0.0760598	1.30451e-15	-8.32667e-16
0.00694444	4.99947e-15	1.73472e-16	2.93654e-14	-0.0887202	0.293034
-1.42247e-16	-0.00398138	-0.00346758	0.0150178	-7.92422e-15	7.54952e-15
1.86483e-17	-0.00254366	0.00641629	-0.119956	8.11851e-16	8.04912e-16
0.00694444	6.26062e-15	2.25514e-16	2.37033e-14	-0.0665384	0.293057
-1.42247e-16	-0.00424053	-0.00259484	0.00841761	-7.27196e-15	5.60663e-15
-8.01225e-17	-0.00233552	0.00837421	-0.143391	4.89192e-16	-1.12063e-15
0.00694444	6.84782e-15	1.36176e-16	2.3842e-14	-0.0443577	0.293064
-1.09288e-16	-0.00438085	-0.00172839	0.00450808	-5.91888e-15	2.05391e-15
-4.11997e-18	-0.00172752	0.00976562	-0.156317	1.42594e-15	-6.5746e-16
0.00694444	7.17829e-15	2.29851e-17	2.3162e-14	-0.0221785	0.293065
-1.89085e-16	-0.00445067	-0.000863922	0.00196324	-5.14866e-15	-2.22045e-16
-3.30682e-17	-0.00090926	0.0105988	-0.162788	1.36002e-15	6.47919e-16
0.00694444	7.89126e-15	4.76304e-17	2.35992e-14	1.50426e-14	0.293065
-1.50921e-16	-0.00447183	-2.03864e-16	-1.1717e-14	-3.95582e-15	4.66294e-15
-2.63137e-17	-3.42496e-16	0.0108764	-0.164752	1.83881e-16	1.82963e-15
0.00694444	9.05265e-15	-9.19403e-17	2.19963e-14	0.0221785	0.293065
-1.8735e-16	-0.00445067	0.000863922	-0.00196324	-2.84495e-15	3.60822e-15
-3.58329e-17	0.00090926	0.0105988	-0.162788	-1.83881e-16	9.83588e-16
0.00694444	9.15847e-15	-2.77556e-16	2.18159e-14	0.0443577	0.293064
-1.2837e-16	-0.00438085	0.00172839	-0.00450808	-1.76248e-15	5.55112e-17
-1.30104e-18	0.00172752	0.00976562	-0.156317	1.30451e-15	1.23339e-15
0.00694444	1.04031e-14	-4.50161e-16	2.12608e-14	0.0665384	0.293057
-1.47451e-16	-0.00424053	0.00259484	-0.00841761	-1.81799e-15	1.22125e-15
6.28837e-18	0.00233552	0.00837421	-0.143391	3.13985e-15	3.81639e-16
0.00694444	9.88272e-15	-2.68015e-16	2.39808e-14	0.0887202	0.293034
-1.9082e-16	-0.00398138	0.00346758	-0.0150178	-6.93889e-17	9.15934e-16
-6.69495e-17	0.00254366	0.00641629	-0.119956	6.59195e-16	8.18789e-16
0.00694444	1.04292e-14	-2.71918e-16	2.13163e-14	0.110891	0.29299
-2.18575e-16	-0.00341849	0.00437007	-0.0288783	1.77636e-15	-7.29972e-15
1.56125e-17	0.0019289	0.003856	-0.0760598	2.69923e-15	1.94289e-15
0.00694444	8.55392e-15	-1.38778e-17	1.44676e-14	0.149002	0.157593
-3.98986e-17	0.00920632	0.000143967	-0.0751532	-7.21645e-16	-1.1352e-14
1.50054e-16	0.00683626	-0.00286674	-0.0279717	-3.71925e-15	-5.60663e-15
0.00694444	5.75148e-15	-2.81025e-16	9.97466e-15	0.149015	0.0788198
2.27479e-17	0.013104	0.000115256	-0.11449	-1.0777e-15	-1.12688e-14
2.04697e-16	0.00331063	-0.0029363	-0.0113649	-4.35763e-15	3.67761e-15
0.00694444	2.68969e-15	-6.55725e-16	2.60035e-15	0.14902	2.79566e-14
-2.90024e-18	0.0143318	5.56185e-17	-0.125855	-6.68899e-16	-1.88738e-14
1.35308e-16	1.71833e-15	-0.00295307	6.14201e-16	-3.44169e-15	1.04508e-14
0.00694444	1.78677e-16	-6.59195e-17	-5.00988e-15	0.149015	-0.0788198
3.46403e-17	0.013104	-0.000115256	-0.11449	-1.04083e-15	-1.41692e-14
-1.23165e-16	-0.00331063	-0.0029363	0.0113649	-6.93889e-15	1.75554e-14
0.00694444	-3.51108e-15	-2.39392e-16	-1.13659e-14	0.149002	-0.157593
-1.05168e-17	0.00920632	-0.000143967	-0.0751532	-8.57821e-16	-1.5779e-14
-6.41848e-17	-0.00683626	-0.00286674	0.0279717	-9.54792e-15	2.49245e-14
0.00694444	-9.01709e-15	4.7358e-16	-2.93654e-14	-0.110891	-0.29299
-1.35308e-16	-0.00341849	0.00437007	0.0288783	8.60423e-16	2.498e-15
-7.42678e-17	0.0019289	0.003856	0.0760598	2.71658e-15	4.19109e-15
0.00694444	-8.61811e-15	4.96998e-16	-2.58682e-14	-0.0887202	-0.293034
-1.73472e-16	-0.00398138	0.00346758	0.0150178	5.68989e-16	5.30131e-15
-1.36609e-17	0.00254366	0.00641629	0.119956	1.18655e-15	5.1105e-15
0.00694444	-8.32494e-15	1.68268e-16	-2.59237e-14	-0.0665384	-0.293057
-1.23165e-16	-0.00424053	0.00259484	0.00841761	3.33067e-16	2.77556e-16
-4.83554e-17	0.00233552	0.00837421	0.143391	2.69576e-15	5.94316e-15
0.00694444	-8.45851e-15	3.33934e-16	-2.43139e-14	-0.0443577	-0.293064
-1.43982e-16	-0.00438085	0.00172839	0.00450808	-1.35308e-15	3.60822e-15
2.0112e-17	0.00172752	0.00976562	0.156317	2.60555e-15	5.61703e-15
0.00694444	-8.26422e-15	2.43729e-16	-2.43833e-14	-0.0221785	-0.293065
-1.07553e-16	-0.00445067	0.000863922	0.00196324	-2.85189e-15	3.33067e-15
4.26905e-17	0.00090926	0.0105988	0.162788	3.0774e-15	5.08534e-15
0.00694444	-8.13065e-15	1.1992e-16	-2.31776e-14	-1.53365e-14	-0.293065
-1.21431e-16	-0.00447183	3.12386e-18	-1.13575e-14	-4.15058e-15	4.44089e-15
-8.0692e-17	6.51304e-16	0.0108764	0.164752	1.7937e-15	5.33556e-15
0.00694444	-7.4888e-15	1.67401e-16	-2.32731e-14	0.0221785	-0.293065
-4.85723e-17	-0.00445067	-0.000863922	-0.00196324	-5.39846e-15	2.9976e-15
-1.04354e-17	-0.00090926	0.0105988	0.162788	1.48839e-15	5.38545e-15
0.00694444	-7.82967e-15	-4.51028e-17	-2.1233e-14	0.0443577	-0.293064
-8.84709e-17	-0.00438085	-0.00172839	-0.00450808	-6.45317e-15	2.77556e-16
-4.53739e-17	-0.00172752	0.00976562	0.156317	3.81986e-15	5.76796e-15
0.00694444	-7.75942e-15	-4.2067e-16	-2.06501e-14	0.0665384	-0.293057
-1.9082e-17	-0.00424053	-0.00259484	-0.00841761	-7.81319e-15	3.88578e-15
2.87314e-18	-0.00233552	0.00837421	0.143391	2.21351e-15	5.25621e-15
0.00694444	-6.83655e-15	9.88792e-17	-2.45914e-14	0.0887202	-0.293034
-1.38778e-17	-0.00398138	-0.00346758	-0.0150178	-9.33975e-15	8.49321e-15
7.58942e-18	-0.00254366	0.00641629	0.119956	1.8336e-15	4.5311e-15
0.00694444	-6.14613e-15	-3.51282e-17	-1.90958e-14	0.110891	-0.29299
-6.07153e-17	-0.00341849	-0.00437007	-0.0288783	-1.12688e-14	1.14075e-14
3.50197e-17	-0.0019289	0.003856	0.0760598	5.46438e-16	5.31519e-15
0.00694444	3.46077e-15	3.7817e-16	1.06234e-14	-0.149002	0.157593
-4.42354e-17	0.00920632	-0.000143967	0.0751532	1.38778e-15	-7.21645e-16
5.37764e-17	-0.00683626	-0.00286674	-0.0279717	-8.40994e-15	2.52853e-14
0.00694444	5.28223e-16	2.30718e-16	4.82253e-15	-0.149015	0.0788198
1.35796e-17	0.013104	-0.000115256	0.11449	-2.25948e-16	-9.11771e-15
4.85723e-17	-0.00331063	-0.0029363	-0.0113649	-6.55032e-15	1.42386e-14
0.00694444	-2.59843e-15	3.31332e-16	-1.85615e-15	-0.14902	-2.76192e-14
6.84606e-17	0.0143318	-1.86686e-18	0.125855	9.28077e-17	-1.10606e-14
2.77556e-17	1.50487e-15	-0.00295307	4.51028e-17	-3.85803e-15	9.82916e-15
0.00694444	-5.44877e-15	3.59088e-16	-8.69443e-15	-0.149015	-0.0788198
3.67273e-17	0.013104	0.000115256	0.11449	1.82146e-16	-5.46785e-15
1.89085e-16	0.00331063	-0.0029363	0.0113649	-3.30291e-15	3.26128e-15
0.00694444	-8.59209e-15	3.1225e-17	-1.40998e-14	-0.149002	-0.157593
2.79182e-17	0.00920632	0.000143967	0.0751532	3.01842e-16	-8.97893e-15
8.84709e-17	0.00683626	-0.00286674	0.0279717	-2.38698e-15	-2.9976e-15
0.0138889	1.85442e-15	2.18169e-16	1.68754e-14	-0.221741	0.315043
3.81639e-17	0.0163761	-0.00013818	0.100587	3.747e-16	-8.37178e-15
-1.75207e-16	-0.00226734	0.00743552	-0.0987737	1.02696e-15	-4.44089e-16
0.0138889	-4.62304e-16	1.92988e-16	7.95197e-15	-0.221724	0.157549
7.75747e-17	0.0235332	-0.000124188	0.163535	1.17094e-16	-1.01308e-14
7.35089e-17	-0.00086716	0.00721385	-0.0428472	2.75821e-15	5.48173e-15
0.0138889	-2.65284e-15	9.36751e-17	-3.09475e-15	-0.221722	-2.81624e-14
6.24094e-17	0.0258847	1.37816e-16	0.183652	3.38542e-16	-1.28786e-14
1.08637e-16	-5.97158e-17	0.00715249	9.58652e-16	1.7937e-15	4.0222e-15
0.0138889	-4.66294e-15	9.58435e-17	-9.67282e-15	-0.221724	-0.157549
5.48606e-17	0.0235332	0.000124188	0.163535	6.85216e-16	-8.21565e-15
4.11997e-17	0.00086716	0.00721385	0.0428472	2.49106e-15	4.01588e-15
0.0138889	-7.24421e-15	2.94903e-16	-2.3509e-14	-0.221741	-0.315043
5.13912e-17	0.0163761	0.00013818	0.100587	1.93075e-15	-1.17822e-14
1.27068e-16	0.00226734	0.00743552	0.0987737	3.24046e-15	-3.05311e-16
0.0138889	1.94983e-15	-1.38778e-17	1.49603e-14	-0.17741	0.314987
9.79035e-17	0.0145495	-4.02732e-05	0.0555659	-1.96891e-16	-4.88498e-15
-7.35089e-17	-0.00330191	0.0124731	-0.167134	1.14145e-15	1.25941e-15
0.0138889	3.5822e-16	2.24647e-16	8.07687e-15	-0.177395	0.157511
1.16552e-17	0.0207563	-4.0583e-05	0.0950012	-2.498e-16	-1.48631e-14
-4.09828e-17	-0.00138264	0.012141	-0.0768696	1.60635e-15	1.68789e-15
0.0138889	-1.95221e-15	1.22298e-16	-1.52699e-15	-0.177391	-2.04244e-14
1.94377e-17	0.0228586	-3.94379e-18	0.108906	7.24355e-16	-5.67602e-15
-5.78964e-17	1.12886e-16	0.0120386	-3.25261e-17	2.70617e-15	3.72131e-15
0.0138889	-4.03236e-15	1.09288e-16	-1.19071e-14	-0.177395	-0.157511
2.1413e-17	0.0207563	4.0583e-05	0.0950012	3.21791e-16	-1.51684e-14
-7.69784e-17	0.00138264	0.012141	0.0768696	3.68802e-15	2.49106e-15
0.0138889	-6.01255e-15	-4.51028e-17	-1.98175e-14	-0.17741	-0.314987
5.9089e-17	0.0145495	4.02732e-05	0.0555659	1.89952e-16	-9.10383e-15
9.88792e-17	0.00330191	0.0124731	0.167134	-7.42462e-16	1.96371e-15
0.0138889	3.2023e-15	1.44849e-16	1.54599e-14	-0.133064	0.314984
6.50521e-17	0.0135969	-1.21839e-05	0.0313212	-8.21392e-16	-7.13318e-15
-2.59124e-17	-0.00320181	0.0163722	-0.207151	-1.43635e-15	4.84682e-15
0.0138889	7.6935e-16	-9.54098e-18	9.08995e-15	-0.133053	0.157498
5.9089e-18	0.0191488	-1.23154e-05	0.0540834	-1.72171e-16	-1.25316e-14
1.76725e-17	-0.00142899	0.0160039	-0.0990509	6.55725e-16	3.87017e-15
0.0138889	-1.26395e-15	1.44849e-16	-1.82168e-15	-0.13305	-1.44875e-14
4.12858e-17	0.0210306	1.03284e-16	0.0623596	2.9051e-16	-5.7454e-15
-1.09504e-17	-1.71965e-17	0.0158839	-5.63785e-17	1.66533e-16	4.07656e-15
0.0138889	-3.6221e-15	1.42247e-16	-8.97893e-15	-0.133053	-0.157498
2.50993e-17	0.0191488	1.23154e-05	0.0540834	1.23599e-16	-1.40998e-14
4.79217e-17	0.00142899	0.0160039	0.0990509	8.1532e-16	4.26742e-15
0.0138889	-5.7853e-15	1.84748e-16	-2.11497e-14	-0.133064	-0.314984
-3.46945e-18	0.0135969	1.21839e-05	0.0313212	5.60316e-16	-1.46549e-14
-1.94072e-17	0.00320181	0.0163722	0.207151	2.94903e-16	4.99947e-15
0.0138889	3.53884e-15	2.68882e-17	1.72501e-14	-0.08871	0.314987
8.06646e-17	0.0130763	-3.59207e-06	0.0168149	-5.26489e-16	-6.245e-15
-5.73543e-17	-0.00242741	0.0191497	-0.229435	-2.77556e-17	-7.94503e-16
0.0138889	1.39385e-15	1.83881e-16	8.75688e-15	-0.0887048	0.157495
2.74303e-17	0.0182525	-3.63871e-06	0.0291039	-2.23346e-16	-7.95197e-15
6.17995e-18	-0.00111942	0.0187707	-0.111817	1.0443e-15	3.14679e-15
0.0138889	-8.13352e-16	9.36751e-17	-9.37618e-16	-0.0887029	-9.16758e-15
4.66444e-17	0.0199986	6.87316e-17	0.033594	-3.83272e-16	3.13638e-15
-1.38778e-17	6.28626e-17	0.0186451	-2.40693e-16	1.14145e-15	3.88105e-15
0.0138889	-3.02883e-15	1.36176e-16	-9.54098e-15	-0.0887048	-0.157495
4.94938e-17	0.0182525	3.63871e-06	0.0291039	-1.26635e-16	-1.37251e-14
-7.48099e-18	0.00111942	0.0187707	0.111817	1.01655e-15	3.83374e-15
0.0138889	-5.1608e-15	4.51028e-17	-2.14273e-14	-0.08871	-0.314987
1.86483e-17	0.0130763	3.59207e-06	0.0168149	2.44596e-16	-1.81799e-15
2.38524e-18	0.00242741	0.0191497	0.229435	6.2797e-16	3.52496e-15
0.0138889	4.17028e-15	6.76542e-17	1.77081e-14	-0.0443551	0.314988
7.51352e-17	0.012816	-9.64022e-07	0.00732556	-4.49293e-16	-1.06304e-14
-1.45283e-17	-0.00129235	0.0208146	-0.240633	4.3715e-16	1.85789e-15
0.0138889	2.08514e-15	-4.33681e-18	8.47239e-15	-0.044353	0.157494
-2.30935e-17	0.0178023	-9.7812e-07	0.0126856	-6.5269e-17	-1.27537e-14
-2.00035e-17	-0.000604903	0.0204324	-0.118268	3.03924e-15	2.73913e-15
0.0138889	-3.50145e-16	6.72205e-17	-4.09991e-16	-0.0443522	-4.75667e-15
3.84553e-17	0.019479	7.37054e-17	0.0146466	-2.52795e-16	-7.07767e-15
7.75205e-18	3.10781e-16	0.0203052	-3.70797e-16	1.42247e-15	4.51804e-15
0.0138889	-2.82847e-15	1.21431e-17	-9.36057e-15	-0.044353	-0.157494
2.41235e-17	0.0178023	9.7812e-07	0.0126856	-3.44776e-16	-3.89966e-15
-1.37694e-17	0.000604903	0.0204324	0.118268	2.1233e-15	3.49113e-15
0.0138889	-4.97519e-15	-1.69136e-17	-1.84922e-14	-0.0443551	-0.314988
1.66967e-17	0.012816	9.64022e-07	0.00732556	-8.93383e-17	-1.42802e-14
-2.09793e-17	0.00129235	0.0208146	0.240633	9.64506e-16	5.52509e-15
0.0138889	4.54671e-15	6.49911e-17	1.7355e-14	1.24753e-14	0.314989
5.25838e-17	0.0127371	-7.7639e-18	2.08991e-15	1.83519e-16	-1.19627e-14
-2.89725e-17	-7.81285e-16	0.0213694	-0.244032	-1.33921e-15	8.42242e-16
0.0138889	2.56826e-15	4.28076e-17	8.62506e-15	5.93036e-15	0.157494
2.07083e-17	0.0176656	-2.0942e-17	1.68528e-15	-3.73409e-17	-6.78624e-15
-1.5067e-17	-1.64659e-16	0.0209864	-0.120229	-2.02269e-15	2.28509e-15
0.0138889	3.75143e-17	2.17069e-17	2.81134e-16	-2.43837e-16	-9.69819e-17
1.80825e-17	0.0193213	4.96361e-17	1.17137e-15	-4.01193e-16	-1.01724e-14
-1.16211e-17	1.32459e-16	0.0208589	-1.64799e-17	7.25114e-16	2.86848e-15
0.0138889	-2.31239e-15	4.77693e-17	-8.52183e-15	-6.571e-15	-0.157494
1.53957e-17	0.0176656	3.0788e-17	9.90961e-16	-2.54866e-16	-1.47382e-14
-1.01428e-17	5.54535e-16	0.0209864	0.120229	2.14412e-15	5.04699e-15
0.0138889	-4.68202e-15	3.8252e-18	-1.69404e-14	-1.30876e-14	-0.314989
2.75387e-17	0.0127371	4.75897e-17	1.75923e-15	-2.85703e-16	-8.67362e-15
-8.60967e-18	9.17239e-16	0.0213694	0.244032	2.98372e-15	5.54276e-15
0.0138889	5.21978e-15	-4.29344e-17	1.64591e-14	0.0443551	0.314988
1.07336e-17	0.012816	9.64022e-07	-0.00732556	2.35489e-16	-1.84158e-14
1.26852e-17	0.00129235	0.0208146	-0.240633	-3.60822e-16	1.19696e-15
0.0138889	2.88571e-15	-5.1608e-17	8.86097e-15	0.044353	0.157494
2.6563e-18	0.0178023	9.7812e-07	-0.0126856	-6.34258e-16	-1.20043e-14
-1.33899e-17	0.000604903	0.0204324	-0.118268	1.79023e-15	1.65319e-15
0.0138889	4.17258e-16	-2.94903e-17	6.62231e-16	0.0443522	4.59778e-15
1.40675e-17	0.019479	7.4732e-17	-0.0146466	-3.44478e-16	-8.59035e-15
1.32815e-17	2.09711e-16	0.0203052	-2.52836e-16	1.40513e-15	4.4392e-15
0.0138889	-2.01054e-15	9.1073e-18	-8.16014e-15	0.044353	-0.157494
4.08744e-17	0.0178023	-9.7812e-07	-0.0126856	-6.17345e-16	-1.22263e-14
-2.26056e-17	-0.000604903	0.0204324	0.118268	1.05471e-15	4.75314e-15
0.0138889	-4.23273e-15	6.76542e-17	-1.6237e-14	0.0443551	-0.314988
-1.30104e-17	0.012816	-9.64022e-07	-0.00732556	-3.8641e-16	-1.74583e-14
4.33681e-19	-0.00129235	0.0208146	0.240633	2.49106e-15	5.70377e-15
0.0138889	5.83908e-15	-7.37257e-17	1.79023e-14	0.08871	0.314987
6.71121e-17	0.0130763	3.59207e-06	-0.0168149	1.55258e-16	-1.50019e-14
-5.47522e-17	0.00242741	0.0191497	-0.229435	-4.09395e-16	-5.55112e-16
0.0138889	3.45297e-15	-1.70003e-16	9.01362e-15	0.0887048	0.157495
3.61581e-17	0.0182525	3.63871e-06	-0.0291039	-5.55112e-16	-1.19765e-14
-6.38595e-17	0.00111942	0.0187707	-0.111817	1.08594e-15	2.5431e-15
0.0138889	9.7515e-16	-1.99493e-17	1.36035e-15	0.0887029	9.89806e-15
2.39812e-17	0.0199986	4.24262e-17	-0.033594	-3.65932e-16	-9.13158e-15
-5.34512e-17	2.49854e-16	0.0186451	1.93205e-16	-2.63678e-16	3.79994e-15
0.0138889	-1.44329e-15	-5.72459e-17	-5.46785e-15	0.0887048	-0.157495
4.42897e-17	0.0182525	-3.63871e-06	-0.0291039	-4.08527e-16	-1.41415e-14
-2.15756e-17	-0.00111942	0.0187707	0.111817	-8.67362e-17	4.61263e-15
0.0138889	-4.00548e-15	0	-1.44051e-14	0.08871	-0.314987
-7.69784e-18	0.0130763	-3.59207e-06	-0.0168149	-3.7817e-16	-1.12965e-14
-1.71304e-17	-0.00242741	0.0191497	0.229435	1.13104e-15	5.85296e-15
0.0138889	6.38378e-15	5.46438e-17	1.64313e-14	0.133064	0.314984
-8.79288e-17	0.0135969	1.21839e-05	-0.0313212	-1.28023e-15	-1.40304e-14
-1.13299e-16	0.00320181	0.0163722	-0.207151	3.53884e-16	-7.11237e-16
0.0138889	4.15726e-15	-1.21431e-16	1.00475e-14	0.133053	0.157498
-7.58942e-18	0.0191488	1.23154e-05	-0.0540834	-5.58581e-16	-1.25316e-14
-8.27246e-17	0.00142899	0.0160039	-0.0990509	1.76248e-15	1.47105e-15
0.0138889	1.3881e-15	-7.02563e-17	1.50782e-15	0.13305	1.49246e-14
6.71043e-17	0.0210306	5.90501e-17	-0.0623596	-4.6392e-16	-1.38917e-14
-8.81456e-17	3.24223e-16	0.0158839	-9.75782e-17	2.09555e-15	3.71399e-15
0.0138889	-9.92262e-16	-5.9848e-17	-5.68989e-15	0.133053	-0.157498
4.96565e-17	0.0191488	-1.23154e-05	-0.0540834	-6.52256e-16	-1.113e-14
3.03577e-18	-0.00142899	0.0160039	0.0990509	1.96024e-15	4.74967e-15
0.0138889	-3.577e-15	3.46945e-18	-1.37113e-14	0.133064	-0.314984
4.91144e-17	0.0135969	-1.21839e-05	-0.0313212	-6.32307e-16	-1.68754e-14
5.31259e-18	-0.00320181	0.0163722	0.207151	1.75554e-15	4.86763e-15
0.0138889	6.95971e-15	-5.63785e-17	1.57374e-14	0.17741	0.314987
4.35849e-17	0.0145495	4.02732e-05	-0.0555659	-5.16948e-16	-1.19904e-14
2.35272e-17	0.00330191	0.0124731	-0.167134	4.4062e-16	4.26742e-16
0.0138889	4.55538e-15	-1.1189e-16	1.05888e-14	0.177395	0.157511
4.24465e-17	0.0207563	4.0583e-05	-0.0950012	1.12757e-17	-1.4766e-14
7.00395e-17	0.00138264	0.012141	-0.0768696	1.47451e-15	1.14145e-15
0.0138889	1.95552e-15	-7.63278e-17	2.52359e-15	0.177391	2.11322e-14
3.6375e-17	0.0228586	1.04626e-16	-0.108906	-5.24971e-16	-8.06299e-15
2.97071e-17	1.61478e-16	0.0120386	-3.4315e-16	1.38084e-15	3.41056e-15
0.0138889	-6.65266e-16	-8.50015e-17	-4.66294e-15	0.177395	-0.157511
5.1608e-17	0.0207563	-4.0583e-05	-0.0950012	-7.43329e-16	-1.94705e-14
-3.03577e-17	-0.00138264	0.012141	0.0768696	6.21031e-16	4.82253e-15
0.0138889	-3.01495e-15	3.81639e-17	-1.19627e-14	0.17741	-0.314987
-9.75782e-19	0.0145495	-4.02732e-05	-0.0555659	-7.89299e-16	-1.13104e-14
-7.80626e-18	-0.00330191	0.0124731	0.167134	2.66107e-15	5.55112e-15
0.0138889	7.61891e-15	-8.65735e-17	1.74305e-14	0.221741	0.315043
6.76542e-17	0.0163761	0.00013818	-0.100587	1.249e-16	-1.82181e-14
-1.09288e-16	0.00226734	0.00743552	-0.0987737	1.4988e-15	1.38778e-15
0.0138889	4.9457e-15	-9.06393e-17	1.13243e-14	0.221724	0.157549
6.52961e-17	0.0235332	0.000124188	-0.163535	-8.60423e-16	-1.92901e-14
-1.249e-16	0.00086716	0.00721385	-0.0428472	2.30024e-15	1.19176e-15
0.0138889	2.54376e-15	2.73219e-17	4.43178e-15	0.221722	2.87732e-14
4.38695e-17	0.0258847	7.29277e-17	-0.183652	-6.77626e-16	-1.35447e-14
-4.33681e-18	8.14352e-17	0.00715249	-2.62214e-16	2.05391e-15	2.53568e-15
0.0138889	3.20924e-17	-3.90313e-18	-3.05311e-15	0.221724	-0.157549
8.57062e-17	0.0235332	-0.000124188	-0.163535	-8.32667e-16	-1.33504e-14
5.72459e-17	-0.00086716	0.00721385	0.0428472	2.08514e-15	2.86056e-15
0.0138889	-2.37484e-15	5.69748e-17	-1.15463e-14	0.221741	-0.315043
2.36356e-17	0.0163761	-0.00013818	-0.100587	-5.34295e-16	-1.68893e-14
6.17995e-17	-0.00226734	0.00743552	0.0987737	3.12944e-15	4.2813e-15
