-4.79061e-14	0.167116	-0.971941	-57.7411	6.46282e-13	3.93016e-12
0.5	-8.1062	-4.80824	-8.32195e-13	9.61648	-16.2124
-1	-17.1248	2.25329	-2.93011e-12	-4.50658	-34.2496
5.09328e-14	0.167116	0.971941	57.7411	5.37335e-13	3.55078e-12
0.5	-8.1062	4.80824	1.13157e-12	-9.61648	-16.2124
1	17.1248	2.25329	-2.36832e-12	-4.50658	34.2496
1.28052e-13	-0.167116	-0.971941	57.7411	-1.05329e-12	-7.2872e-13
-0.5	-8.1062	4.80824	-1.93811e-12	-9.61648	-16.2124
-1	17.1248	2.25329	3.71068e-12	-4.50658	34.2496
-2.56112e-14	-0.167116	0.971941	-57.7411	-1.34505e-12	-6.01238e-12
-0.5	-8.1062	-4.80824	-1.45251e-12	9.61648	-16.2124
1	-17.1248	2.25329	-1.22699e-13	-4.50658	-34.2496
1.36683e-13	0.592007	-0.155458	66.4175	1.04989e-13	1.9171e-12
0.5	-2.86339	3.99519	-1.50926e-12	-7.99038	-5.72677
0.833333	14.2569	0.79326	-1.20351e-12	-1.58652	28.5138
7.90748e-14	0.597902	-0.743297	61.5593	1.04203e-13	5.91116e-13
0.5	1.41167	3.19405	-7.09901e-13	-6.38811	2.82334
0.666667	11.401	-0.401612	-7.35218e-13	0.803224	22.8019
-9.61487e-15	0.468348	-0.91647	50.1227	-1.90758e-13	1.31831e-13
0.5	4.7357	2.39472	-6.88445e-14	-4.78944	9.4714
0.5	8.54965	-1.33136	-4.53444e-13	2.66272	17.0993
-2.27422e-14	0.317466	-0.781487	35.0095	-1.34438e-13	-5.00312e-13
0.5	7.11014	1.59629	3.69174e-13	-3.19257	14.2203
0.333333	5.69959	-1.99579	-2.11859e-13	3.99159	11.3992
6.0241e-15	0.206828	-0.44184	17.9323	-9.49952e-14	-1.1023e-12
0.5	8.53491	0.798109	8.9735e-13	-1.59622	17.0698
0.166667	2.84978	-2.39458	-4.08591e-13	4.78916	5.69957
-1.84511e-14	0.166875	6.76412e-15	-2.72762e-13	-1.12746e-13	-1.08887e-12
0.5	9.00985	-7.75066e-14	1.17628e-12	6.62193e-13	18.0197
-7.05078e-15	2.58321e-13	-2.52753	-8.67113e-13	5.05506	2.07112e-13
-8.01208e-14	0.206828	0.44184	-17.9323	-6.86417e-14	-1.16178e-12
0.5	8.53491	-0.798109	1.60528e-12	1.59622	17.0698
-0.166667	-2.84978	-2.39458	-1.18175e-12	4.78916	-5.69957
-8.6405e-14	0.317466	0.781487	-35.0095	-2.41778e-13	-1.4851e-12
0.5	7.11014	-1.59629	1.50664e-12	3.19257	14.2203
-0.333333	-5.69959	-1.99579	-1.6254e-12	3.99159	-11.3992
-4.65631e-14	0.468348	0.91647	-50.1227	-4.99973e-14	-1.28205e-12
0.5	4.7357	-2.39472	6.3876e-13	4.78944	9.4714
-0.5	-8.54965	-1.33136	-1.95913e-12	2.66272	-17.0993
-9.1395e-15	0.597902	0.743297	-61.5593	-1.43011e-14	-1.03383e-12
0.5	1.41167	-3.19405	-4.58899e-13	6.38811	2.82334
-0.666667	-11.401	-0.401612	-2.45185e-12	0.803224	-22.8019
-1.18938e-14	0.592007	0.155458	-66.4175	-8.31167e-14	-6.70915e-13
0.5	-2.86339	-3.99519	5.35856e-15	7.99038	-5.72677
-0.833333	-14.2569	0.79326	-2.85641e-12	-1.58652	-28.5138
-1.00808e-14	-0.761441	-1.13712	-28.1652	-2.5005e-13	4.20749e-13
0.333333	-10.457	-3.20266	-1.31816e-12	6.40532	-20.9141
-1	-11.3861	2.92665	-2.4204e-12	-5.8533	-22.7722
3.75203e-14	-0.616482	-1.21328	-11.6205	-3.97941e-13	-2.58248e-13
0.166667	-11.8668	-1.60062	-1.41053e-12	3.20125	-23.7335
-1	-5.69011	3.32754	-1.57178e-12	-6.65507	-11.3802
4.30962e-14	-2.89404e-14	-1.2362	-9.98452e-14	-3.20823e-13	-4.90464e-13
-2.85015e-15	-12.3365	1.31714e-13	-3.65148e-13	-9.29777e-13	-24.6729
-1	-3.43475e-13	3.46097	-6.50898e-13	-6.92195	-2.05391e-12
5.19907e-15	0.616482	-1.21328	11.6205	-4.64898e-13	-6.19662e-13
-0.166667	-11.8668	1.60062	-2.68781e-13	-3.20125	-23.7335
-1	5.69011	3.32754	6.75675e-13	-6.65507	11.3802
4.77802e-14	0.761441	-1.13712	28.1652	-1.18954e-13	-6.93293e-13
-0.333333	-10.457	3.20266	-6.78675e-13	-6.40532	-20.9141
-1	11.3861	2.92665	2.23733e-12	-5.8533	22.7722
-1.96715e-14	-0.592007	-0.155458	-66.4175	-3.98921e-13	-1.85748e-12
-0.5	-2.86339	-3.99519	-2.18161e-12	7.99038	-5.72677
0.833333	-14.2569	0.79326	2.60712e-14	-1.58652	-28.5138
-2.97655e-14	-0.597902	-0.743297	-61.5593	-2.1898e-13	-1.41685e-12
-0.5	1.41167	-3.19405	-6.54834e-13	6.38811	2.82334
0.666667	-11.401	-0.401612	8.40309e-13	0.803224	-22.8019
-8.30939e-14	-0.468348	-0.91647	-50.1227	-1.79335e-13	-7.62315e-13
-0.5	4.7357	-2.39472	-1.31052e-12	4.78944	9.4714
0.5	-8.54965	-1.33136	6.34029e-13	2.66272	-17.0993
-1.22901e-13	-0.317466	-0.781487	-35.0095	7.07173e-14	-2.79205e-13
-0.5	7.11014	-1.59629	2.87462e-13	3.19257	14.2203
0.333333	-5.69959	-1.99579	3.83119e-13	3.99159	-11.3992
-5.20615e-15	-0.206828	-0.44184	-17.9323	2.28238e-13	8.0234e-13
-0.5	8.53491	-0.798109	1.19844e-12	1.59622	17.0698
0.166667	-2.84978	-2.39458	3.93777e-13	4.78916	-5.69957
-5.45657e-15	-0.166875	-8.33399e-15	3.2877e-13	2.59093e-13	7.92815e-13
-0.5	9.00985	-5.44417e-14	1.3326e-12	8.22398e-13	18.0197
6.0698e-15	-1.36113e-13	-2.52753	8.21879e-13	5.05506	9.74554e-13
5.55339e-14	-0.206828	0.44184	17.9323	3.45475e-13	9.8744e-13
-0.5	8.53491	0.798109	1.56443e-12	-1.59622	17.0698
-0.166667	2.84978	-2.39458	7.94123e-13	4.78916	5.69957
-2.1334e-14	-0.317466	0.781487	35.0095	3.61432e-13	1.53998e-12
-0.5	7.11014	1.59629	1.98049e-12	-3.19257	14.2203
-0.333333	5.69959	-1.99579	3.77346e-13	3.99159	11.3992
-2.85016e-15	-0.468348	0.91647	50.1227	3.76554e-13	1.96018e-12
-0.5	4.7357	2.39472	1.3422e-12	-4.78944	9.4714
-0.5	8.54965	-1.33136	1.22889e-12	2.66272	17.0993
5.58148e-14	-0.597902	0.743297	61.5593	3.15872e-13	1.13848e-12
-0.5	1.41167	3.19405	3.59113e-13	-6.38811	2.82334
-0.666667	11.401	-0.401612	2.14149e-12	0.803224	22.8019
2.75086e-14	-0.592007	0.155458	66.4175	-1.34222e-13	8.3709e-13
-0.5	-2.86339	3.99519	1.77665e-13	-7.99038	-5.72677
-0.833333	14.2569	0.79326	3.4933e-12	-1.58652	28.5138
8.95786e-14	-0.761441	1.13712	28.1652	3.22608e-13	2.02901e-12
0.333333	-10.457	3.20266	1.65336e-14	-6.40532	-20.9141
1	11.3861	2.92665	4.1816e-13	-5.8533	22.7722
5.84875e-14	-0.616482	1.21328	11.6205	1.31178e-13	1.4556e-12
0.166667	-11.8668	1.60062	-1.72163e-12	-3.20125	-23.7335
1	5.69011	3.32754	4.24176e-13	-6.65507	11.3802
2.83408e-14	3.50698e-14	1.2362	-9.77779e-14	1.10272e-13	6.89486e-13
-1.79171e-14	-12.3365	1.04489e-13	-2.58316e-12	-1.20166e-12	-24.6729
1	-7.39131e-14	3.46097	5.91442e-13	-6.92195	4.80505e-13
2.5079e-14	0.616482	1.21328	-11.6205	-1.66625e-13	-2.25081e-13
-0.166667	-11.8668	-1.60062	-2.1071e-12	3.20125	-23.7335
1	-5.69011	3.32754	-3.35357e-14	-6.65507	-11.3802
4.23564e-14	0.761441	1.13712	-28.1652	-4.04684e-13	-1.60012e-12
-0.333333	-10.457	-3.20266	-2.28651e-12	6.40532	-20.9141
1	-11.3861	2.92665	-2.99748e-13	-5.8533	-22.7722
4.24977e-14	-0.356267	0.00414072	36.9357	2.26697e-13	1.1905e-12
0.333333	-5.22275	2.66451	-1.55678e-12	-5.32901	-10.4455
0.833333	9.49487	1.46417	-8.90451e-14	-2.92833	18.9897
1.96754e-14	-0.40211	0.0892649	16.3004	1.26434e-13	8.78485e-13
0.166667	-6.6423	1.33255	-1.72198e-12	-2.66511	-13.2846
0.833333	4.74314	1.865	7.68456e-13	-3.73	9.48628
5.71129e-15	2.75762e-14	0.115568	-1.44331e-14	3.54508e-14	5.11671e-13
-8.62158e-15	-7.11508	8.13898e-14	-1.7091e-12	-7.86617e-13	-14.2302
0.833333	4.2466e-15	1.9984	3.80944e-13	-3.9968	2.25375e-13
-7.1569e-15	0.40211	0.0892649	-16.3004	-1.04804e-13	-2.43104e-14
-0.166667	-6.6423	-1.33255	-1.49416e-12	2.66511	-13.2846
0.833333	-4.74314	1.865	3.04416e-13	-3.73	-9.48628
-2.4433e-15	0.356267	0.00414072	-36.9357	-2.0954e-13	-8.55479e-13
-0.333333	-5.22275	-2.66451	-1.68468e-12	5.32901	-10.4455
0.833333	-9.49487	1.46417	1.64695e-13	-2.92833	-18.9897
6.92594e-15	-0.2291	-0.612436	36.7352	-5.51788e-14	6.45943e-13
0.333333	-0.947333	2.12906	-9.39051e-13	-4.25811	-1.89467
0.666667	7.59855	0.26629	-6.50643e-14	-0.532581	15.1971
1.47015e-15	-0.308438	-0.53702	16.9464	1.26911e-13	2.67868e-13
0.166667	-2.36485	1.06469	-1.45286e-12	-2.12937	-4.72971
0.666667	3.7973	0.66735	3.37246e-13	-1.3347	7.59459
-3.54994e-15	2.90414e-15	-0.512675	9.9738e-14	-9.63989e-14	3.14046e-13
4.42354e-15	-2.838	3.12649e-14	-1.24325e-12	-4.33938e-13	-5.676
0.666667	4.37705e-14	0.800901	2.76694e-13	-1.6018	-2.74003e-13
-8.80291e-16	0.308438	-0.53702	-16.9464	-6.76404e-14	-2.47649e-14
-0.166667	-2.36485	-1.06469	-1.72353e-12	2.12937	-4.72971
0.666667	-3.7973	0.66735	1.46765e-13	-1.3347	-7.59459
-2.86256e-14	0.2291	-0.612436	-36.7352	-1.29557e-13	-3.25127e-13
-0.333333	-0.947333	-2.12906	-1.19973e-12	4.25811	-1.89467
0.666667	-7.59855	0.26629	9.68571e-13	-0.532581	-15.1971
-3.37845e-14	-0.243276	-0.817352	30.9494	2.18984e-14	-3.05972e-13
0.333333	2.37687	1.59614	-4.20783e-13	-3.19228	4.75375
0.5	5.69949	-0.665005	-2.50916e-13	1.33001	11.399
-4.93366e-16	-0.292096	-0.758844	14.6504	-6.36098e-14	5.13209e-14
0.166667	0.960896	0.79797	-5.87985e-13	-1.59594	1.92179
0.5	2.84922	-0.26464	2.75989e-13	0.52928	5.69843
-1.79468e-14	2.63686e-14	-0.739571	1.33713e-13	2.38359e-14	-3.7786e-14
1.50175e-14	0.488678	-6.59195e-16	-7.6451e-13	-3.45036e-14	0.977357
0.5	2.75613e-14	-0.131117	4.06812e-13	0.262234	1.9984e-15
-3.56542e-14	0.292096	-0.758844	-14.6504	1.74311e-14	-2.07356e-14
-0.166667	0.960896	-0.79797	-1.13066e-12	1.59594	1.92179
0.5	-2.84922	-0.26464	6.10172e-13	0.52928	-5.69843
-5.44572e-14	0.243276	-0.817352	-30.9494	1.11859e-13	9.52944e-14
-0.333333	2.37687	-1.59614	-1.47194e-12	3.19228	4.75375
0.5	-5.69949	-0.665005	1.03642e-12	1.33001	-11.399
-8.26666e-15	-0.303053	-0.715174	22.0117	-1.70536e-13	-5.30442e-13
0.333333	4.75141	1.06394	2.20849e-13	-2.12787	9.50282
0.333333	3.79976	-1.33015	-3.52768e-13	2.66031	7.59952
-1.40442e-14	-0.308411	-0.675672	10.5601	-6.16581e-14	-2.58499e-13
0.166667	3.33602	0.531872	3.8282e-13	-1.06374	6.67204
0.333333	1.89979	-0.930361	1.15478e-13	1.86072	3.79957
-2.16886e-14	1.82355e-14	-0.662575	9.38511e-14	-4.00919e-15	-7.04326e-14
1.82768e-14	2.86416	-1.44121e-14	5.27714e-13	3.13017e-13	5.72832
0.333333	4.08007e-15	-0.797029	3.82831e-13	1.59406	3.79696e-14
-2.99134e-14	0.308411	-0.675672	-10.5601	1.15338e-13	9.14757e-14
-0.166667	3.33602	-0.531872	4.9753e-14	1.06374	6.67204
0.333333	-1.89979	-0.930361	6.76749e-13	1.86072	-3.79957
-6.48972e-14	0.303053	-0.715174	-22.0117	1.52604e-13	2.47945e-13
-0.333333	4.75141	-1.06394	3.35201e-13	2.12787	9.50282
0.333333	-3.79976	-1.33015	1.12896e-12	2.66031	-7.59952
-8.74485e-15	-0.35628	-0.40864	11.3759	-1.38398e-13	-7.46264e-13
0.333333	6.17622	0.531951	7.62438e-13	-1.0639	12.3524
0.166667	1.89989	-1.72924	-4.2378e-13	3.45848	3.79978
-9.89264e-15	-0.328139	-0.388798	5.49346	-2.45319e-14	-5.15319e-13
0.166667	4.76098	0.265924	6.66867e-13	-0.531848	9.52196
0.166667	0.949939	-1.32978	-1.03836e-13	2.65956	1.89988
-1.0716e-14	3.52459e-14	-0.382203	5.6957e-14	2.68877e-14	-1.14786e-13
1.20397e-14	4.28923	-2.39448e-14	7.3992e-13	4.92034e-13	8.57846
0.166667	-1.13798e-15	-1.19657	2.72697e-13	2.39314	-1.1191e-13
-1.4502e-14	0.328139	-0.388798	-5.49346	1.32076e-13	1.6242e-13
-0.166667	4.76098	-0.265924	7.89255e-13	0.531848	9.52196
0.166667	-0.949939	-1.32978	6.32713e-13	2.65956	-1.89988
-5.25591e-15	0.35628	-0.40864	-11.3759	1.88939e-13	4.6967e-13
-0.333333	6.17622	-0.531951	7.78647e-13	1.0639	12.3524
0.166667	-1.89989	-1.72924	9.49622e-13	3.45848	-3.79978
-6.28349e-15	-0.37668	-4.17537e-15	-3.14244e-13	-1.3885e-13	-9.27061e-13
0.333333	6.65116	-6.59047e-14	1.2409e-12	5.41817e-13	13.3023
-8.89046e-16	1.7461e-13	-1.86227	-7.43799e-13	3.72455	1.72085e-13
-1.99e-15	-0.336245	-8.31279e-15	-1.42901e-13	-1.96804e-14	-4.13717e-13
0.166667	5.23596	-5.06253e-14	1.03995e-12	4.43839e-13	10.4719
1.31319e-15	1.10176e-13	-1.46291	-4.59533e-13	2.92582	7.71327e-14
-3.39979e-15	5.10239e-14	-9.04913e-15	3.88323e-15	8.75886e-14	-1.34807e-13
1.31774e-15	4.76422	-4.85853e-14	9.55127e-13	4.85334e-13	9.52844
1.21778e-15	4.1217e-14	-1.32975	1.87654e-13	2.6595	1.56319e-13
-6.86158e-15	0.336245	-9.86169e-15	1.48114e-13	1.85623e-13	2.68474e-13
-0.166667	5.23596	-3.95925e-14	9.36031e-13	5.25746e-13	10.4719
-6.40113e-16	-1.20459e-14	-1.46291	6.48141e-13	2.92582	7.92144e-14
-1.04257e-14	0.37668	-4.553e-15	2.52597e-13	2.60455e-13	7.62017e-13
-0.333333	6.65116	-4.43248e-14	1.13099e-12	6.46677e-13	13.3023
4.996e-16	-5.54279e-14	-1.86227	4.67638e-13	3.72455	1.03695e-13
-7.88757e-17	-0.35628	0.40864	-11.3759	-1.13881e-13	-9.20724e-13
0.333333	6.17622	-0.531951	1.47242e-12	1.0639	12.3524
-0.166667	-1.89989	-1.72924	-1.01097e-12	3.45848	-3.79978
1.04366e-14	-0.328139	0.388798	-5.49346	3.47526e-14	-4.53099e-13
0.166667	4.76098	-0.265924	1.16156e-12	0.531848	9.52196
-0.166667	-0.949939	-1.32978	-4.26754e-13	2.65956	-1.89988
-3.642e-15	4.79976e-14	0.382203	-2.57111e-14	1.41679e-13	-4.36283e-16
-8.57257e-15	4.28923	-6.74972e-14	1.07812e-12	5.31972e-13	8.57846
-0.166667	-2.70617e-14	-1.19657	9.03982e-14	2.39314	-1.63425e-13
-4.89399e-15	0.328139	0.388798	5.49346	2.50997e-13	3.65434e-13
-0.166667	4.76098	0.265924	1.32992e-12	-0.531848	9.52196
-0.166667	0.949939	-1.32978	6.60687e-13	2.65956	1.89988
8.15093e-15	0.35628	0.40864	11.3759	3.26961e-13	1.06273e-12
-0.333333	6.17622	0.531951	1.45896e-12	-1.0639	12.3524
-0.166667	1.89989	-1.72924	6.24735e-13	3.45848	3.79978
-4.06154e-14	-0.303053	0.715174	-22.0117	-8.15049e-14	-1.01379e-12
0.333333	4.75141	-1.06394	1.35343e-12	2.12787	9.50282
-0.333333	-3.79976	-1.33015	-1.1377e-12	2.66031	-7.59952
-1.38858e-14	-0.308411	0.675672	-10.5601	-1.8634e-14	-5.75602e-13
0.166667	3.33602	-0.531872	1.06304e-12	1.06374	6.67204
-0.333333	-1.89979	-0.930361	-4.26061e-13	1.86072	-3.79957
-1.48563e-15	4.83394e-14	0.662575	-6.01878e-14	1.53513e-13	-2.72768e-14
-1.04439e-14	2.86416	-7.08704e-14	9.87282e-13	3.72546e-13	5.72832
-0.333333	-4.11615e-14	-0.797029	4.42129e-14	1.59406	-4.84723e-13
6.35605e-15	0.308411	0.675672	10.5601	2.60106e-13	4.9327e-13
-0.166667	3.33602	0.531872	1.35548e-12	-1.06374	6.67204
-0.333333	1.89979	-0.930361	5.05886e-13	1.86072	3.79957
6.54317e-15	0.303053	0.715174	22.0117	3.32976e-13	1.02031e-12
-0.333333	4.75141	1.06394	1.63188e-12	-2.12787	9.50282
-0.333333	3.79976	-1.33015	9.68052e-13	2.66031	7.59952
-2.60969e-14	-0.243276	0.817352	-30.9494	-8.15745e-14	-9.8547e-13
0.333333	2.37687	-1.59614	3.44038e-13	3.19228	4.75375
-0.5	-5.69949	-0.665005	-1.41793e-12	1.33001	-11.399
-1.1556e-14	-0.292096	0.758844	-14.6504	3.56052e-16	-5.32491e-13
0.166667	0.960896	-0.79797	3.72306e-13	1.59594	1.92179
-0.5	-2.84922	-0.26464	-5.83379e-13	0.52928	-5.69843
-1.21374e-14	7.89776e-15	0.739571	-1.1876e-13	1.14845e-13	-1.77774e-13
-9.28511e-15	0.488678	-6.40408e-14	8.34603e-13	2.14533e-13	0.977357
-0.5	-8.88456e-14	-0.131117	2.80036e-14	0.262234	-6.51035e-13
-6.00618e-15	0.292096	0.758844	14.6504	2.15561e-13	5.17938e-13
-0.166667	0.960896	0.79797	7.25801e-13	-1.59594	1.92179
-0.5	2.84922	-0.26464	4.71172e-13	0.52928	5.69843
1.06054e-14	0.243276	0.817352	30.9494	3.49272e-13	1.06323e-12
-0.333333	2.37687	1.59614	1.31426e-12	-3.19228	4.75375
-0.5	5.69949	-0.665005	1.01098e-12	1.33001	11.399
-2.18581e-14	-0.2291	0.612436	-36.7352	-9.40055e-14	-1.03843e-12
0.333333	-0.947333	-2.12906	-3.03272e-13	4.25811	-1.89467
-0.666667	-7.59855	0.26629	-1.83087e-12	-0.532581	-15.1971
-1.15288e-14	-0.308438	0.53702	-16.9464	-2.76858e-14	-5.74978e-13
0.166667	-2.36485	-1.06469	1.04539e-13	2.12937	-4.72971
-0.666667	-3.7973	0.66735	-8.73017e-13	-1.3347	-7.59459
-5.99325e-15	-6.50521e-17	0.512675	-1.58789e-13	4.41212e-14	-2.43829e-13
-8.39433e-15	-2.838	-1.78555e-14	3.1153e-14	-4.85445e-14	-5.676
-0.666667	-1.46022e-13	0.800901	-2.28208e-13	-1.6018	-1.2117e-12
-3.96829e-15	0.308438	0.53702	16.9464	7.11529e-14	2.42453e-13
-0.166667	-2.36485	1.06469	6.57956e-13	-2.12937	-4.72971
-0.666667	3.7973	0.66735	5.01563e-13	-1.3347	7.59459
3.88238e-14	0.2291	0.612436	36.7352	2.23673e-13	7.71857e-13
-0.333333	-0.947333	2.12906	5.4294e-13	-4.25811	-1.89467
-0.666667	7.59855	0.26629	1.14365e-12	-0.532581	15.1971
-2.57294e-14	-0.356267	-0.00414072	-36.9357	-4.99015e-14	-4.21867e-13
0.333333	-5.22275	-2.66451	-3.56019e-13	5.32901	-10.4455
-0.833333	-9.49487	1.46417	-2.16988e-12	-2.92833	-18.9897
1.45803e-14	-0.40211	-0.0892649	-16.3004	-1.61532e-13	-5.43536e-13
0.166667	-6.6423	-1.33255	-5.45371e-14	2.66511	-13.2846
-0.833333	-4.74314	1.865	-1.15863e-12	-3.73	-9.48628
1.16332e-14	-3.91891e-14	-0.115568	-1.13112e-13	-1.21373e-13	-4.16866e-13
-8.67362e-18	-7.11508	5.79467e-14	-1.20541e-13	-4.03982e-13	-14.2302
-0.833333	-2.09915e-13	1.9984	-3.27226e-13	-3.9968	-1.67089e-12
3.16641e-14	0.40211	-0.0892649	16.3004	-3.38648e-14	-1.58106e-13
-0.166667	-6.6423	1.33255	-7.89343e-14	-2.66511	-13.2846
-0.833333	4.74314	1.865	5.62571e-13	-3.73	9.48628
4.77495e-14	0.356267	-0.00414072	36.9357	-1.20712e-13	1.53487e-13
-0.333333	-5.22275	2.66451	-1.87055e-14	-5.32901	-10.4455
-0.833333	9.49487	1.46417	1.47571e-12	-2.92833	18.9897
