-1.21431e-16	0.167116	-0.971941	-57.7411	-3.04499e-13	-1.67791e-12
0.5	3.39568e-13	1.43451e-15	8.24167e-13	9.61648	-16.2124
-1	5.18336e-13	1.00184e-15	6.27214e-13	-4.50658	-34.2496
4.66619e-15	0.167116	0.971941	57.7411	5.80713e-13	-2.75174e-12
0.5	3.24873e-13	-1.82395e-14	-6.5345e-13	-9.61648	-16.2124
1	-6.05669e-13	9.19447e-15	5.47638e-13	-4.50658	34.2496
9.75877e-16	-0.167116	-0.971941	57.7411	-3.9801e-13	2.81281e-12
-0.5	3.19019e-13	2.02997e-14	8.09283e-14	-9.61648	-16.2124
-1	-5.2393e-13	-3.08472e-14	-3.87966e-13	-4.50658	34.2496
-2.07467e-14	-0.167116	0.971941	-57.7411	7.74298e-14	2.48049e-12
-0.5	3.64894e-13	2.20983e-14	-3.75009e-13	9.61648	-16.2124
1	5.2894e-13	2.74569e-14	-6.61081e-13	-4.50658	-34.2496
1.19503e-15	0.592007	-0.155458	66.4175	2.61393e-13	-7.17733e-13
0.5	8.55088e-14	-1.10646e-14	-1.11123e-13	-7.99038	-5.72677
0.833333	-4.8037e-13	-5.11703e-16	2.86258e-13	-1.58652	28.5138
4.69026e-16	0.597902	-0.743297	61.5593	2.11514e-13	-1.81241e-13
0.5	-6.85292e-14	-2.23331e-14	1.49546e-14	-6.38811	2.82334
0.666667	-3.57656e-13	-4.21707e-15	8.02006e-14	0.803224	22.8019
-7.65989e-17	0.468348	-0.91647	50.1227	1.39962e-13	1.61043e-13
0.5	-1.84938e-13	-1.85769e-14	5.50926e-14	-4.78944	9.4714
0.5	-2.69091e-13	-1.03615e-14	-6.67929e-14	2.66272	17.0993
-4.71915e-15	0.317466	-0.781487	35.0095	8.92576e-14	3.46846e-13
0.5	-2.57132e-13	-1.23614e-14	8.82675e-14	-3.19257	14.2203
0.333333	-1.70195e-13	-1.76751e-14	-1.414e-13	3.99159	11.3992
-3.12191e-15	0.206828	-0.44184	17.9323	2.70042e-14	4.75281e-13
0.5	-3.03989e-13	-1.43201e-14	7.78962e-14	-1.59622	17.0698
0.166667	-6.48691e-14	-1.72865e-14	-2.25777e-13	4.78916	5.69957
-2.26685e-15	0.166875	9.76821e-16	-6.90425e-14	-3.27321e-14	6.30974e-13
0.5	-2.59191e-13	-1.78771e-14	3.68889e-14	5.17324e-13	18.0197
-2.38351e-15	1.60974e-14	-6.03159e-15	-2.74849e-13	5.05506	5.56416e-13
-3.61684e-15	0.206828	0.44184	-17.9323	-6.73177e-14	6.72235e-13
0.5	-2.01644e-13	-1.34533e-14	3.80152e-14	1.59622	17.0698
-0.166667	7.62993e-14	-1.56295e-15	-2.94167e-13	4.78916	-5.69957
-4.03784e-15	0.317466	0.781487	-35.0095	-1.18558e-13	5.07252e-13
0.5	-2.04734e-13	-4.72642e-15	-3.65116e-15	3.19257	14.2203
-0.333333	1.56607e-13	-1.68091e-15	-2.46427e-13	3.99159	-11.3992
-2.23573e-15	0.468348	0.91647	-50.1227	-1.49538e-13	3.79075e-13
0.5	-1.11892e-13	3.25188e-15	-2.89222e-15	4.78944	9.4714
-0.5	2.53474e-13	-1.14314e-15	-1.29854e-13	2.66272	-17.0993
-2.67516e-15	0.597902	0.743297	-61.5593	-1.50751e-13	2.88831e-15
0.5	-1.63432e-14	1.09064e-14	5.02124e-14	6.38811	2.82334
-0.666667	3.37233e-13	7.11414e-15	6.37693e-14	0.803224	-22.8019
-1.2863e-15	0.592007	0.155458	-66.4175	-1.63839e-13	-3.66943e-13
0.5	1.32678e-13	1.97393e-14	2.06112e-13	7.99038	-5.72677
-0.833333	4.38693e-13	8.24171e-15	3.42435e-13	-1.58652	-28.5138
4.13515e-16	-0.761441	-1.13712	-28.1652	-1.2134e-14	-5.4657e-13
0.333333	3.78977e-13	1.3791e-14	5.37452e-13	6.40532	-20.9141
-1	2.9325e-13	8.04263e-15	2.02529e-15	-5.8533	-22.7722
-1.32018e-15	-0.616482	-1.21328	-11.6205	7.37865e-14	-2.65375e-13
0.166667	4.14937e-13	1.58172e-14	2.62117e-13	3.20125	-23.7335
-1	1.4163e-13	3.49319e-15	-1.02063e-13	-6.65507	-11.3802
-3.73784e-15	-5.52589e-14	-1.2362	2.18588e-14	1.14281e-13	-1.19999e-13
-8.33188e-15	4.22959e-13	1.70107e-14	8.80337e-14	-7.09564e-13	-24.6729
-1	2.87402e-15	-4.03573e-15	-1.36301e-13	-6.92195	-5.63605e-13
-1.61595e-15	0.616482	-1.21328	11.6205	9.31143e-14	4.51592e-14
-0.166667	3.8047e-13	1.77739e-14	-4.60812e-14	-3.20125	-23.7335
-1	-1.23684e-13	-4.28151e-16	-1.0723e-13	-6.65507	11.3802
4.67644e-16	0.761441	-1.13712	28.1652	5.33507e-14	4.59199e-13
-0.333333	3.85289e-13	1.49151e-14	-1.67227e-15	-6.40532	-20.9141
-1	-3.37828e-13	-1.44987e-14	-9.329e-14	-5.8533	22.7722
-3.1952e-15	-0.592007	-0.155458	-66.4175	-8.43678e-14	5.37029e-13
-0.5	1.12681e-13	2.09376e-14	1.04704e-13	7.99038	-5.72677
0.833333	4.38408e-13	3.58599e-14	-3.591e-13	-1.58652	-28.5138
-9.23794e-16	-0.597902	-0.743297	-61.5593	-7.28248e-14	8.97182e-14
-0.5	-4.87673e-14	1.1043e-14	1.83709e-13	6.38811	2.82334
0.666667	3.64263e-13	2.88343e-14	-7.62151e-14	0.803224	-22.8019
2.57319e-15	-0.468348	-0.91647	-50.1227	-6.36427e-14	-2.55555e-13
-0.5	-1.35991e-13	4.36308e-15	2.7092e-13	4.78944	9.4714
0.5	2.77447e-13	2.81334e-14	1.24957e-13	2.66272	-17.0993
4.17258e-15	-0.317466	-0.781487	-35.0095	-3.18927e-14	-5.32261e-13
-0.5	-2.51158e-13	1.19719e-15	2.14389e-13	3.19257	14.2203
0.333333	1.91862e-13	1.86584e-14	3.04813e-13	3.99159	-11.3992
2.70121e-15	-0.206828	-0.44184	-17.9323	6.63391e-15	-6.45766e-13
-0.5	-2.37688e-13	-7.49227e-15	1.76928e-13	1.59622	17.0698
0.166667	1.10906e-13	1.81727e-14	3.89635e-13	4.78916	-5.69957
2.95887e-15	-0.166875	-2.923e-15	2.4731e-13	2.85575e-14	-7.09957e-13
-0.5	-2.40969e-13	-1.18958e-14	5.37643e-14	5.33422e-13	18.0197
-2.09555e-15	2.47424e-14	1.23232e-14	4.45146e-13	5.05506	3.23963e-13
1.13279e-15	-0.206828	0.44184	17.9323	4.83516e-14	-6.69461e-13
-0.5	-1.89057e-13	-7.37478e-15	-3.748e-14	-1.59622	17.0698
-0.166667	-4.40602e-14	-8.26027e-16	4.3582e-13	4.78916	5.69957
1.24296e-15	-0.317466	0.781487	35.0095	3.31836e-14	-5.87256e-13
-0.5	-2.14876e-13	-7.96689e-15	-1.20891e-13	-3.19257	14.2203
-0.333333	-9.95019e-14	-1.22405e-14	4.04734e-13	3.99159	11.3992
1.98556e-15	-0.468348	0.91647	50.1227	4.66515e-14	-3.43489e-13
-0.5	-1.66598e-13	-8.83699e-16	-2.42256e-13	-4.78944	9.4714
-0.5	-1.82189e-13	-1.23064e-14	2.93711e-13	2.66272	17.0993
1.40321e-15	-0.597902	0.743297	61.5593	5.14058e-14	-7.33508e-14
-0.5	-1.07952e-13	4.29367e-15	-2.61982e-13	-6.38811	2.82334
-0.666667	-2.73574e-13	-6.74143e-15	1.11191e-13	0.803224	22.8019
5.96853e-17	-0.592007	0.155458	66.4175	3.39274e-15	4.65374e-13
-0.5	1.03413e-13	1.18472e-15	-2.65067e-13	-7.99038	-5.72677
-0.833333	-3.99207e-13	-1.69416e-14	-1.13074e-13	-1.58652	28.5138
1.01481e-15	-0.761441	1.13712	28.1652	1.0178e-13	-5.51111e-13
0.333333	3.62826e-13	1.61468e-15	-4.19862e-13	-6.40532	-20.9141
1	-3.35143e-13	-1.3912e-14	8.96219e-14	-5.8533	22.7722
-1.14879e-15	-0.616482	1.21328	11.6205	-4.24934e-14	-1.42934e-13
0.166667	3.64096e-13	5.35474e-15	-3.32821e-13	-3.20125	-23.7335
1	-2.03869e-13	-1.47839e-14	-1.14691e-14	-6.65507	11.3802
-5.91446e-16	3.53773e-14	1.2362	-9.65874e-14	-1.14973e-13	7.15478e-14
-5.64045e-15	4.05167e-13	1.28696e-14	-2.06255e-13	-7.32754e-13	-24.6729
1	-4.77647e-14	2.22316e-15	-7.43502e-14	-6.92195	-4.98324e-13
-4.82245e-15	0.616482	1.21328	-11.6205	-1.25804e-13	2.26577e-13
-0.166667	4.12897e-13	2.21469e-14	-2.19578e-13	3.20125	-23.7335
1	1.24755e-13	5.24439e-15	-1.24106e-13	-6.65507	-11.3802
-3.94281e-15	0.761441	1.13712	-28.1652	-9.9092e-14	5.56338e-13
-0.333333	3.61508e-13	2.39926e-14	-2.91964e-13	6.40532	-20.9141
1	3.05383e-13	2.64546e-14	-2.42504e-13	-5.8533	-22.7722
7.61042e-16	-0.356267	0.00414072	36.9357	5.54484e-14	-1.55334e-13
0.333333	1.72002e-13	-6.74859e-15	-1.129e-13	-5.32901	-10.4455
0.833333	-2.84331e-13	-4.49596e-15	1.71243e-14	-2.92833	18.9897
6.02339e-16	-0.40211	0.0892649	16.3004	-5.68733e-14	8.14585e-14
0.166667	2.25633e-13	-2.89056e-15	-6.49381e-14	-2.66511	-13.2846
0.833333	-1.58209e-13	-3.05019e-15	-3.95578e-14	-3.73	9.48628
-1.94818e-16	3.61311e-14	0.115568	-5.05802e-14	-1.25396e-13	6.38695e-14
-3.88144e-15	1.98488e-13	6.76838e-15	-3.11873e-14	-4.10273e-13	-14.2302
0.833333	-2.909e-14	-8.04641e-15	-6.12496e-14	-3.9968	-2.82718e-13
-1.20376e-15	0.40211	0.0892649	-16.3004	-1.4295e-13	2.00846e-14
-0.166667	1.67291e-13	1.21807e-14	1.41098e-14	2.66511	-13.2846
0.833333	1.11033e-13	9.15099e-15	-2.79603e-14	-3.73	-9.48628
-4.81928e-15	0.356267	0.00414072	-36.9357	-1.05424e-13	2.4444e-13
-0.333333	1.74167e-13	1.44844e-14	3.76465e-14	5.32901	-10.4455
0.833333	2.60986e-13	2.94245e-14	-1.07945e-13	-2.92833	-18.9897
9.92885e-16	-0.2291	-0.612436	36.7352	2.55011e-14	2.01236e-13
0.333333	1.79745e-14	-1.44297e-14	-3.69713e-15	-4.25811	-1.89467
0.666667	-2.36458e-13	-8.51705e-15	-4.31608e-14	-0.532581	15.1971
1.1686e-15	-0.308438	-0.53702	16.9464	-6.1813e-14	1.54912e-13
0.166667	4.20073e-14	-3.18868e-15	3.6937e-14	-2.12937	-4.72971
0.666667	-1.25132e-13	-1.0277e-14	-7.50294e-14	-1.3347	7.59459
2.7351e-16	2.97706e-14	-0.512675	1.99085e-14	-8.84875e-14	5.086e-14
-1.10242e-15	7.12721e-14	4.61179e-16	7.00217e-14	-1.39128e-13	-5.676
0.666667	-9.38397e-15	-8.19906e-15	-3.29389e-14	-1.6018	-1.3306e-13
2.2096e-16	0.308438	-0.53702	-16.9464	-1.1277e-13	-1.03348e-13
-0.166667	7.13068e-14	2.09182e-15	1.06437e-13	2.12937	-4.72971
0.666667	9.33203e-14	1.56597e-14	2.91052e-14	-1.3347	-7.59459
-5.93899e-16	0.2291	-0.612436	-36.7352	-1.02481e-13	-1.80895e-13
-0.333333	3.0069e-14	6.53271e-15	1.57507e-13	4.25811	-1.89467
0.666667	2.22281e-13	2.25089e-14	1.88911e-14	-0.532581	-15.1971
-5.73678e-16	-0.243276	-0.817352	30.9494	1.91246e-14	3.62522e-13
0.333333	-1.11385e-13	-1.14715e-14	6.15319e-14	-3.19228	4.75375
0.5	-1.75942e-13	-1.43596e-14	-1.18545e-13	1.33001	11.399
5.56521e-16	-0.292096	-0.758844	14.6504	-3.75883e-14	2.3944e-13
0.166667	-9.24493e-14	-5.93424e-15	7.84073e-14	-1.59594	1.92179
0.5	-9.25604e-14	-1.00446e-14	-1.06671e-13	0.52928	5.69843
6.77143e-16	2.18085e-14	-0.739571	8.02548e-14	-6.37742e-14	1.04848e-15
1.60852e-15	-7.74959e-14	-3.32521e-15	1.10826e-13	5.0366e-14	0.977357
0.5	-1.06048e-14	-8.85468e-16	-2.01714e-14	0.262234	-1.36002e-14
7.74798e-17	0.292096	-0.758844	-14.6504	-6.92295e-14	-2.20756e-13
-0.166667	-7.61914e-14	-2.23529e-16	1.41024e-13	1.59594	1.92179
0.5	8.24358e-14	9.51181e-15	9.17218e-14	0.52928	-5.69843
1.06905e-15	0.243276	-0.817352	-30.9494	-7.40422e-14	-3.86621e-13
-0.333333	-1.05737e-13	2.80877e-15	1.93204e-13	3.19228	4.75375
0.5	1.79135e-13	1.63002e-14	1.42625e-13	1.33001	-11.399
-1.09388e-15	-0.303053	-0.715174	22.0117	-9.361e-16	5.06339e-13
0.333333	-2.21213e-13	-1.10988e-14	7.64441e-14	-2.12787	9.50282
0.333333	-1.17201e-13	-1.17325e-14	-1.8834e-13	2.66031	7.59952
-2.79995e-17	-0.308411	-0.675672	10.5601	-3.67126e-14	2.81664e-13
0.166667	-1.70778e-13	-8.09425e-15	1.01757e-13	-1.06374	6.67204
0.333333	-6.0375e-14	-1.08655e-14	-1.36836e-13	1.86072	3.79957
1.09186e-16	1.8241e-14	-0.662575	7.30379e-14	-4.13455e-14	-7.97409e-15
3.40353e-15	-1.78959e-13	-5.84605e-15	1.28847e-13	1.91559e-13	5.72832
0.333333	-6.05764e-15	-8.29957e-16	-8.18096e-15	1.59406	4.01346e-14
1.10793e-15	0.308411	-0.675672	-10.5601	-4.56757e-14	-3.18933e-13
-0.166667	-1.68901e-13	-4.13908e-15	1.39949e-13	1.06374	6.67204
0.333333	5.78197e-14	6.78936e-15	1.27649e-13	1.86072	-3.79957
2.08766e-15	0.303053	-0.715174	-22.0117	-3.84097e-14	-5.53247e-13
-0.333333	-1.85002e-13	-2.86233e-15	1.8569e-13	2.12787	9.50282
0.333333	1.25525e-13	1.20058e-14	2.29849e-13	2.66031	-7.59952
-1.95053e-15	-0.35628	-0.40864	11.3759	-2.09821e-14	5.96882e-13
0.333333	-2.41695e-13	-1.26132e-14	7.85623e-14	-1.0639	12.3524
0.166667	-6.10259e-14	-1.03003e-14	-2.57545e-13	3.45848	3.79978
-1.07238e-15	-0.328139	-0.388798	5.49346	-2.7695e-14	3.0829e-13
0.166667	-2.1657e-13	-9.74741e-15	7.58978e-14	-0.531848	9.52196
0.166667	-3.52963e-14	-8.87192e-15	-1.56214e-13	2.65956	1.89988
5.54298e-16	1.18789e-14	-0.382203	7.26682e-14	-2.39064e-14	-2.70751e-14
3.8352e-15	-1.93067e-13	-9.01883e-15	9.54377e-14	2.80614e-13	8.57846
0.166667	-1.56774e-15	4.46442e-15	-9.4022e-15	2.39314	4.30211e-14
1.35074e-15	0.328139	-0.388798	-5.49346	-1.53952e-14	-3.75105e-13
-0.166667	-1.86183e-13	-7.54105e-15	1.12424e-13	0.531848	9.52196
0.166667	2.73878e-14	5.56011e-15	1.59001e-13	2.65956	-1.89988
2.21683e-15	0.35628	-0.40864	-11.3759	-7.24475e-15	-6.78996e-13
-0.333333	-2.06591e-13	-6.93022e-15	1.37182e-13	1.0639	12.3524
0.166667	6.5733e-14	1.34518e-14	2.98945e-13	3.45848	-3.79978
-2.19952e-15	-0.37668	1.9307e-15	-8.71924e-14	-3.9785e-14	6.26296e-13
0.333333	-1.87167e-13	-1.6243e-14	3.51125e-14	3.90648e-13	13.3023
-1.10936e-15	-9.89145e-15	-1.10948e-14	-2.84079e-13	3.72455	3.08892e-13
-9.08155e-16	-0.336245	1.28792e-15	-3.28497e-15	-2.69663e-14	3.19762e-13
0.166667	-1.62197e-13	-1.36617e-14	4.51045e-14	3.19538e-13	10.4719
-2.91434e-16	-9.28935e-15	-1.05685e-14	-1.78474e-13	2.92582	1.40415e-13
-4.32597e-17	3.55405e-15	-3.25385e-15	6.34426e-14	-1.07042e-14	-3.82173e-14
4.15683e-15	-1.35425e-13	-1.09833e-14	4.86573e-14	2.96445e-13	9.52844
5.3256e-16	-6.77538e-15	-1.97487e-15	-9.73527e-15	2.6595	-5.55112e-17
9.12644e-16	0.336245	-5.30321e-15	1.385e-13	1.18428e-14	-4.15645e-13
-0.166667	-1.43029e-13	-1.1136e-14	4.53266e-14	3.25922e-13	10.4719
2.56739e-16	3.00754e-15	1.90332e-15	1.78541e-13	2.92582	-6.73905e-14
1.34076e-15	0.37668	-6.40674e-15	2.1178e-13	2.85983e-14	-7.18895e-13
-0.333333	-1.79342e-13	-1.18888e-14	5.13218e-14	3.97531e-13	13.3023
2.2031e-16	1.69004e-14	6.07164e-15	3.37699e-13	3.72455	1.06581e-14
-2.62789e-15	-0.35628	0.40864	-11.3759	-5.91181e-14	6.30015e-13
0.333333	-1.66428e-13	-1.04071e-14	4.48643e-15	1.0639	12.3524
-0.166667	4.418e-14	-5.91772e-15	-2.6006e-13	3.45848	-3.79978
-1.68653e-15	-0.328139	0.388798	-5.49346	-2.99541e-14	3.06809e-13
0.166667	-1.16605e-13	-8.33929e-15	-2.771e-14	0.531848	9.52196
-0.166667	1.89385e-14	-1.07962e-14	-1.80079e-13	2.65956	-1.89988
-8.27599e-16	-6.1079e-15	0.382203	5.84403e-14	-8.28439e-16	-7.11532e-14
4.5298e-15	-1.32554e-13	-6.94437e-15	-2.92097e-14	2.48317e-13	8.57846
-0.166667	-2.2073e-16	-1.99569e-15	-1.55084e-14	2.39314	4.82947e-15
1.45175e-16	0.328139	0.388798	5.49346	3.20869e-14	-4.27796e-13
-0.166667	-1.41456e-13	-7.82581e-15	-3.99225e-14	-0.531848	9.52196
-0.166667	-2.27262e-14	2.855e-15	1.75388e-13	2.65956	1.89988
1.35721e-15	0.35628	0.40864	11.3759	5.41302e-14	-7.19177e-13
-0.333333	-1.49745e-13	-8.25582e-15	-2.67672e-14	-1.0639	12.3524
-0.166667	-3.74778e-14	2.67223e-15	3.30031e-13	3.45848	3.79978
-3.24908e-15	-0.303053	0.715174	-22.0117	-6.63428e-14	5.66349e-13
0.333333	-1.48271e-13	-2.64822e-15	-1.65297e-14	2.12787	9.50282
-0.333333	1.01258e-13	-9.7036e-15	-2.30622e-13	2.66031	-7.59952
-1.68859e-15	-0.308411	0.675672	-10.5601	-1.91767e-14	2.67212e-13
0.166667	-1.22877e-13	-2.81951e-15	-6.32411e-14	1.06374	6.67204
-0.333333	4.63572e-14	-9.32917e-15	-1.6968e-13	1.86072	-3.79957
-1.11938e-15	-1.34991e-14	0.662575	4.74332e-14	1.72867e-14	-7.40545e-14
4.62954e-15	-9.30581e-14	-3.72375e-15	-8.2699e-14	1.67789e-13	5.72832
-0.333333	2.93929e-15	-3.24296e-15	-2.88866e-14	1.59406	-3.80251e-14
-8.33345e-17	0.308411	0.675672	10.5601	5.36378e-14	-4.10113e-13
-0.166667	-1.05344e-13	-3.75883e-15	-8.7012e-14	-1.06374	6.67204
-0.333333	-4.56631e-14	1.77869e-15	1.39565e-13	1.86072	3.79957
4.76842e-16	0.303053	0.715174	22.0117	6.92399e-14	-6.61349e-13
-0.333333	-1.56145e-13	-5.11847e-15	-1.12897e-13	-2.12787	9.50282
-0.333333	-9.37843e-14	-2.03502e-15	2.83917e-13	2.66031	7.59952
-2.45322e-15	-0.243276	0.817352	-30.9494	-6.33773e-14	4.27687e-13
0.333333	-5.83905e-14	3.49867e-15	-6.50916e-14	3.19228	4.75375
-0.5	1.51938e-13	-2.44047e-15	-1.81567e-13	1.33001	-11.399
-2.45816e-15	-0.292096	0.758844	-14.6504	-2.11853e-15	1.96398e-13
0.166667	-1.85889e-14	2.44003e-15	-1.17689e-13	1.59594	1.92179
-0.5	7.30324e-14	-8.0605e-15	-1.39473e-13	0.52928	-5.69843
-1.5261e-15	-2.05155e-14	0.739571	1.0341e-14	4.47346e-14	-9.1877e-14
4.11043e-15	-1.5181e-14	2.08615e-15	-1.60988e-13	3.60892e-14	0.977357
-0.5	4.3261e-16	8.30174e-16	-5.36446e-14	0.262234	-9.25371e-14
-7.49211e-16	0.292096	0.758844	14.6504	7.91968e-14	-3.73943e-13
-0.166667	-3.12576e-14	1.40961e-15	-1.76753e-13	-1.59594	1.92179
-0.5	-7.21979e-14	-3.87919e-15	8.27402e-14	0.52928	5.69843
-1.19987e-16	0.243276	0.817352	30.9494	9.0049e-14	-5.78678e-13
-0.333333	-8.31034e-14	2.31558e-15	-2.07422e-13	-3.19228	4.75375
-0.5	-1.36079e-13	-2.36462e-15	2.16971e-13	1.33001	11.399
-2.92458e-15	-0.2291	0.612436	-36.7352	-4.87752e-14	2.45425e-13
0.333333	2.876e-14	1.05109e-14	-6.85303e-15	4.25811	-1.89467
-0.666667	2.096e-13	-6.80865e-16	-7.54683e-14	-0.532581	-15.1971
-2.27016e-15	-0.308438	0.53702	-16.9464	2.80379e-14	9.83449e-14
0.166667	5.83883e-14	8.05108e-15	-6.73602e-14	2.12937	-4.72971
-0.666667	9.8708e-14	-8.91323e-16	-1.3623e-13	-1.3347	-7.59459
-1.93953e-15	-3.65717e-14	0.512675	4.77916e-15	7.91355e-14	-1.0524e-13
3.76435e-16	6.61546e-14	6.04748e-15	-1.28644e-13	-1.50852e-13	-5.676
-0.666667	5.34556e-15	-1.06241e-15	-7.25739e-14	-1.6018	-1.70697e-13
-1.27638e-15	0.308438	0.53702	16.9464	1.02802e-13	-2.94521e-13
-0.166667	2.70022e-14	8.90634e-15	-1.66639e-13	-2.12937	-4.72971
-0.666667	-8.88695e-14	-2.66594e-15	2.56635e-14	-1.3347	7.59459
2.65453e-16	0.2291	0.612436	36.7352	1.14569e-13	-4.11609e-13
-0.333333	-2.3021e-14	6.18625e-15	-2.20793e-13	-4.25811	-1.89467
-0.666667	-1.88352e-13	-7.60243e-15	1.18867e-13	-0.532581	15.1971
-2.37001e-15	-0.356267	-0.00414072	-36.9357	-2.93988e-14	-7.60728e-14
0.333333	1.90564e-13	1.48266e-14	1.57706e-13	5.32901	-10.4455
-0.833333	2.58769e-13	6.27955e-15	-4.3081e-14	-2.92833	-18.9897
-2.10574e-15	-0.40211	-0.0892649	-16.3004	6.68398e-14	-3.32703e-14
0.166667	2.21937e-13	1.17804e-14	3.87199e-14	2.66511	-13.2846
-0.833333	1.24598e-13	1.53379e-15	-1.24929e-13	-3.73	-9.48628
-2.69224e-15	-5.20952e-14	-0.115568	1.14333e-14	1.15934e-13	-1.32384e-13
-1.44502e-15	2.1716e-13	1.08402e-14	-7.24429e-14	-3.81931e-13	-14.2302
-0.833333	7.49901e-15	1.73472e-16	-1.07046e-13	-3.9968	-3.38507e-13
-1.67978e-15	0.40211	-0.0892649	16.3004	1.36992e-13	-1.85855e-13
-0.166667	2.01176e-13	9.08511e-15	-1.47631e-13	-2.66511	-13.2846
-0.833333	-1.10626e-13	-5.45996e-15	-3.10437e-14	-3.73	9.48628
-5.37656e-16	0.356267	-0.00414072	36.9357	9.62923e-14	-1.03745e-14
-0.333333	1.48264e-13	7.0186e-15	-1.93735e-13	-5.32901	-10.4455
-0.833333	-2.46732e-13	-7.78544e-15	1.38778e-14	-2.92833	18.9897
