# Fnode
0.00333333	0.0366667	-0.0293333	3.21078e-14	0.0586667	0.0733333
1.27289e-16	0.00255434	4.55252e-05	-0.0216519	-3.55924e-14	9.04134e-14
-8.61602e-17	0.000228509	0.00241706	-0.0283866	-3.46988e-15	-8.39823e-14
0.00333333	0.0366667	0.0293333	-4.20809e-14	-0.0586667	0.0733333
-2.38148e-16	0.00255434	-4.55252e-05	0.0216519	4.28135e-14	5.01388e-14
-5.87095e-16	-0.000228509	0.00241706	-0.0283866	9.97141e-15	8.40736e-14
0.00333333	-0.0366667	-0.0293333	4.61488e-14	0.0586667	-0.0733333
4.94803e-16	0.00255434	-4.55252e-05	-0.0216519	2.50077e-14	9.68522e-14
4.67939e-16	-0.000228509	0.00241706	0.0283866	3.71678e-15	6.00246e-14
0.00333333	-0.0366667	0.0293333	-3.342e-14	-0.0586667	-0.0733333
-2.03447e-16	0.00255434	4.55252e-05	0.0216519	-2.10003e-14	4.43683e-15
2.58665e-16	0.000228509	0.00241706	0.0283866	3.40559e-14	-1.00794e-13
0.00666667	0.0733333	0.048	-3.06347e-14	-0.096	0.146667
-1.22445e-16	0.00485596	-0.000144561	0.0317279	2.37259e-14	1.5775e-13
-5.55721e-17	-0.000311451	0.00573857	-0.057484	-3.18955e-14	2.72145e-14
0.00666667	0.0733333	0.016	-1.5648e-14	-0.032	0.146667
-5.01003e-17	0.00441122	-1.49561e-05	0.00795871	1.20158e-14	7.21784e-14
-1.99915e-16	-0.000228331	0.00903316	-0.0921592	-4.24395e-14	2.56399e-14
0.00666667	0.0733333	-0.016	9.29863e-15	0.032	0.146667
2.97129e-16	0.00441122	1.49561e-05	-0.00795871	-6.50187e-15	1.04404e-13
-1.8931e-16	0.000228331	0.00903316	-0.0921592	8.13748e-16	3.43772e-14
0.00666667	0.0733333	-0.048	2.84849e-14	0.096	0.146667
8.1654e-19	0.00485596	0.000144561	-0.0317279	-1.61353e-14	1.10647e-13
-7.82455e-17	0.000311451	0.00573857	-0.057484	-2.88676e-14	1.09553e-14
0.00666667	0.06	-0.0586667	6.30936e-14	0.117333	0.12
3.17908e-17	0.00582879	6.4613e-05	-0.0431293	-1.64633e-14	-1.49459e-14
2.35828e-16	0.000468563	0.00470093	-0.0431583	3.98723e-15	-3.50143e-14
0.00666667	0.02	-0.0586667	4.76575e-14	0.117333	0.04
-1.18916e-16	0.00922863	6.19322e-05	-0.0725045	-1.09567e-14	-3.38642e-14
2.0773e-16	8.95746e-05	0.00444406	-0.0119763	-2.36751e-14	-2.07194e-14
0.00666667	-0.02	-0.0586667	4.51492e-14	0.117333	-0.04
-8.63127e-17	0.00922863	-6.19322e-05	-0.0725045	-6.61759e-15	1.095e-13
1.692e-16	-8.95746e-05	0.00444406	0.0119763	5.84096e-14	6.43959e-15
0.00666667	-0.06	-0.0586667	3.9481e-14	0.117333	-0.12
1.35136e-16	0.00582879	-6.4613e-05	-0.0431293	4.29995e-15	-6.58019e-14
2.11389e-16	-0.000468563	0.00470093	0.0431583	-2.36688e-14	2.42401e-14
0.00666667	-0.0733333	0.048	-4.44009e-14	-0.096	-0.146667
-1.91182e-16	0.00485596	0.000144561	0.0317279	4.92616e-15	1.00197e-14
2.46293e-16	0.000311451	0.00573857	0.057484	-5.1901e-14	-3.18085e-14
0.00666667	-0.0733333	0.016	-3.29381e-15	-0.032	-0.146667
-3.90896e-16	0.00441122	1.49561e-05	0.00795871	6.85509e-15	6.97495e-14
-3.58729e-17	0.000228331	0.00903316	0.0921592	-2.32725e-14	-1.44327e-14
0.00666667	-0.0733333	-0.016	9.15021e-15	0.032	-0.146667
-1.0554e-16	0.00441122	-1.49561e-05	-0.00795871	1.90951e-14	4.64895e-14
2.23863e-17	-0.000228331	0.00903316	0.0921592	2.31901e-14	-2.75932e-14
0.00666667	-0.0733333	-0.048	2.75022e-14	0.096	-0.146667
-1.6415e-16	0.00485596	-0.000144561	-0.0317279	1.58093e-14	9.8867e-14
2.65396e-16	-0.000311451	0.00573857	0.057484	-1.72645e-14	-7.59833e-15
0.00666667	0.06	0.0586667	-5.96979e-14	-0.117333	0.12
1.01644e-18	0.00582879	-6.4613e-05	0.0431293	1.17774e-14	-3.38252e-14
9.88606e-17	-0.000468563	0.00470093	-0.0431583	3.64075e-14	5.66639e-14
0.00666667	0.02	0.0586667	-4.68656e-14	-0.117333	0.04
1.00506e-16	0.00922863	-6.19322e-05	0.0725045	5.00791e-15	-6.75989e-14
3.23177e-16	-8.95746e-05	0.00444406	-0.0119763	3.18425e-14	1.10307e-14
0.00666667	-0.02	0.0586667	-4.23249e-14	-0.117333	-0.04
1.84507e-16	0.00922863	6.19322e-05	0.0725045	2.07721e-15	-1.31803e-13
-7.09814e-18	8.95746e-05	0.00444406	0.0119763	6.30592e-15	-2.64377e-14
0.00666667	-0.06	0.0586667	-3.94151e-14	-0.117333	-0.12
1.48454e-16	0.00582879	6.4613e-05	0.0431293	-1.45364e-16	-7.68483e-14
-1.33343e-16	0.000468563	0.00470093	0.0431583	6.06289e-14	-6.3164e-14
0.0133333	0.12	0.096	-4.62386e-14	-0.192	0.24
2.39283e-16	0.0116494	-0.000233826	0.081047	1.68331e-14	-9.16978e-14
-4.25693e-17	-0.000701933	0.0114262	-0.101746	-2.77184e-14	2.22123e-14
0.0133333	0.04	0.096	-4.6238e-14	-0.192	0.08
1.56555e-16	0.0180877	-0.000127675	0.122765	-6.57602e-17	-6.36132e-14
8.15269e-17	-0.000168094	0.0108904	-0.0304604	2.2612e-14	6.87822e-15
0.0133333	-0.04	0.096	-4.23804e-14	-0.192	-0.08
1.93779e-16	0.0180877	0.000127675	0.122765	1.26883e-15	-3.87015e-14
-5.96481e-17	0.000168094	0.0108904	0.0304604	8.57527e-14	5.99564e-16
0.0133333	-0.12	0.096	-4.36688e-14	-0.192	-0.24
-5.5955e-17	0.0116494	0.000233826	0.081047	-1.31382e-15	1.19159e-13
2.19136e-16	0.000701933	0.0114262	0.101746	4.88492e-14	-1.58943e-14
0.0133333	0.12	0.032	-1.67974e-14	-0.064	0.24
1.48512e-16	0.0105764	-3.79963e-05	0.0215077	3.80058e-15	1.45917e-13
-4.26388e-17	-0.000395862	0.0178421	-0.152339	4.79358e-15	1.87126e-14
0.0133333	0.04	0.032	-1.50843e-14	-0.064	0.08
4.33451e-16	0.0165447	-2.28593e-05	0.034075	-5.67772e-15	-1.41675e-13
-1.40689e-16	-9.99014e-05	0.0170979	-0.0472061	-9.17051e-15	8.67219e-15
0.0133333	-0.04	0.032	-1.46552e-14	-0.064	-0.08
2.55851e-16	0.0165447	2.28593e-05	0.034075	-3.72723e-15	-1.68816e-13
1.02773e-16	9.99014e-05	0.0170979	0.0472061	1.44752e-15	4.81032e-15
0.0133333	-0.12	0.032	-1.05824e-14	-0.064	-0.24
-7.67903e-17	0.0105764	3.79963e-05	0.0215077	6.91619e-15	4.27589e-14
6.63549e-17	0.000395862	0.0178421	0.152339	-1.10148e-13	-1.35025e-14
0.0133333	0.12	-0.032	1.26854e-14	0.064	0.24
-2.86954e-16	0.0105764	3.79963e-05	-0.0215077	-3.36801e-15	-1.66713e-14
-3.52201e-17	0.000395862	0.0178421	-0.152339	-6.20591e-14	4.41881e-14
0.0133333	0.04	-0.032	1.58445e-14	0.064	0.08
3.04297e-16	0.0165447	2.28593e-05	-0.034075	-5.03461e-15	3.19213e-14
-1.78956e-16	9.99014e-05	0.0170979	-0.0472061	5.17678e-14	2.17389e-14
0.0133333	-0.04	-0.032	1.90205e-14	0.064	-0.08
-2.2199e-17	0.0165447	-2.28593e-05	-0.034075	-8.33466e-15	1.66787e-14
8.78123e-17	-9.99014e-05	0.0170979	0.0472061	-6.03004e-14	-7.872e-15
0.0133333	-0.12	-0.032	1.77633e-14	0.064	-0.24
3.52213e-17	0.0105764	-3.79963e-05	-0.0215077	2.29964e-15	1.08792e-14
2.28413e-16	-0.000395862	0.0178421	0.152339	-2.1544e-14	-3.18353e-14
0.0133333	0.12	-0.096	4.98136e-14	0.192	0.24
9.01243e-18	0.0116494	0.000233826	-0.081047	-1.57694e-14	-1.27298e-13
1.20657e-16	0.000701933	0.0114262	-0.101746	-4.14451e-14	1.53402e-14
0.0133333	0.04	-0.096	4.88539e-14	0.192	0.08
-3.254e-17	0.0180877	0.000127675	-0.122765	-9.24064e-15	-1.29002e-13
3.26613e-16	0.000168094	0.0108904	-0.0304604	2.00104e-13	1.43998e-15
0.0133333	-0.04	-0.096	4.91351e-14	0.192	-0.08
1.48921e-16	0.0180877	-0.000127675	-0.122765	-1.29861e-14	-1.6038e-13
1.17612e-16	-0.000168094	0.0108904	0.0304604	-1.16402e-14	-7.5923e-15
0.0133333	-0.12	-0.096	4.71343e-14	0.192	-0.24
-2.18557e-16	0.0116494	-0.000233826	-0.081047	-3.69098e-15	-9.68073e-15
-1.2841e-18	-0.000701933	0.0114262	0.101746	1.03153e-14	5.39331e-15
-0.0133333	-0.173333	-0.128	1.02071e-14	0.256	-0.346667
-3.59061e-16	-0.0051547	0.000302387	-0.0497066	6.40493e-14	1.57943e-13
-1.51524e-16	0.00135664	-0.00760556	0.10997	-7.69581e-14	-1.05351e-14
-0.0133333	-0.173333	-0.064	1.69036e-14	0.128	-0.346667
-4.46366e-16	-0.00438755	2.96108e-05	-0.0163302	2.2823e-14	1.00818e-13
1.07711e-16	0.00144042	-0.017519	0.221442	-2.77904e-14	6.31751e-15
-0.0133333	-0.173333	1.31561e-16	2.47144e-15	-1.0607e-14	-0.346667
-1.34658e-16	-0.00421641	1.55503e-16	3.11731e-15	1.43447e-15	1.23566e-13
2.54133e-17	-2.56335e-15	-0.0208027	0.25014	1.62632e-14	-2.51722e-14
-0.0133333	-0.173333	0.064	-1.48249e-14	-0.128	-0.346667
2.53161e-17	-0.00438755	-2.96108e-05	0.0163302	-1.22654e-14	9.99797e-14
-5.34872e-17	-0.00144042	-0.017519	0.221442	9.57134e-16	-4.91095e-14
-0.0133333	-0.173333	0.128	-4.53023e-14	-0.256	-0.346667
-2.78464e-16	-0.0051547	-0.000302387	0.0497066	-3.94116e-14	1.93704e-13
6.79659e-18	-0.00135664	-0.00760556	0.10997	-3.80839e-14	4.37963e-15
-0.0133333	-0.16	0.138667	6.05635e-15	-0.277333	-0.32
-3.02289e-17	-0.00818926	-0.000472503	0.0879762	8.98717e-15	-1.35672e-13
2.33036e-16	-0.000911492	-0.00503936	0.0670194	1.41744e-14	-1.96072e-13
-0.0133333	-0.08	0.138667	5.65086e-16	-0.277333	-0.16
2.28347e-16	-0.0185852	-0.000524967	0.187912	-3.62966e-15	-3.69233e-14
4.35565e-16	-0.000189865	-0.00457678	0.0247612	-1.78286e-15	-6.43844e-14
-0.0133333	-1.61434e-15	0.138667	-1.53591e-14	-0.277333	-9.89775e-15
4.64794e-16	-0.0220459	-5.55805e-16	0.216345	2.75694e-15	-6.34445e-14
9.33566e-17	-1.73564e-15	-0.00447289	-2.25058e-14	2.24399e-14	-5.44393e-15
-0.0133333	0.08	0.138667	-2.84354e-14	-0.277333	0.16
4.17166e-16	-0.0185852	0.000524967	0.187912	1.24359e-14	-7.44178e-14
2.27499e-16	0.000189865	-0.00457678	-0.0247612	3.75587e-14	5.16207e-14
-0.0133333	0.16	0.138667	-2.51958e-14	-0.277333	0.32
1.15901e-16	-0.00818926	0.000472503	0.0879762	-1.15682e-14	-1.43434e-13
5.4366e-16	0.000911492	-0.00503936	-0.0670194	3.6215e-14	1.58662e-13
-0.0133333	0.173333	-0.128	-1.92381e-15	0.256	0.346667
-5.82264e-16	-0.0051547	-0.000302387	-0.0497066	-2.87472e-14	1.61221e-13
-1.26585e-16	-0.00135664	-0.00760556	-0.10997	-1.1315e-14	3.38481e-14
-0.0133333	0.173333	-0.064	-1.164e-14	0.128	0.346667
-4.27203e-16	-0.00438755	-2.96108e-05	-0.0163302	1.30686e-15	1.07889e-13
-1.68021e-16	-0.00144042	-0.017519	-0.221442	-1.74524e-15	-5.32242e-15
-0.0133333	0.173333	-7.35779e-16	4.54163e-15	1.22279e-14	0.346667
-5.23534e-16	-0.00421641	-1.13409e-15	3.16811e-15	1.00878e-14	1.59906e-13
-2.69025e-16	2.19138e-15	-0.0208027	-0.25014	-6.64659e-15	3.47405e-14
-0.0133333	0.173333	0.064	2.30718e-16	-0.128	0.346667
5.55789e-17	-0.00438755	2.96108e-05	0.0163302	2.99184e-14	8.23354e-14
-1.04616e-16	0.00144042	-0.017519	-0.221442	-1.13472e-14	4.21458e-14
-0.0133333	0.173333	0.128	1.52309e-15	-0.256	0.346667
4.62988e-16	-0.0051547	0.000302387	0.0497066	5.80224e-14	1.6065e-13
-2.77131e-16	0.00135664	-0.00760556	-0.10997	-4.79334e-14	2.98207e-15
-0.0133333	-0.16	-0.138667	6.8064e-15	0.277333	-0.32
1.47011e-16	-0.00818926	0.000472503	-0.0879762	-1.92504e-14	-1.64966e-13
-9.86624e-18	0.000911492	-0.00503936	0.0670194	4.35145e-14	1.53279e-13
-0.0133333	-0.08	-0.138667	9.46183e-15	0.277333	-0.16
-9.75668e-17	-0.0185852	0.000524967	-0.187912	4.31733e-15	-3.6552e-14
1.61173e-16	0.000189865	-0.00457678	0.0247612	1.81343e-14	4.99663e-14
-0.0133333	1.85943e-15	-0.138667	2.36421e-14	0.277333	2.30375e-15
-2.83009e-16	-0.0220459	9.66441e-16	-0.216345	-9.74894e-15	2.1292e-14
-8.76171e-18	3.85646e-16	-0.00447289	-1.82619e-14	1.79608e-14	-1.32865e-14
-0.0133333	0.08	-0.138667	2.5024e-14	0.277333	0.16
-2.22765e-16	-0.0185852	-0.000524967	-0.187912	-9.65196e-15	-9.1815e-14
-6.0634e-17	-0.000189865	-0.00457678	-0.0247612	8.15027e-15	-6.99502e-14
-0.0133333	0.16	-0.138667	2.32292e-14	0.277333	0.32
1.81458e-16	-0.00818926	-0.000472503	-0.0879762	1.33719e-15	-1.47188e-13
2.96733e-17	-0.000911492	-0.00503936	-0.0670194	-1.31091e-15	-1.8075e-13
-0.0266667	-0.32	-0.192	3.80295e-14	0.384	-0.64
2.27738e-16	-0.0142749	0.000320047	-0.0891776	-1.6383e-14	-1.32335e-13
-2.13046e-17	0.00269931	-0.0257773	0.310332	-1.82783e-14	2.91279e-15
-0.0266667	-0.24	-0.256	5.74562e-14	0.512	-0.48
-2.03095e-16	-0.0269231	0.000874855	-0.247182	6.68553e-15	2.84295e-14
-5.00508e-17	0.00123315	-0.0140954	0.12492	-7.58506e-14	-1.13549e-14
-0.0266667	-0.16	-0.192	4.64603e-14	0.384	-0.32
-3.18071e-16	-0.0333714	0.000440271	-0.214951	-3.98593e-15	5.41644e-14
-1.08996e-17	0.000846844	-0.0239279	0.130637	3.82514e-14	-1.10441e-14
-0.0266667	-0.08	-0.256	5.31311e-14	0.512	-0.16
-3.86193e-16	-0.0404587	0.00044837	-0.361744	-1.33651e-14	5.12641e-14
-4.53139e-17	0.00027391	-0.0133737	0.0355414	-1.30683e-14	-9.96525e-15
-0.0266667	3.55007e-15	-0.192	3.72884e-14	0.384	3.79005e-14
-2.96209e-16	-0.0399559	1.80987e-15	-0.255575	-6.85927e-15	1.0175e-14
1.02423e-16	3.99819e-16	-0.0233981	-4.64809e-15	-1.66967e-16	-5.8585e-15
-0.0266667	0.08	-0.256	5.4902e-14	0.512	0.16
-4.8348e-16	-0.0404587	-0.00044837	-0.361744	-2.12046e-14	4.71819e-14
-1.01593e-16	-0.00027391	-0.0133737	-0.0355414	-4.0944e-14	1.73975e-14
-0.0266667	0.16	-0.192	4.95585e-14	0.384	0.32
-4.54868e-16	-0.0333714	-0.000440271	-0.214951	-9.87773e-15	-6.25214e-14
-1.31107e-16	-0.000846844	-0.0239279	-0.130637	-2.43318e-14	-8.82917e-15
-0.0266667	0.24	-0.256	4.53144e-14	0.512	0.48
-4.90147e-16	-0.0269231	-0.000874855	-0.247182	-2.04976e-14	2.77024e-14
-2.29127e-16	-0.00123315	-0.0140954	-0.12492	-5.26374e-14	2.2803e-14
-0.0266667	0.32	-0.192	3.41554e-14	0.384	0.64
1.659e-16	-0.0142749	-0.000320047	-0.0891776	-2.58531e-15	-2.52513e-15
-2.99653e-16	-0.00269931	-0.0257773	-0.310332	-2.89651e-14	-8.51191e-15
-0.0266667	-0.32	-0.064	1.32986e-14	0.128	-0.64
2.767e-16	-0.0130556	4.93269e-05	-0.0229582	-1.78e-14	-2.0073e-14
4.79234e-17	0.00133455	-0.0388316	0.435191	3.98596e-14	-4.82534e-14
-0.0266667	-0.24	-0.128	3.0434e-14	0.256	-0.48
1.17568e-17	-0.0233499	0.00016831	-0.0884756	6.3518e-15	7.91118e-14
2.15333e-16	0.00158027	-0.0332725	0.282137	2.63181e-14	-1.19009e-14
-0.0266667	-0.16	-0.064	1.21663e-14	0.128	-0.32
1.00102e-17	-0.0306102	7.58628e-05	-0.0585966	-5.20901e-15	-7.1403e-14
1.86072e-17	0.000473105	-0.0365179	0.196946	1.50895e-14	-1.21417e-14
-0.0266667	-0.08	-0.128	2.7537e-14	0.256	-0.16
-2.45953e-16	-0.0355677	0.00010047	-0.139557	-3.33964e-15	5.86449e-14
9.05021e-17	0.000400408	-0.03185	0.0863221	7.25123e-14	9.12031e-16
-0.0266667	-9.59798e-17	-0.064	1.36939e-14	0.128	8.77862e-15
-2.55093e-16	-0.0367731	-6.08126e-16	-0.0714501	-4.66035e-15	-6.60973e-15
-3.70323e-17	-8.61145e-16	-0.0357842	2.60173e-15	5.66832e-14	4.25839e-15
-0.0266667	0.08	-0.128	2.28209e-14	0.256	0.16
-3.79601e-16	-0.0355677	-0.00010047	-0.139557	-1.14555e-14	-4.52329e-15
-1.77763e-16	-0.000400408	-0.03185	-0.0863221	-7.36368e-14	7.71755e-15
-0.0266667	0.16	-0.064	1.32549e-14	0.128	0.32
-8.07248e-17	-0.0306102	-7.58628e-05	-0.0585966	-5.71667e-15	2.81154e-13
-1.92096e-16	-0.000473105	-0.0365179	-0.196946	2.58933e-14	2.47898e-14
-0.0266667	0.24	-0.128	2.02973e-14	0.256	0.48
-3.61459e-16	-0.0233499	-0.00016831	-0.0884756	-9.53636e-15	2.03693e-14
-2.81331e-16	-0.00158027	-0.0332725	-0.282137	3.20917e-14	1.98084e-14
-0.0266667	0.32	-0.064	7.53022e-15	0.128	0.64
1.55394e-16	-0.0130556	-4.93269e-05	-0.0229582	-1.0161e-14	-5.47181e-14
-4.35346e-16	-0.00133455	-0.0388316	-0.435191	-7.23863e-14	4.6452e-14
-0.0266667	-0.32	0.064	-1.95291e-14	-0.128	-0.64
-2.36819e-16	-0.0130556	-4.93269e-05	0.0229582	-7.82438e-15	-6.9431e-14
1.54804e-16	-0.00133455	-0.0388316	0.435191	-4.85397e-15	-6.71336e-14
-0.0266667	-0.24	9.19602e-16	1.482e-15	-2.65763e-14	-0.48
-2.59599e-17	-0.0224463	-1.83658e-17	3.0479e-16	1.76901e-15	-7.29364e-15
-4.75421e-17	-5.85141e-15	-0.0397498	0.326685	-6.09768e-14	-4.89289e-14
-0.0266667	-0.16	0.064	-1.28703e-14	-0.128	-0.32
3.15064e-16	-0.0306102	-7.58628e-05	0.0585966	-2.17673e-15	-4.62473e-14
7.99176e-18	-0.000473105	-0.0365179	0.196946	2.49945e-14	-3.06555e-14
-0.0266667	-0.08	-1.29469e-15	3.32328e-16	2.70583e-16	-0.16
1.43145e-16	-0.0341802	3.01064e-16	-4.01099e-15	-6.90467e-15	4.42073e-14
-6.34686e-17	-5.94438e-16	-0.0381994	0.102389	-3.10897e-14	-1.52993e-14
-0.0266667	-9.53581e-16	0.064	-1.18155e-14	-0.128	-9.97501e-15
-1.47925e-16	-0.0367731	2.81214e-16	0.0714501	3.95332e-15	-1.22599e-13
-1.55524e-16	1.04048e-15	-0.0357842	-2.55848e-15	4.33774e-14	-1.20373e-14
-0.0266667	0.08	-1.17274e-15	2.29652e-15	1.10722e-14	0.16
-9.00803e-17	-0.0341802	-5.68832e-16	-4.12115e-15	1.97127e-15	-3.52791e-14
-2.35847e-16	9.50597e-16	-0.0381994	-0.102389	-9.5721e-14	1.68674e-14
-0.0266667	0.16	0.064	-9.21116e-15	-0.128	0.32
-7.76856e-17	-0.0306102	7.58628e-05	0.0585966	6.55682e-15	-1.26295e-13
-1.70557e-16	0.000473105	-0.0365179	-0.196946	-2.03594e-14	3.46886e-14
-0.0266667	0.24	-1.07648e-15	4.06143e-15	2.84636e-14	0.48
-1.87354e-16	-0.0224463	-5.90528e-16	2.60616e-15	1.36151e-15	1.20396e-14
-1.57292e-16	2.58432e-15	-0.0397498	-0.326685	-2.38631e-14	5.04595e-14
-0.0266667	0.32	0.064	-9.5696e-15	-0.128	0.64
4.43374e-17	-0.0130556	4.93269e-05	0.0229582	-9.34411e-15	-2.50689e-13
-2.51381e-16	0.00133455	-0.0388316	-0.435191	-1.75541e-14	7.06392e-14
-0.0266667	-0.32	0.192	-4.2988e-14	-0.384	-0.64
-1.78031e-16	-0.0142749	-0.000320047	0.0891776	-4.99644e-15	-1.73771e-13
2.80138e-16	-0.00269931	-0.0257773	0.310332	-3.11888e-14	-8.65727e-14
-0.0266667	-0.24	0.128	-2.44004e-14	-0.256	-0.48
1.44544e-16	-0.0233499	-0.00016831	0.0884756	-6.74036e-15	3.78907e-15
6.90129e-17	-0.00158027	-0.0332725	0.282137	-2.80832e-14	-7.27813e-14
-0.0266667	-0.16	0.192	-3.86203e-14	-0.384	-0.32
3.02835e-16	-0.0333714	-0.000440271	0.214951	-7.80471e-15	-1.76155e-13
2.25402e-16	-0.000846844	-0.0239279	0.130637	-1.02148e-14	-3.0518e-14
-0.0266667	-0.08	0.128	-2.87318e-14	-0.256	-0.16
1.91463e-16	-0.0355677	-0.00010047	0.139557	-3.12666e-15	-5.47873e-14
8.78555e-17	-0.000400408	-0.03185	0.0863221	-4.15017e-14	-2.63107e-14
-0.0266667	-3.02106e-15	0.192	-4.12609e-14	-0.384	-3.06977e-14
2.08832e-16	-0.0399559	-9.74197e-16	0.255575	8.50943e-15	-1.29717e-13
2.10755e-16	4.66473e-16	-0.0233981	-2.76442e-15	-2.13692e-14	1.9965e-15
-0.0266667	0.08	0.128	-2.28004e-14	-0.256	0.16
1.99606e-16	-0.0355677	0.00010047	0.139557	2.07279e-15	-7.61537e-14
-9.83676e-17	0.000400408	-0.03185	-0.0863221	-9.62425e-15	2.38826e-14
-0.0266667	0.16	0.192	-5.23031e-14	-0.384	0.32
3.91998e-16	-0.0333714	0.000440271	0.214951	1.93392e-14	-1.60625e-13
8.87691e-18	0.000846844	-0.0239279	-0.130637	1.32946e-14	3.20904e-14
-0.0266667	0.24	0.128	-1.9912e-14	-0.256	0.48
2.98037e-16	-0.0233499	0.00016831	0.0884756	7.74227e-15	-7.07648e-14
-2.32156e-16	0.00158027	-0.0332725	-0.282137	-1.33867e-13	8.00134e-14
-0.0266667	0.32	0.192	-3.25543e-14	-0.384	0.64
6.3063e-16	-0.0142749	0.000320047	0.0891776	-2.09603e-15	-9.93789e-14
-8.76679e-17	0.00269931	-0.0257773	-0.310332	-1.21218e-14	8.29555e-14
-0.0266667	-0.24	0.256	-7.12791e-14	-0.512	-0.48
1.12642e-16	-0.0269231	-0.000874855	0.247182	-7.60874e-15	-1.46957e-14
-1.74579e-16	-0.00123315	-0.0140954	0.12492	-3.31536e-14	-3.60026e-15
-0.0266667	-0.08	0.256	-5.61933e-14	-0.512	-0.16
7.26466e-17	-0.0404587	-0.00044837	0.361744	6.61132e-15	-2.48629e-14
-1.34965e-16	-0.00027391	-0.0133737	0.0355414	-2.4272e-14	2.95238e-15
-0.0266667	0.08	0.256	-5.04281e-14	-0.512	0.16
3.31339e-16	-0.0404587	0.00044837	0.361744	1.63654e-14	-7.13819e-14
-1.26281e-16	0.00027391	-0.0133737	-0.0355414	-2.72439e-14	8.57234e-15
-0.0266667	0.24	0.256	-4.38519e-14	-0.512	0.48
2.261e-16	-0.0269231	0.000874855	0.247182	1.74782e-14	-3.14358e-14
-1.37174e-16	0.00123315	-0.0140954	-0.12492	-5.55879e-14	2.54362e-14
-0.00333333	2.11304e-14	2.4542e-15	2.15661e-14	-0.0586667	-0.0733333
6.59195e-17	-0.00255434	-4.55252e-05	0.0216519	-3.60822e-15	-8.79852e-15
-1.04083e-17	-0.000228509	-0.00241706	0.0283866	-8.21565e-15	-2.66454e-15
-0.00333333	2.1114e-14	-1.71998e-15	-4.10783e-15	0.0586667	-0.0733333
1.00614e-16	-0.00255434	4.55252e-05	-0.0216519	-3.4972e-15	-1.62578e-14
0	0.000228509	-0.00241706	0.0283866	-1.37529e-14	2.90878e-14
-0.00333333	-2.10233e-14	9.48894e-16	4.05231e-15	-0.0586667	0.0733333
3.81639e-17	-0.00255434	4.55252e-05	0.0216519	-6.10623e-15	1.73472e-15
-2.86229e-17	0.000228509	-0.00241706	-0.0283866	-9.0275e-15	1.67227e-14
-0.00333333	-2.06796e-14	-2.52055e-15	-2.12677e-14	0.0586667	0.0733333
7.84962e-17	-0.00255434	-4.55252e-05	-0.0216519	-3.73312e-15	-2.53131e-14
-4.92228e-17	-0.000228509	-0.00241706	-0.0283866	-3.69843e-15	-1.66603e-14
-0.00666667	2.27353e-14	-3.11166e-16	5.19723e-15	0.096	-0.146667
2.498e-16	-0.00485596	0.000144561	-0.0317279	-6.92502e-15	-1.76525e-14
1.00614e-16	0.000311451	-0.00573857	0.057484	-1.02713e-14	9.35363e-15
-0.00666667	2.26208e-14	4.91577e-16	8.81586e-15	0.032	-0.146667
4.94396e-17	-0.00441122	1.49561e-05	-0.00795871	-6.09755e-15	-9.45077e-15
1.088e-16	0.000228331	-0.00903316	0.0921592	-1.1522e-14	4.24747e-15
-0.00666667	2.19616e-14	1.35981e-15	1.25663e-14	-0.032	-0.146667
1.47885e-16	-0.00441122	-1.49561e-05	0.00795871	-7.18869e-15	-6.38378e-15
1.54282e-16	-0.000228331	-0.00903316	0.0921592	-1.17181e-14	7.48533e-15
-0.00666667	2.10353e-14	1.84987e-15	1.3059e-14	-0.096	-0.146667
6.245e-17	-0.00485596	-0.000144561	0.0317279	-4.96825e-15	-9.47853e-15
1.30104e-16	-0.000311451	-0.00573857	0.057484	-1.06373e-14	7.99361e-15
-0.00666667	1.36846e-14	3.68369e-15	1.58762e-14	-0.117333	-0.12
9.02056e-17	-0.00582879	-6.4613e-05	0.0431293	-5.2458e-15	-1.71183e-14
-1.56125e-16	-0.000468563	-0.00470093	0.0431583	-1.1182e-14	3.38618e-15
-0.00666667	4.37779e-15	1.47105e-15	1.03979e-14	-0.117333	-0.04
1.15169e-16	-0.00922863	-6.19322e-05	0.0725045	-2.26295e-15	-2.63504e-14
-1.79544e-16	-8.95746e-05	-0.00444406	0.0119763	-1.29965e-14	5.23193e-15
-0.00666667	-5.03287e-15	2.01401e-15	5.47132e-15	-0.117333	0.04
1.14871e-16	-0.00922863	6.19322e-05	0.0725045	-2.40953e-15	-2.06883e-14
-8.78204e-17	8.95746e-05	-0.00444406	-0.0119763	-1.29202e-14	1.00319e-14
-0.00666667	-1.43288e-14	7.25114e-16	1.36002e-15	-0.117333	0.12
2.77556e-17	-0.00582879	6.4613e-05	0.0431293	-3.91354e-15	-1.52101e-14
-1.97325e-17	0.000468563	-0.00470093	-0.0431583	-1.42733e-14	1.43739e-14
-0.00666667	-2.06935e-14	-1.89475e-15	-1.40235e-14	0.096	0.146667
6.1149e-17	-0.00485596	-0.000144561	-0.0317279	-3.85456e-15	-1.97758e-14
4.33681e-18	-0.000311451	-0.00573857	-0.057484	-6.18949e-15	-6.37164e-15
-0.00666667	-2.12417e-14	-1.4718e-15	-1.28456e-14	0.032	0.146667
8.76035e-17	-0.00441122	-1.49561e-05	-0.00795871	-6.10449e-15	-1.59456e-14
-1.90345e-16	-0.000228331	-0.00903316	-0.0921592	-5.91541e-15	-3.77042e-15
-0.00666667	-2.10856e-14	-5.98263e-16	-1.08472e-14	-0.032	0.146667
6.54858e-17	-0.00441122	1.49561e-05	0.00795871	-6.84695e-15	-8.90954e-15
-1.99575e-16	0.000228331	-0.00903316	-0.0921592	-5.4106e-15	-5.59448e-15
-0.00666667	-2.22235e-14	1.11456e-16	-5.46785e-15	-0.096	0.146667
8.63025e-17	-0.00485596	0.000144561	0.0317279	-7.38298e-15	-1.24484e-14
-2.20093e-17	0.000311451	-0.00573857	-0.057484	-9.49414e-15	-1.30972e-15
-0.00666667	1.46691e-14	-3.1572e-16	-1.249e-15	0.117333	-0.12
-2.94903e-17	-0.00582879	6.4613e-05	-0.0431293	-3.60822e-16	-3.52288e-14
5.29091e-17	0.000468563	-0.00470093	0.0431583	-1.59942e-14	2.18159e-14
-0.00666667	5.32842e-15	-1.05992e-15	-5.73153e-15	0.117333	-0.04
-1.34712e-16	-0.00922863	6.19322e-05	-0.0725045	1.02305e-15	-3.59573e-14
4.74881e-17	8.95746e-05	-0.00444406	0.0119763	-1.01447e-14	1.35326e-14
-0.00666667	-3.75307e-15	-1.76768e-15	-1.19037e-14	0.117333	0.04
-9.5342e-17	-0.00922863	-6.19322e-05	-0.0725045	8.66494e-16	-3.52912e-14
2.38524e-17	-8.95746e-05	-0.00444406	-0.0119763	-8.65974e-15	3.72619e-15
-0.00666667	-1.29627e-14	-2.3679e-15	-1.74305e-14	0.117333	0.12
-7.53521e-18	-0.00582879	-6.4613e-05	-0.0431293	-3.29597e-16	-3.76574e-14
-9.56266e-17	-0.000468563	-0.00470093	-0.0431583	-6.64052e-15	-3.55965e-15
-0.0133333	1.68962e-14	9.30679e-16	1.39749e-14	0.192	-0.24
6.93889e-17	-0.0116494	0.000233826	-0.081047	-5.05151e-15	-2.86507e-14
1.96891e-16	0.000701933	-0.0114262	0.101746	-1.01735e-15	9.65894e-15
-0.0133333	7.13882e-15	-7.07767e-16	8.90694e-15	0.192	-0.08
-1.30646e-16	-0.0180877	0.000127675	-0.122765	-2.88658e-15	-3.24463e-14
2.53161e-17	0.000168094	-0.0108904	0.0304604	-1.05055e-14	4.05665e-15
-0.0133333	-2.81285e-15	-1.69309e-15	8.18789e-16	0.192	0.08
-1.80274e-16	-0.0180877	-0.000127675	-0.122765	-1.44459e-15	-3.72133e-14
-2.25894e-16	-0.000168094	-0.0108904	-0.0304604	-1.2039e-14	4.26083e-15
-0.0133333	-1.31822e-14	-2.26034e-15	-7.74381e-15	0.192	0.24
-5.96311e-18	-0.0116494	-0.000233826	-0.081047	-1.52049e-15	-1.91722e-14
-3.30953e-17	-0.000701933	-0.0114262	-0.101746	-1.10051e-14	1.21149e-15
-0.0133333	1.59924e-14	1.15619e-15	1.2431e-14	0.064	-0.24
1.13136e-16	-0.0105764	3.79963e-05	-0.0215077	-3.69409e-15	-4.29032e-14
1.34441e-16	0.000395862	-0.0178421	0.152339	-7.68829e-15	2.09902e-16
-0.0133333	5.64783e-15	1.94289e-16	4.87414e-15	0.064	-0.08
-4.74067e-17	-0.0165447	2.28593e-05	-0.034075	-4.8312e-16	-4.53179e-14
8.16404e-17	9.99014e-05	-0.0170979	0.0472061	-1.1012e-14	4.25441e-16
-0.0133333	-4.27523e-15	-6.64399e-16	-3.34281e-15	0.064	0.08
-3.13334e-17	-0.0165447	-2.28593e-05	-0.034075	-3.93999e-16	-4.44297e-14
-1.13841e-17	-9.99014e-05	-0.0170979	-0.0472061	-6.59542e-15	2.44011e-15
-0.0133333	-1.41206e-14	-1.5335e-15	-1.09322e-14	0.064	0.24
6.93889e-18	-0.0105764	-3.79963e-05	-0.0215077	-3.04444e-15	-3.75255e-14
-1.62441e-16	-0.000395862	-0.0178421	-0.152339	-1.99216e-14	2.58907e-15
-0.0133333	1.56455e-14	1.93942e-15	9.32934e-15	-0.064	-0.24
-1.82661e-16	-0.0105764	-3.79963e-05	0.0215077	-4.22752e-15	-3.1232e-14
2.34838e-16	-0.000395862	-0.0178421	0.152339	-8.51749e-15	4.96825e-15
-0.0133333	4.75141e-15	9.2721e-16	1.48796e-15	-0.064	-0.08
3.05528e-16	-0.0165447	-2.28593e-05	0.034075	-8.7777e-16	-3.87815e-14
1.92175e-17	-9.99014e-05	-0.0170979	0.0472061	-1.09045e-14	2.90479e-15
-0.0133333	-5.62354e-15	-6.59195e-17	-6.62274e-15	-0.064	0.08
6.20706e-18	-0.0165447	2.28593e-05	0.034075	-6.95624e-16	-3.83929e-14
-9.37835e-17	9.99014e-05	-0.0170979	-0.0472061	-4.02803e-15	6.71555e-16
-0.0133333	-1.54833e-14	-1.31188e-15	-1.41692e-14	-0.064	0.24
9.92316e-17	-0.0105764	3.79963e-05	0.0215077	-3.21704e-15	-2.79429e-14
-1.4203e-16	0.000395862	-0.0178421	-0.152339	-1.18655e-14	-1.35135e-15
-0.0133333	1.34493e-14	2.83497e-15	6.05072e-15	-0.192	-0.24
1.05818e-16	-0.0116494	-0.000233826	0.081047	-3.2474e-15	-1.94497e-14
3.98986e-17	-0.000701933	-0.0114262	0.101746	-6.48678e-15	5.21805e-15
-0.0133333	3.32286e-15	1.16313e-15	-2.01054e-15	-0.192	-0.08
7.29668e-17	-0.0180877	-0.000127675	0.122765	-6.55725e-16	-3.93505e-14
2.74412e-16	-0.000168094	-0.0108904	0.0304604	-9.83241e-15	4.15336e-15
-0.0133333	-6.59932e-15	-8.67362e-17	-9.55312e-15	-0.192	0.08
1.9803e-16	-0.0180877	0.000127675	0.122765	-5.34295e-16	-4.08076e-14
4.65123e-17	0.000168094	-0.0108904	-0.0304604	-1.18794e-14	2.56392e-15
-0.0133333	-1.74452e-14	-3.76869e-16	-1.69309e-14	-0.192	0.24
-4.33681e-18	-0.0116494	0.000233826	0.081047	-5.19029e-15	-2.68535e-14
-1.95698e-16	0.000701933	-0.0114262	-0.101746	-1.26427e-14	6.1999e-15
0.0133333	1.30659e-14	-3.07827e-15	-3.83582e-14	-0.256	0.346667
3.17454e-16	0.0051547	-0.000302387	0.0497066	-9.40914e-15	1.80411e-15
3.46945e-18	-0.00135664	0.00760556	-0.10997	-1.15047e-14	4.60743e-15
0.0133333	1.48735e-14	-2.62811e-15	-2.20934e-14	-0.128	0.346667
1.89085e-16	0.00438755	-2.96108e-05	0.0163302	-8.82627e-15	-1.2268e-14
-1.90928e-16	-0.00144042	0.017519	-0.221442	-1.7826e-14	1.87628e-14
0.0133333	1.5812e-14	-2.10954e-15	-5.54418e-15	2.27663e-14	0.346667
7.63278e-17	0.00421641	2.0122e-16	-2.25107e-15	-6.93803e-15	-1.18516e-14
-2.09702e-16	2.29974e-15	0.0208027	-0.25014	-1.71946e-14	1.33649e-14
0.0133333	1.64885e-14	-1.78156e-15	1.20182e-14	0.128	0.346667
-4.42354e-17	0.00438755	2.96108e-05	-0.0163302	-6.76542e-15	-1.09773e-14
-2.84278e-16	0.00144042	0.017519	-0.221442	-1.25178e-14	7.63972e-15
0.0133333	1.6603e-14	-1.50401e-15	2.91989e-14	0.256	0.346667
1.73472e-18	0.0051547	0.000302387	-0.0497066	-5.66214e-15	-5.21805e-15
-3.1225e-17	0.00135664	0.00760556	-0.10997	-1.24553e-14	1.07692e-14
0.0133333	1.72622e-14	5.91541e-16	4.02456e-14	0.277333	0.32
-2.77556e-17	0.00818926	0.000472503	-0.0879762	-6.66134e-16	-3.93852e-14
-2.32453e-16	0.000911492	0.00503936	-0.0670194	-8.52096e-15	-1.15463e-14
0.0133333	1.13035e-14	1.25681e-15	4.04815e-14	0.277333	0.16
-2.42319e-16	0.0185852	0.000524967	-0.187912	-5.75234e-15	-1.36904e-14
-8.1532e-17	0.000189865	0.00457678	-0.0247612	-1.28231e-14	4.19803e-15
0.0133333	4.47108e-15	1.80064e-15	4.35934e-14	0.277333	3.20832e-14
-1.46503e-16	0.0220459	4.52563e-16	-0.216345	-5.05542e-15	-1.9304e-14
-1.04951e-16	1.10399e-15	0.00447289	1.41881e-14	-1.4877e-14	1.16239e-14
0.0133333	-2.43208e-15	2.69056e-15	4.656e-14	0.277333	-0.16
-8.73867e-17	0.0185852	-0.000524967	-0.187912	-4.2813e-15	-1.11994e-14
1.38778e-17	-0.000189865	0.00457678	0.0247612	-1.76456e-14	1.66672e-14
0.0133333	-8.79245e-15	3.2422e-15	4.85029e-14	0.277333	-0.32
-6.245e-17	0.00818926	-0.000472503	-0.0879762	-4.27436e-15	-3.46945e-14
5.72459e-17	-0.000911492	0.00503936	0.0670194	-1.91236e-14	3.65125e-14
0.0133333	-1.97412e-14	4.0766e-16	-2.53131e-14	-0.256	-0.346667
1.49186e-16	0.0051547	0.000302387	0.0497066	-1.8735e-15	-2.1802e-14
1.31243e-16	0.00135664	0.00760556	0.10997	-5.83214e-15	-6.56766e-15
0.0133333	-1.82788e-14	1.334e-15	-6.4948e-15	-0.128	-0.346667
8.1532e-17	0.00438755	2.96108e-05	0.0163302	-4.00374e-15	-2.40641e-14
1.50596e-16	0.00144042	0.017519	0.221442	-6.05072e-15	-1.66187e-14
0.0133333	-1.54564e-14	2.5721e-15	7.56979e-15	-2.62641e-14	-0.346667
6.33174e-17	0.00421641	4.28229e-16	-1.99309e-15	-7.81471e-15	-1.20598e-14
9.81135e-17	-2.33533e-15	0.0208027	0.25014	-4.4964e-15	-1.1177e-14
0.0133333	-1.19713e-14	4.28997e-15	1.97897e-14	0.128	-0.346667
-2.34188e-17	0.00438755	-2.96108e-05	-0.0163302	-9.50628e-15	-7.04992e-15
1.46259e-16	-0.00144042	0.017519	0.221442	-6.29358e-15	-6.42889e-15
0.0133333	-9.32587e-15	5.23279e-15	3.82472e-14	0.256	-0.346667
-1.43982e-16	0.0051547	-0.000302387	-0.0497066	-1.4988e-14	1.79301e-14
2.64545e-17	-0.00135664	0.00760556	0.10997	-5.81826e-15	-1.54113e-14
0.0133333	7.64579e-15	-3.83547e-15	-4.63934e-14	-0.277333	0.32
1.56125e-16	0.00818926	-0.000472503	0.0879762	2.72005e-15	-6.62456e-14
-3.29597e-17	-0.000911492	0.00503936	-0.0670194	-2.27873e-14	5.25135e-14
0.0133333	1.86656e-15	-2.89439e-15	-4.32987e-14	-0.277333	0.16
1.78677e-16	0.0185852	-0.000524967	0.187912	3.30118e-15	-4.94535e-14
-5.11743e-17	-0.000189865	0.00457678	-0.0247612	-1.55917e-14	2.43902e-14
0.0133333	-4.4593e-15	-1.36349e-15	-4.16099e-14	-0.277333	-3.41073e-14
2.24511e-16	0.0220459	-7.11665e-16	0.216345	4.17418e-15	-5.20417e-14
6.245e-17	9.13799e-16	0.00447289	1.284e-14	-1.36974e-14	1.12538e-14
0.0133333	-1.01308e-14	-1.76942e-16	-4.03705e-14	-0.277333	-0.16
2.21882e-16	0.0185852	0.000524967	0.187912	3.2873e-15	-4.85237e-14
1.18829e-16	0.000189865	0.00457678	0.0247612	-1.05888e-14	-1.99146e-15
0.0133333	-1.65371e-14	1.4511e-15	-3.60267e-14	-0.277333	-0.32
9.82829e-17	0.00818926	0.000472503	0.0879762	6.55118e-15	-6.4615e-14
1.24033e-16	0.000911492	0.00503936	0.0670194	-3.30291e-15	-2.89213e-14
0.0266667	2.44596e-15	-4.35069e-15	-5.47062e-14	-0.384	0.64
2.60209e-17	0.0142749	-0.000320047	0.0891776	5.07927e-15	-5.92582e-14
-2.14238e-16	-0.00269931	0.0257773	-0.310332	-1.95816e-14	2.3398e-14
0.0266667	-7.78891e-16	-3.86323e-15	-6.34492e-14	-0.512	0.48
3.66894e-16	0.0269231	-0.000874855	0.247182	1.52656e-15	-4.47836e-14
3.81639e-17	-0.00123315	0.0140954	-0.12492	-1.37598e-14	2.02616e-15
0.0266667	-7.14706e-16	-2.77382e-15	-4.6449e-14	-0.384	0.32
4.23923e-16	0.0333714	-0.000440271	0.214951	2.47719e-15	-5.03625e-14
-1.63498e-16	-0.000846844	0.0239279	-0.130637	-1.67462e-14	1.0339e-14
0.0266667	-4.47732e-15	-2.12504e-15	-5.58321e-14	-0.512	0.16
3.96818e-16	0.0404587	-0.00044837	0.361744	4.42701e-15	-5.7343e-14
8.08815e-17	-0.00027391	0.0133737	-0.0355414	-1.15116e-14	-2.44943e-15
0.0266667	-4.81504e-15	-6.26235e-16	-3.88871e-14	-0.384	-2.85698e-14
3.34314e-16	0.0399559	-6.67628e-16	0.255575	4.70685e-15	-5.05013e-14
8.45678e-17	3.18986e-16	0.0233981	4.81684e-15	-1.0247e-14	2.84365e-15
0.0266667	-8.36223e-15	-4.51028e-17	-4.82349e-14	-0.512	-0.16
3.95951e-16	0.0404587	0.00044837	0.361744	7.37778e-15	-5.66769e-14
-1.8323e-17	0.00027391	0.0133737	0.0355414	-1.37876e-14	-3.18148e-15
0.0266667	-9.29291e-15	1.4086e-15	-3.10377e-14	-0.384	-0.32
2.96529e-16	0.0333714	0.000440271	0.214951	4.25701e-15	-5.69128e-14
8.76035e-17	0.000846844	0.0239279	0.130637	-1.14179e-14	-6.46358e-15
0.0266667	-1.23738e-14	1.48492e-15	-3.98848e-14	-0.512	-0.48
2.75387e-16	0.0269231	0.000874855	0.247182	5.95357e-15	-5.05151e-14
1.25117e-16	0.00123315	0.0140954	0.12492	-4.31599e-15	-7.27543e-15
0.0266667	-1.26149e-14	2.61943e-15	-2.13857e-14	-0.384	-0.64
3.69171e-17	0.0142749	0.000320047	0.0891776	8.62591e-15	-4.39648e-14
2.34621e-16	0.00269931	0.0257773	0.310332	-5.53377e-15	-1.74027e-14
0.0266667	5.38285e-15	-4.02369e-15	-2.48551e-14	-0.128	0.64
7.43763e-17	0.0130556	-4.93269e-05	0.0229582	2.93689e-15	-6.31023e-14
-3.58004e-16	-0.00133455	0.0388316	-0.435191	-1.81799e-14	1.78885e-14
0.0266667	2.68015e-15	-3.33934e-15	-3.54161e-14	-0.256	0.48
1.58294e-16	0.0233499	-0.00016831	0.0884756	6.73073e-16	-4.1276e-14
-2.75387e-16	-0.00158027	0.0332725	-0.282137	-2.07195e-14	1.81313e-14
0.0266667	2.04697e-15	-1.93161e-15	-1.91513e-14	-0.128	0.32
2.13263e-16	0.0306102	-7.58628e-05	0.0585966	-8.85576e-16	-5.40956e-14
-1.26472e-16	-0.000473105	0.0365179	-0.196946	-1.08039e-14	1.05285e-14
0.0266667	-1.00354e-15	-1.35135e-15	-2.75162e-14	-0.256	0.16
1.47668e-16	0.0355677	-0.00010047	0.139557	1.65319e-15	-4.17097e-14
-4.96565e-17	-0.000400408	0.03185	-0.0863221	-1.24761e-14	8.81044e-15
0.0266667	-1.5269e-15	-1.53523e-16	-1.09783e-14	-0.128	-8.70288e-15
1.13421e-16	0.0367731	-2.95764e-16	0.0714501	5.44269e-16	-4.20358e-14
1.30104e-18	-6.91687e-17	0.0357842	2.61087e-15	-1.07934e-14	2.18792e-15
0.0266667	-5.01942e-15	5.79398e-16	-1.98938e-14	-0.256	-0.16
1.56992e-16	0.0355677	0.00010047	0.139557	2.19529e-15	-5.22846e-14
6.89553e-17	0.000400408	0.03185	0.0863221	-1.24692e-14	-3.13118e-15
0.0266667	-5.87898e-15	1.60288e-15	-3.18495e-15	-0.128	-0.32
2.11528e-16	0.0306102	7.58628e-05	0.0585966	6.4922e-16	-3.59088e-14
2.01878e-16	0.000473105	0.0365179	0.196946	-8.50015e-15	-6.06286e-15
0.0266667	-9.30159e-15	2.158e-15	-1.08663e-14	-0.256	-0.48
9.41087e-17	0.0233499	0.00016831	0.0884756	1.18655e-15	-4.63206e-14
2.68015e-16	0.00158027	0.0332725	0.282137	-5.2458e-15	-1.49845e-14
0.0266667	-9.16281e-15	3.30205e-15	5.60663e-15	-0.128	-0.64
-1.01427e-16	0.0130556	4.93269e-05	0.0229582	4.02174e-15	-5.86892e-14
3.40006e-16	0.00133455	0.0388316	0.435191	-4.36456e-15	-1.60358e-14
0.0266667	8.37178e-15	-3.42434e-15	-1.84575e-15	0.128	0.64
3.90313e-18	0.0130556	4.93269e-05	-0.0229582	2.49453e-15	-6.26305e-14
-3.99854e-16	0.00133455	0.0388316	-0.435191	-1.74791e-14	1.19973e-14
0.0266667	5.46091e-15	-2.69459e-15	-1.0105e-14	1.99683e-14	0.48
-2.60209e-18	0.0224463	2.34848e-17	1.1601e-15	-1.03254e-15	-3.70676e-14
-3.18019e-16	2.79591e-15	0.0397498	-0.326685	-2.04281e-14	1.29467e-14
0.0266667	4.96131e-15	-1.24466e-15	6.41501e-15	0.128	0.32
1.4821e-16	0.0306102	7.58628e-05	-0.0585966	-1.08811e-15	-3.77337e-14
-1.52601e-16	0.000473105	0.0365179	-0.196946	-1.49047e-14	6.84305e-15
0.0266667	1.77636e-15	-5.84517e-16	-2.07592e-15	3.71566e-15	0.16
6.87384e-17	0.0341802	-5.94143e-17	3.6414e-15	-9.08128e-16	-3.85386e-14
-1.2327e-16	1.2469e-15	0.0381994	-0.102389	-1.34476e-14	4.97872e-15
0.0266667	1.32306e-15	8.52617e-16	1.44551e-14	0.128	1.00132e-14
4.59973e-17	0.0367731	7.16454e-17	-0.0714501	-1.01113e-15	-4.56579e-14
-6.93889e-18	4.97385e-16	0.0357842	3.08466e-15	-1.1071e-14	-3.0401e-16
0.0266667	-2.0756e-15	1.33336e-15	5.55656e-15	-1.13472e-14	-0.16
4.92228e-17	0.0341802	-7.8232e-18	3.81867e-15	-7.14706e-16	-4.83155e-14
5.8452e-17	-6.73894e-16	0.0381994	0.102389	-1.41345e-14	-1.87388e-15
0.0266667	-2.34188e-15	2.91694e-15	2.21975e-14	0.128	-0.32
-8.0231e-18	0.0306102	-7.58628e-05	-0.0585966	-2.00187e-15	-3.99611e-14
1.56342e-16	-0.000473105	0.0365179	0.196946	-8.95117e-15	-5.0359e-15
0.0266667	-6.03337e-15	3.34035e-15	1.40435e-14	-2.69718e-14	-0.48
7.32921e-17	0.0224463	2.33004e-16	2.20716e-15	-1.5851e-15	-3.94285e-14
2.34382e-16	-3.01333e-15	0.0397498	0.326685	-1.02002e-14	-9.93894e-15
0.0266667	-6.25541e-15	5.25881e-15	2.89907e-14	0.128	-0.64
-1.61655e-16	0.0130556	-4.93269e-05	-0.0229582	2.58821e-15	-5.26384e-14
3.1572e-16	-0.00133455	0.0388316	0.435191	-5.03764e-15	-1.18169e-14
0.0266667	1.12289e-14	-2.77382e-15	2.62568e-14	0.384	0.64
-9.19403e-17	0.0142749	0.000320047	-0.0891776	9.4369e-16	-4.9627e-14
-3.42608e-16	0.00269931	0.0257773	-0.310332	-1.85997e-14	7.46625e-15
0.0266667	8.15494e-15	-2.14932e-15	1.52656e-14	0.256	0.48
-1.03216e-16	0.0233499	0.00016831	-0.0884756	-2.85189e-15	-3.41567e-14
-3.79904e-16	0.00158027	0.0332725	-0.282137	-1.79509e-14	5.64132e-15
0.0266667	8.55219e-15	-3.95517e-16	3.37889e-14	0.384	0.32
-1.37911e-16	0.0333714	0.000440271	-0.214951	-3.93782e-15	-2.57711e-14
-1.19262e-16	0.000846844	0.0239279	-0.130637	-1.52942e-14	4.55885e-15
0.0266667	5.02202e-15	2.93168e-16	2.33182e-14	0.256	0.16
-2.56414e-17	0.0355677	0.00010047	-0.139557	-2.94361e-15	-3.78517e-14
-3.04661e-17	0.000400408	0.03185	-0.0863221	-1.15047e-14	2.13566e-15
0.0266667	4.85332e-15	1.64278e-15	4.24847e-14	0.384	3.14985e-14
-2.55723e-16	0.0399559	6.21687e-16	-0.255575	-5.22819e-15	-3.44308e-14
6.67869e-17	2.51844e-16	0.0233981	4.14631e-15	-1.04344e-14	2.9911e-15
0.0266667	1.38951e-15	2.498e-15	3.05485e-14	0.256	-0.16
-7.44847e-17	0.0355677	-0.00010047	-0.139557	-3.59348e-15	-3.35496e-14
1.27068e-16	-0.000400408	0.03185	0.0863221	-1.03043e-14	-1.97758e-16
0.0266667	6.6093e-16	3.54231e-15	4.87527e-14	0.384	-0.32
-1.31405e-16	0.0333714	-0.000440271	-0.214951	-5.50601e-15	-3.0087e-14
5.76796e-17	-0.000846844	0.0239279	0.130637	-1.28291e-14	-4.57967e-16
0.0266667	-1.6636e-15	4.92488e-15	3.85247e-14	0.256	-0.48
-1.9082e-17	0.0233499	-0.00016831	-0.0884756	-3.87884e-15	-3.02432e-14
2.71701e-16	-0.00158027	0.0332725	0.282137	-8.64586e-15	-4.09395e-15
0.0266667	-1.73993e-15	6.15306e-15	5.38181e-14	0.384	-0.64
6.76542e-17	0.0142749	-0.000320047	-0.0891776	2.498e-16	-4.94327e-14
2.30718e-16	-0.00269931	0.0257773	0.310332	-8.6875e-15	-3.95517e-15
0.0266667	1.09357e-14	-1.50227e-15	4.43257e-14	0.512	0.48
-2.18575e-16	0.0269231	0.000874855	-0.247182	-3.23352e-15	-2.77625e-14
-1.32706e-16	0.00123315	0.0140954	-0.12492	-1.22957e-14	3.35842e-15
0.0266667	8.45851e-15	1.00961e-15	5.22007e-14	0.512	0.16
-2.80808e-16	0.0404587	0.00044837	-0.361744	-6.10276e-15	-2.89768e-14
1.19696e-16	0.00027391	0.0133737	-0.0355414	-1.23929e-14	-1.02522e-15
0.0266667	4.59962e-15	2.583e-15	5.97283e-14	0.512	-0.16
-3.43042e-16	0.0404587	-0.00044837	-0.361744	-7.60503e-15	-2.51743e-14
3.42608e-17	-0.00027391	0.0133737	0.0355414	-1.21222e-14	-5.58061e-15
0.0266667	1.75034e-15	5.61183e-15	6.65024e-14	0.512	-0.48
-2.46764e-16	0.0269231	-0.000874855	-0.247182	-8.25728e-15	-2.06987e-14
5.85469e-17	-0.00123315	0.0140954	0.12492	-6.34215e-15	-1.14526e-14
