{
    "meshType"      : "MED",
    "meshFile"      : "../../../01_MeshGeneration/BeamTest/Beam_hex20.med",
    "matrixFormat"  : "NPZ",
    "KMatrix"       : "./Stiff.npz",
    "MMatrix"       : "./Mass.npz",
    "lowerMatrix"   : false,
    "DOFfile"       : "NA",
    "R1name"        : "R1",
    "R2name"        : "R2",
    "p1"            : [0.0, 0.0, 0.0],
    "p2"            : [0.5, 0.0, 0.0],
    "writeInertia"  : "./mass_beam_hex20.txt",
    "inertiaThresh" : 1e-10,
    "writeElastic"  : "./stiff_beam_hex20.txt",
    "elasticThresh" : 1e-10,
    "writeStressData" : "FD.npz",
    "writeNodeData" : "Warp.txt"
}
