# Stiffness matrix at alpha = 1.72943e-311
350000000	-0.0002068408223	8.059174898e-06	-6.46877469e-07	-4.90258546e-07	7.576731006e-07
-0.0002547197517	122327956.8	-1.018167066e-05	9.624502254e-06	-2.227846356e-05	0.002842303626
-9.293568762e-07	0.001116276725	113321701.5	6.219168229e-06	-0.0007054535359	7.110642244e-06
-6.46877469e-07	9.624502241e-06	6.219168229e-06	76989.42729	1.476551374e-07	-6.236315485e-08
-4.902585459e-07	-2.227846357e-05	-0.0007054535359	-8.914073809e-09	291666.6667	1.436736443e-07
7.576730995e-07	0.002842303626	7.110642218e-06	2.72871651e-07	1.516509038e-07	72916.66665
