# MBDyn beam file
0	0.025	-0.05
0	-0.025	-0.05
0	0.025	0.05
0	-0.025	0.05
0	0.0125	-0.05
0	0	-0.05
0	-0.0125	-0.05
0	0.025	-0.0375
0	0.025	-0.025
0	0.025	-0.0125
0	0.025	-3.4694469519536e-18
0	0.025	0.0125
0	0.025	0.025
0	0.025	0.0375
0	0.0125	0.05
0	0	0.05
0	-0.0125	0.05
0	-0.025	-0.0375
0	-0.025	-0.025
0	-0.025	-0.0125
0	-0.025	-3.4694469519536e-18
0	-0.025	0.0125
0	-0.025	0.025
0	-0.025	0.0375
0	0.0125	-0.0375
0	0.0125	-0.025
0	0.0125	-0.0125
0	0.0125	-2.6020852139652e-18
0	0.0125	0.0125
0	0.0125	0.025
0	0.0125	0.0375
0	0	-0.0375
0	0	-0.025
0	0	-0.0125
0	0	-1.7347234759768e-18
0	0	0.0125
0	0	0.025
0	0	0.0375
0	-0.0125	-0.0375
0	-0.0125	-0.025
0	-0.0125	-0.0125
0	-0.0125	-3.4694469519536e-18
0	-0.0125	0.0125
0	-0.0125	0.025
0	-0.0125	0.0375
0	0.01875	-0.05
0	0.00625	-0.05
0	-0.00625	-0.05
0	-0.01875	-0.05
0	0.025	-0.04375
0	0.025	-0.03125
0	0.025	-0.01875
0	0.025	-0.00625
0	0.025	0.00625
0	0.025	0.01875
0	0.025	0.03125
0	0.025	0.04375
0	0.01875	0.05
0	0.00625	0.05
0	-0.00625	0.05
0	-0.01875	0.05
0	-0.025	-0.04375
0	-0.025	-0.03125
0	-0.025	-0.01875
0	-0.025	-0.00625
0	-0.025	0.00625
0	-0.025	0.01875
0	-0.025	0.03125
0	-0.025	0.04375
0	0.0125	-0.04375
0	0.01875	-0.0375
0	0.0125	-0.03125
0	0.01875	-0.025
0	0.0125	-0.01875
0	0.01875	-0.0125
0	0.0125	-0.00625
0	0.01875	-3.0357660829594e-18
0	0.0125	0.00625
0	0.01875	0.0125
0	0.0125	0.01875
0	0.01875	0.025
0	0.0125	0.03125
0	0.01875	0.0375
0	0.0125	0.04375
0	0	-0.04375
0	0.00625	-0.0375
0	0	-0.03125
0	0.00625	-0.025
0	0	-0.01875
0	0.00625	-0.0125
0	0	-0.00625
0	0.00625	-2.168404344971e-18
0	0	0.00625
0	0.00625	0.0125
0	0	0.01875
0	0.00625	0.025
0	0	0.03125
0	0.00625	0.0375
0	0	0.04375
0	-0.0125	-0.04375
0	-0.00625	-0.0375
0	-0.0125	-0.03125
0	-0.00625	-0.025
0	-0.0125	-0.01875
0	-0.00625	-0.0125
0	-0.0125	-0.00625
0	-0.00625	-2.6020852139652e-18
0	-0.0125	0.00625
0	-0.00625	0.0125
0	-0.0125	0.01875
0	-0.00625	0.025
0	-0.0125	0.03125
0	-0.00625	0.0375
0	-0.0125	0.04375
0	-0.01875	-0.0375
0	-0.01875	-0.025
0	-0.01875	-0.0125
0	-0.01875	-3.4694469519536e-18
0	-0.01875	0.0125
0	-0.01875	0.025
0	-0.01875	0.0375
0
