# Stiffness matrix at alpha = -1.43859e+236
236571235.1	395273.4583	4234.842079	0	0	0
395273.4568	44253739.06	479474.6639	0	0	0
4234.841612	479474.6632	19828683.87	0	0	0
0	0	0	288.2414287	-622.5319019	-14.23096537
0	0	0	-622.531895	1831402.39	8.264590974
0	0	0	-14.2309583	8.264560711	569808.7723
