#
#--------------------------------------------------------------------------------
##table                                                                           
INTITULE         RESU     NOM_CHAM          NUME_ORDRE    INST          RESULT_X      RESULT_Y      RESULT_Z      MOMENT_X      MOMENT_Y      MOMENT_Z    
force r1         00000006 FORC_NODA                    1   0.00000E+00  -7.40016E-14  -3.95952E-15  -1.00000E+00   7.36448E-16   5.00000E-01  -6.78277E-16
force r2         00000006 FORC_NODA                    1   0.00000E+00   5.21087E-14  -4.51191E-14   1.00000E+00  -2.42931E-15   1.28023E-13   4.69244E-15

