# Stiffness matrix at alpha = -4.06858e+260
50127280.69	0.001034551213	0	0	0.001777150322	0
0	58289854.94	0.0008333136734	-0.007216398864	0	0.0001568414495
0	0.0004447791821	98000000	0	0	0
0	-0.007216398864	0	20416.66665	0	0
0.001777150322	0	0	0	326666.6666	0
0	0.0001568414501	0	0	0	41192.31473
