7.999397824142839909e+08 1.431367602150078640e-02 1.779686044068454655e-08 1.346649410210106734e-20 1.362387746934405961e-20 -1.272105055070676255e-03
1.430163229933475826e-02 3.995845678196847439e+08 3.178792912779526545e-19 -3.074276207696645004e-20 3.620399470181720774e-21 1.013393355700125710e-02
1.779686044068614797e-08 3.180173142502698570e-19 1.599999999999546528e+09 -2.807435489760455386e-08 -2.400745280560129314e-07 -2.844311409060214706e-20
1.351173125542565906e-20 -3.078731993018150051e-20 -3.500450362398283333e-08 5.333333333332555369e+06 6.169934660043797238e-09 -1.106670388592385144e-10
1.373783071488119735e-20 3.653313225421028287e-21 -1.945798032299627874e-07 6.714502473574072030e-09 8.533333333331370354e+07 2.853629215395001383e-23
-1.269307965487899165e-03 1.013409704401170910e-02 -2.813646588312473912e-20 -1.106670388592557172e-10 5.477520697485067167e-23 9.948604954968696460e+06
