3.086439975974713564e+08 1.784109794149548074e-03 6.866634554368472852e-09 1.998799537638978192e-21 5.215651829632950284e-21 -2.871353529099125506e-04
1.788329281928167187e-03 1.562483454455771148e+08 3.905849912066816804e-20 1.173063586251138219e-21 4.398111716781972985e-22 -1.173325317344771357e-04
6.866634554368263576e-09 3.870797981015232247e-20 6.249999999990320206e+08 -1.548620080844223741e-07 -5.503876332863848805e-08 -6.254532036008899683e-21
1.998195315417029175e-21 1.208045241902057679e-21 -1.275003606462823858e-07 3.255208333332154900e+06 1.307403658453130422e-08 -2.453604201578246682e-11
5.417890336160405557e-21 5.289179840874807025e-22 -8.758060754149737575e-08 8.589888900601929881e-09 3.255208333316158969e+06 2.453516246637121707e-23
-2.872700772967924534e-04 -1.175003896431867307e-04 -6.243097095942849137e-21 -2.453604201578305166e-11 2.769763135780708053e-23 2.205709953857788816e+06
