3.981807728082710743e+09 3.908529141185775740e-02 0.000000000000000000e+00 0.000000000000000000e+00 0.000000000000000000e+00 -3.012768904034430085e-03
3.909638929443579047e-02 3.981807728167427063e+09 0.000000000000000000e+00 0.000000000000000000e+00 0.000000000000000000e+00 -3.338346787970268743e-03
0.000000000000000000e+00 0.000000000000000000e+00 1.249999999996142769e+10 -1.258320672847392671e-05 -2.014809358656976569e-06 0.000000000000000000e+00
0.000000000000000000e+00 0.000000000000000000e+00 -1.214212887759532589e-05 6.510416666652589291e+07 4.005731381675291879e-07 0.000000000000000000e+00
0.000000000000000000e+00 0.000000000000000000e+00 -2.216449277291661815e-06 4.773749595883045977e-07 6.510416666652742773e+07 0.000000000000000000e+00
-3.013008587376911178e-03 -3.338554539480590062e-03 0.000000000000000000e+00 0.000000000000000000e+00 0.000000000000000000e+00 4.224068976671052724e+07
