# Stiffness matrix at alpha = 0
1374355.15	183943.8019	119.8271894	0	0	0
183943.8019	88409.25835	75.69112461	0	0	0
119.8271894	75.69112463	39513.66936	0	0	0
0	0	0	17342.76586	-18019.01077	361.4202435
0	0	0	-18019.01077	60828.17228	-373.0153944
0	0	0	361.4202435	-373.0153944	142868.6254
