# Stiffness matrix at alpha = 0.005
69025698.27	0	99370.54371	0	0	0
0	2249563.954	0	0	0	0
99370.54371	0	70035767.98	0	0	0
0	0	0	9276.344143	0	-1257.056357
0	0	0	0	52445.6176	0
0	0	0	-1257.056357	0	7663.644409
