7.999397824142889977e+08 1.429556428301912568e-02 1.779686044068383186e-08 1.336337278285052564e-20 1.383828092100192161e-20 -1.265823930293206090e-03
1.429503254932403510e-02 3.995845678196823001e+08 3.176256907395733700e-19 -3.080188281439411699e-20 3.658012184595642806e-21 1.013422914736619371e-02
1.779686044068403370e-08 3.176202064260710627e-19 1.599999999999546528e+09 -4.196706514446772138e-08 -2.878258079357682121e-07 -2.787190200421383520e-20
1.343551568632182358e-20 -3.078751699638163972e-20 -1.205609271426876001e-08 5.333333333332560956e+06 4.331963952927076637e-10 -1.106670388592540370e-10
1.365509891046136454e-20 3.671350675937115348e-21 -3.852119177305362827e-07 4.442998040606852802e-09 8.533333333331377804e+07 8.846135799136453899e-25
-1.271247035761259060e-03 1.013371205948131008e-02 -2.806311282152213872e-20 -1.106670388592748974e-10 1.391395384866718519e-23 9.948604954968566075e+06
