1.025608178041779327e+10 -6.422594908076857678e-02 0.000000000000000000e+00 0.000000000000000000e+00 0.000000000000000000e+00 -9.126015352598012761e-03
-6.418033772025041883e-02 7.183991055911939621e+09 0.000000000000000000e+00 0.000000000000000000e+00 0.000000000000000000e+00 2.049389426855261764e-01
0.000000000000000000e+00 0.000000000000000000e+00 3.199999999990166092e+10 -4.658335014588861308e-05 1.486950451303677845e-05 0.000000000000000000e+00
0.000000000000000000e+00 0.000000000000000000e+00 -7.856734224076520939e-05 1.066666666653641313e+08 -2.205485706151510609e-07 0.000000000000000000e+00
0.000000000000000000e+00 0.000000000000000000e+00 -5.343596378712625715e-07 5.169858567726946111e-08 1.706666666665349483e+09 0.000000000000000000e+00
-9.154258754838268466e-03 2.049439301569797589e-01 0.000000000000000000e+00 0.000000000000000000e+00 0.000000000000000000e+00 1.382463836440835595e+08
