1.666429673270392418e+09 1.560903042826845659e-02 1.178492448687208176e+09 1.372384775051504243e-03 8.956231325119156251e-04 -4.028327669765307401e-03
1.561047031252171813e-02 2.659631377466836572e+08 1.093024503862290685e-02 -8.729793148795316469e-05 7.727438576511195818e-05 5.164349363664825186e-03
1.178492448687147856e+09 1.094502311941225950e-02 3.215559175838410854e+09 9.582527787384653543e-04 6.456674183244523859e-04 -2.809657512252762036e-03
1.362549942493129339e-03 -8.897407911059851664e-05 9.629798046236227047e-04 1.058154935593029112e+07 1.603448158459521214e-07 -7.469223793595683761e+06
8.506050266690487428e-04 8.152741012545510228e-05 6.119730059091795351e-04 -1.150612679916593921e-07 1.270471464003443867e+08 -1.405483768385451785e-06
-4.004937525713846667e-03 5.168631220443645029e-03 -2.813873336504806380e-03 -7.469223793594107963e+06 -1.329728857858518627e-06 2.112348904544472322e+07
