#
#--------------------------------------------------------------------------------
##table                                                                           
INTITULE         RESU     NOM_CHAM          NUME_ORDRE    INST          RESULT_X      RESULT_Y      RESULT_Z      MOMENT_X      MOMENT_Y      MOMENT_Z    
force r1         00000006 FORC_NODA                    1   0.00000E+00  -1.79496E-18   2.81688E-16  -1.45203E-17  -1.00000E-04  -1.29453E-18  -1.71175E-17
force r2         00000006 FORC_NODA                    1   0.00000E+00  -6.14778E-18  -8.40092E-16  -5.01022E-17   1.00000E-04  -1.35173E-17   3.05572E-16

