N1	0	-0.08	0.16
N2	0	-0.08	-0.16
N3	0	0.08	0.16
N4	0	0.08	-0.16
N5	0.5	-0.08	0.16
N6	0.5	-0.08	-0.16
N7	0.5	0.08	0.16
N8	0.5	0.08	-0.16
N9	0	-0.08	-0.14
N10	0	-0.08	-0.12
N11	0	-0.08	-0.1
N12	0	-0.08	-0.08
N13	0	-0.08	-0.06
N14	0	-0.08	-0.04
N15	0	-0.08	-0.02
N16	0	-0.08	0
N17	0	-0.08	0.02
N18	0	-0.08	0.04
N19	0	-0.08	0.06
N20	0	-0.08	0.08
N21	0	-0.08	0.1
N22	0	-0.08	0.12
N23	0	-0.08	0.14
N24	0	-0.06	0.16
N25	0	-0.04	0.16
N26	0	-0.02	0.16
N27	0	0	0.16
N28	0	0.02	0.16
N29	0	0.04	0.16
N30	0	0.06	0.16
N31	0	0.08	-0.14
N32	0	0.08	-0.12
N33	0	0.08	-0.1
N34	0	0.08	-0.08
N35	0	0.08	-0.06
N36	0	0.08	-0.04
N37	0	0.08	-0.02
N38	0	0.08	0
N39	0	0.08	0.02
N40	0	0.08	0.04
N41	0	0.08	0.06
N42	0	0.08	0.08
N43	0	0.08	0.1
N44	0	0.08	0.12
N45	0	0.08	0.14
N46	0	-0.06	-0.16
N47	0	-0.04	-0.16
N48	0	-0.02	-0.16
N49	0	0	-0.16
N50	0	0.02	-0.16
N51	0	0.04	-0.16
N52	0	0.06	-0.16
N53	0.5	-0.08	-0.14
N54	0.5	-0.08	-0.12
N55	0.5	-0.08	-0.1
N56	0.5	-0.08	-0.08
N57	0.5	-0.08	-0.06
N58	0.5	-0.08	-0.04
N59	0.5	-0.08	-0.02
N60	0.5	-0.08	0
N61	0.5	-0.08	0.02
N62	0.5	-0.08	0.04
N63	0.5	-0.08	0.06
N64	0.5	-0.08	0.08
N65	0.5	-0.08	0.1
N66	0.5	-0.08	0.12
N67	0.5	-0.08	0.14
N68	0.5	-0.06	0.16
N69	0.5	-0.04	0.16
N70	0.5	-0.02	0.16
N71	0.5	0	0.16
N72	0.5	0.02	0.16
N73	0.5	0.04	0.16
N74	0.5	0.06	0.16
N75	0.5	0.08	-0.14
N76	0.5	0.08	-0.12
N77	0.5	0.08	-0.1
N78	0.5	0.08	-0.08
N79	0.5	0.08	-0.06
N80	0.5	0.08	-0.04
N81	0.5	0.08	-0.02
N82	0.5	0.08	0
N83	0.5	0.08	0.02
N84	0.5	0.08	0.04
N85	0.5	0.08	0.06
N86	0.5	0.08	0.08
N87	0.5	0.08	0.1
N88	0.5	0.08	0.12
N89	0.5	0.08	0.14
N90	0.5	-0.06	-0.16
N91	0.5	-0.04	-0.16
N92	0.5	-0.02	-0.16
N93	0.5	0	-0.16
N94	0.5	0.02	-0.16
N95	0.5	0.04	-0.16
N96	0.5	0.06	-0.16
N97	0.1	-0.08	-0.16
N98	0.2	-0.08	-0.16
N99	0.3	-0.08	-0.16
N100	0.4	-0.08	-0.16
N101	0.1	-0.08	0.16
N102	0.2	-0.08	0.16
N103	0.3	-0.08	0.16
N104	0.4	-0.08	0.16
N105	0.1	0.08	-0.16
N106	0.2	0.08	-0.16
N107	0.3	0.08	-0.16
N108	0.4	0.08	-0.16
N109	0.1	0.08	0.16
N110	0.2	0.08	0.16
N111	0.3	0.08	0.16
N112	0.4	0.08	0.16
N113	0	-0.06	-0.14
N114	0	-0.04	-0.14
N115	0	-0.02	-0.14
N116	0	0	-0.14
N117	0	0.02	-0.14
N118	0	0.04	-0.14
N119	0	0.06	-0.14
N120	0	-0.06	-0.12
N121	0	-0.04	-0.12
N122	0	-0.02	-0.12
N123	0	0	-0.12
N124	0	0.02	-0.12
N125	0	0.04	-0.12
N126	0	0.06	-0.12
N127	0	-0.06	-0.1
N128	0	-0.04	-0.1
N129	0	-0.02	-0.1
N130	0	0	-0.1
N131	0	0.02	-0.1
N132	0	0.04	-0.1
N133	0	0.06	-0.1
N134	0	-0.06	-0.08
N135	0	-0.04	-0.08
N136	0	-0.02	-0.08
N137	0	0	-0.08
N138	0	0.02	-0.08
N139	0	0.04	-0.08
N140	0	0.06	-0.08
N141	0	-0.06	-0.06
N142	0	-0.04	-0.06
N143	0	-0.02	-0.06
N144	0	0	-0.06
N145	0	0.02	-0.06
N146	0	0.04	-0.06
N147	0	0.06	-0.06
N148	0	-0.06	-0.04
N149	0	-0.04	-0.04
N150	0	-0.02	-0.04
N151	0	0	-0.04
N152	0	0.02	-0.04
N153	0	0.04	-0.04
N154	0	0.06	-0.04
N155	0	-0.06	-0.02
N156	0	-0.04	-0.02
N157	0	-0.02	-0.02
N158	0	0	-0.02
N159	0	0.02	-0.02
N160	0	0.04	-0.02
N161	0	0.06	-0.02
N162	0	-0.06	5.55112e-17
N163	0	-0.04	0
N164	0	-0.02	0
N165	0	0	0
N166	0	0.02	0
N167	0	0.04	0
N168	0	0.06	0
N169	0	-0.06	0.02
N170	0	-0.04	0.02
N171	0	-0.02	0.02
N172	0	0	0.02
N173	0	0.02	0.02
N174	0	0.04	0.02
N175	0	0.06	0.02
N176	0	-0.06	0.04
N177	0	-0.04	0.04
N178	0	-0.02	0.04
N179	0	0	0.04
N180	0	0.02	0.04
N181	0	0.04	0.04
N182	0	0.06	0.04
N183	0	-0.06	0.06
N184	0	-0.04	0.06
N185	0	-0.02	0.06
N186	0	2.77556e-17	0.06
N187	0	0.02	0.06
N188	0	0.04	0.06
N189	0	0.06	0.06
N190	0	-0.06	0.08
N191	0	-0.04	0.08
N192	0	-0.02	0.08
N193	0	0	0.08
N194	0	0.02	0.08
N195	0	0.04	0.08
N196	0	0.06	0.08
N197	0	-0.06	0.1
N198	0	-0.04	0.1
N199	0	-0.02	0.1
N200	0	0	0.1
N201	0	0.02	0.1
N202	0	0.04	0.1
N203	0	0.06	0.1
N204	0	-0.06	0.12
N205	0	-0.04	0.12
N206	0	-0.02	0.12
N207	0	0	0.12
N208	0	0.02	0.12
N209	0	0.04	0.12
N210	0	0.06	0.12
N211	0	-0.06	0.14
N212	0	-0.04	0.14
N213	0	-0.02	0.14
N214	0	0	0.14
N215	0	0.02	0.14
N216	0	0.04	0.14
N217	0	0.06	0.14
N218	0.5	-0.06	0.14
N219	0.5	-0.04	0.14
N220	0.5	-0.02	0.14
N221	0.5	0	0.14
N222	0.5	0.02	0.14
N223	0.5	0.04	0.14
N224	0.5	0.06	0.14
N225	0.5	-0.06	0.12
N226	0.5	-0.04	0.12
N227	0.5	-0.02	0.12
N228	0.5	0	0.12
N229	0.5	0.02	0.12
N230	0.5	0.04	0.12
N231	0.5	0.06	0.12
N232	0.5	-0.06	0.1
N233	0.5	-0.04	0.1
N234	0.5	-0.02	0.1
N235	0.5	0	0.1
N236	0.5	0.02	0.1
N237	0.5	0.04	0.1
N238	0.5	0.06	0.1
N239	0.5	-0.06	0.08
N240	0.5	-0.04	0.08
N241	0.5	-0.02	0.08
N242	0.5	0	0.08
N243	0.5	0.02	0.08
N244	0.5	0.04	0.08
N245	0.5	0.06	0.08
N246	0.5	-0.06	0.06
N247	0.5	-0.04	0.06
N248	0.5	-0.02	0.06
N249	0.5	0	0.06
N250	0.5	0.02	0.06
N251	0.5	0.04	0.06
N252	0.5	0.06	0.06
N253	0.5	-0.06	0.04
N254	0.5	-0.04	0.04
N255	0.5	-0.02	0.04
N256	0.5	1.38778e-17	0.04
N257	0.5	0.02	0.04
N258	0.5	0.04	0.04
N259	0.5	0.06	0.04
N260	0.5	-0.06	0.02
N261	0.5	-0.04	0.02
N262	0.5	-0.02	0.02
N263	0.5	0	0.02
N264	0.5	0.02	0.02
N265	0.5	0.04	0.02
N266	0.5	0.06	0.02
N267	0.5	-0.06	0
N268	0.5	-0.04	0
N269	0.5	-0.02	0
N270	0.5	0	0
N271	0.5	0.02	0
N272	0.5	0.04	0
N273	0.5	0.06	0
N274	0.5	-0.06	-0.02
N275	0.5	-0.04	-0.02
N276	0.5	-0.02	-0.02
N277	0.5	0	-0.02
N278	0.5	0.02	-0.02
N279	0.5	0.04	-0.02
N280	0.5	0.06	-0.02
N281	0.5	-0.06	-0.04
N282	0.5	-0.04	-0.04
N283	0.5	-0.02	-0.04
N284	0.5	0	-0.04
N285	0.5	0.02	-0.04
N286	0.5	0.04	-0.04
N287	0.5	0.06	-0.04
N288	0.5	-0.06	-0.06
N289	0.5	-0.04	-0.06
N290	0.5	-0.02	-0.06
N291	0.5	0	-0.06
N292	0.5	0.02	-0.06
N293	0.5	0.04	-0.06
N294	0.5	0.06	-0.06
N295	0.5	-0.06	-0.08
N296	0.5	-0.04	-0.08
N297	0.5	-0.02	-0.08
N298	0.5	0	-0.08
N299	0.5	0.02	-0.08
N300	0.5	0.04	-0.08
N301	0.5	0.06	-0.08
N302	0.5	-0.06	-0.1
N303	0.5	-0.04	-0.1
N304	0.5	-0.02	-0.1
N305	0.5	2.77556e-17	-0.1
N306	0.5	0.02	-0.1
N307	0.5	0.04	-0.1
N308	0.5	0.06	-0.1
N309	0.5	-0.06	-0.12
N310	0.5	-0.04	-0.12
N311	0.5	-0.02	-0.12
N312	0.5	0	-0.12
N313	0.5	0.02	-0.12
N314	0.5	0.04	-0.12
N315	0.5	0.06	-0.12
N316	0.5	-0.06	-0.14
N317	0.5	-0.04	-0.14
N318	0.5	-0.02	-0.14
N319	0.5	0	-0.14
N320	0.5	0.02	-0.14
N321	0.5	0.04	-0.14
N322	0.5	0.06	-0.14
N323	0.1	-0.08	-0.14
N324	0.1	-0.08	-0.12
N325	0.1	-0.08	-0.1
N326	0.1	-0.08	-0.08
N327	0.1	-0.08	-0.06
N328	0.1	-0.08	-0.04
N329	0.1	-0.08	-0.02
N330	0.1	-0.08	0
N331	0.1	-0.08	0.02
N332	0.1	-0.08	0.04
N333	0.1	-0.08	0.06
N334	0.1	-0.08	0.08
N335	0.1	-0.08	0.1
N336	0.1	-0.08	0.12
N337	0.1	-0.08	0.14
N338	0.2	-0.08	-0.14
N339	0.2	-0.08	-0.12
N340	0.2	-0.08	-0.1
N341	0.2	-0.08	-0.08
N342	0.2	-0.08	-0.06
N343	0.2	-0.08	-0.04
N344	0.2	-0.08	-0.02
N345	0.2	-0.08	0
N346	0.2	-0.08	0.02
N347	0.2	-0.08	0.04
N348	0.2	-0.08	0.06
N349	0.2	-0.08	0.08
N350	0.2	-0.08	0.1
N351	0.2	-0.08	0.12
N352	0.2	-0.08	0.14
N353	0.3	-0.08	-0.14
N354	0.3	-0.08	-0.12
N355	0.3	-0.08	-0.1
N356	0.3	-0.08	-0.08
N357	0.3	-0.08	-0.06
N358	0.3	-0.08	-0.04
N359	0.3	-0.08	-0.02
N360	0.3	-0.08	0
N361	0.3	-0.08	0.02
N362	0.3	-0.08	0.04
N363	0.3	-0.08	0.06
N364	0.3	-0.08	0.08
N365	0.3	-0.08	0.1
N366	0.3	-0.08	0.12
N367	0.3	-0.08	0.14
N368	0.4	-0.08	-0.14
N369	0.4	-0.08	-0.12
N370	0.4	-0.08	-0.1
N371	0.4	-0.08	-0.08
N372	0.4	-0.08	-0.06
N373	0.4	-0.08	-0.04
N374	0.4	-0.08	-0.02
N375	0.4	-0.08	0
N376	0.4	-0.08	0.02
N377	0.4	-0.08	0.04
N378	0.4	-0.08	0.06
N379	0.4	-0.08	0.08
N380	0.4	-0.08	0.1
N381	0.4	-0.08	0.12
N382	0.4	-0.08	0.14
N383	0.4	0.08	-0.14
N384	0.4	0.08	-0.12
N385	0.4	0.08	-0.1
N386	0.4	0.08	-0.08
N387	0.4	0.08	-0.06
N388	0.4	0.08	-0.04
N389	0.4	0.08	-0.02
N390	0.4	0.08	0
N391	0.4	0.08	0.02
N392	0.4	0.08	0.04
N393	0.4	0.08	0.06
N394	0.4	0.08	0.08
N395	0.4	0.08	0.1
N396	0.4	0.08	0.12
N397	0.4	0.08	0.14
N398	0.3	0.08	-0.14
N399	0.3	0.08	-0.12
N400	0.3	0.08	-0.1
N401	0.3	0.08	-0.08
N402	0.3	0.08	-0.06
N403	0.3	0.08	-0.04
N404	0.3	0.08	-0.02
N405	0.3	0.08	0
N406	0.3	0.08	0.02
N407	0.3	0.08	0.04
N408	0.3	0.08	0.06
N409	0.3	0.08	0.08
N410	0.3	0.08	0.1
N411	0.3	0.08	0.12
N412	0.3	0.08	0.14
N413	0.2	0.08	-0.14
N414	0.2	0.08	-0.12
N415	0.2	0.08	-0.1
N416	0.2	0.08	-0.08
N417	0.2	0.08	-0.06
N418	0.2	0.08	-0.04
N419	0.2	0.08	-0.02
N420	0.2	0.08	0
N421	0.2	0.08	0.02
N422	0.2	0.08	0.04
N423	0.2	0.08	0.06
N424	0.2	0.08	0.08
N425	0.2	0.08	0.1
N426	0.2	0.08	0.12
N427	0.2	0.08	0.14
N428	0.1	0.08	-0.14
N429	0.1	0.08	-0.12
N430	0.1	0.08	-0.1
N431	0.1	0.08	-0.08
N432	0.1	0.08	-0.06
N433	0.1	0.08	-0.04
N434	0.1	0.08	-0.02
N435	0.1	0.08	0
N436	0.1	0.08	0.02
N437	0.1	0.08	0.04
N438	0.1	0.08	0.06
N439	0.1	0.08	0.08
N440	0.1	0.08	0.1
N441	0.1	0.08	0.12
N442	0.1	0.08	0.14
N443	0.1	-0.06	-0.16
N444	0.2	-0.06	-0.16
N445	0.3	-0.06	-0.16
N446	0.4	-0.06	-0.16
N447	0.1	-0.04	-0.16
N448	0.2	-0.04	-0.16
N449	0.3	-0.04	-0.16
N450	0.4	-0.04	-0.16
N451	0.1	-0.02	-0.16
N452	0.2	-0.02	-0.16
N453	0.3	-0.02	-0.16
N454	0.4	-0.02	-0.16
N455	0.1	2.77556e-17	-0.16
N456	0.2	0	-0.16
N457	0.3	0	-0.16
N458	0.4	0	-0.16
N459	0.1	0.02	-0.16
N460	0.2	0.02	-0.16
N461	0.3	0.02	-0.16
N462	0.4	0.02	-0.16
N463	0.1	0.04	-0.16
N464	0.2	0.04	-0.16
N465	0.3	0.04	-0.16
N466	0.4	0.04	-0.16
N467	0.1	0.06	-0.16
N468	0.2	0.06	-0.16
N469	0.3	0.06	-0.16
N470	0.4	0.06	-0.16
N471	0.1	0.06	0.16
N472	0.2	0.06	0.16
N473	0.3	0.06	0.16
N474	0.4	0.06	0.16
N475	0.1	0.04	0.16
N476	0.2	0.04	0.16
N477	0.3	0.04	0.16
N478	0.4	0.04	0.16
N479	0.1	0.02	0.16
N480	0.2	0.02	0.16
N481	0.3	0.02	0.16
N482	0.4	0.02	0.16
N483	0.1	0	0.16
N484	0.2	0	0.16
N485	0.3	0	0.16
N486	0.4	0	0.16
N487	0.1	-0.02	0.16
N488	0.2	-0.02	0.16
N489	0.3	-0.02	0.16
N490	0.4	-0.02	0.16
N491	0.1	-0.04	0.16
N492	0.2	-0.04	0.16
N493	0.3	-0.04	0.16
N494	0.4	-0.04	0.16
N495	0.1	-0.06	0.16
N496	0.2	-0.06	0.16
N497	0.3	-0.06	0.16
N498	0.4	-0.06	0.16
N499	0.1	-0.06	0.14
N500	0.2	-0.06	0.14
N501	0.3	-0.06	0.14
N502	0.4	-0.06	0.14
N503	0.1	-0.04	0.14
N504	0.2	-0.04	0.14
N505	0.3	-0.04	0.14
N506	0.4	-0.04	0.14
N507	0.1	-0.02	0.14
N508	0.2	-0.02	0.14
N509	0.3	-0.02	0.14
N510	0.4	-0.02	0.14
N511	0.1	0	0.14
N512	0.2	0	0.14
N513	0.3	0	0.14
N514	0.4	0	0.14
N515	0.1	0.02	0.14
N516	0.2	0.02	0.14
N517	0.3	0.02	0.14
N518	0.4	0.02	0.14
N519	0.1	0.04	0.14
N520	0.2	0.04	0.14
N521	0.3	0.04	0.14
N522	0.4	0.04	0.14
N523	0.1	0.06	0.14
N524	0.2	0.06	0.14
N525	0.3	0.06	0.14
N526	0.4	0.06	0.14
N527	0.1	-0.06	0.12
N528	0.2	-0.06	0.12
N529	0.3	-0.06	0.12
N530	0.4	-0.06	0.12
N531	0.1	-0.04	0.12
N532	0.2	-0.04	0.12
N533	0.3	-0.04	0.12
N534	0.4	-0.04	0.12
N535	0.1	-0.02	0.12
N536	0.2	-0.02	0.12
N537	0.3	-0.02	0.12
N538	0.4	-0.02	0.12
N539	0.1	6.93889e-18	0.12
N540	0.2	0	0.12
N541	0.3	0	0.12
N542	0.4	0	0.12
N543	0.1	0.02	0.12
N544	0.2	0.02	0.12
N545	0.3	0.02	0.12
N546	0.4	0.02	0.12
N547	0.1	0.04	0.12
N548	0.2	0.04	0.12
N549	0.3	0.04	0.12
N550	0.4	0.04	0.12
N551	0.1	0.06	0.12
N552	0.2	0.06	0.12
N553	0.3	0.06	0.12
N554	0.4	0.06	0.12
N555	0.1	-0.06	0.1
N556	0.2	-0.06	0.1
N557	0.3	-0.06	0.1
N558	0.4	-0.06	0.1
N559	0.1	-0.04	0.1
N560	0.2	-0.04	0.1
N561	0.3	-0.04	0.1
N562	0.4	-0.04	0.1
N563	0.1	-0.02	0.1
N564	0.2	-0.02	0.1
N565	0.3	-0.02	0.1
N566	0.4	-0.02	0.1
N567	0.1	6.93889e-18	0.1
N568	0.2	0	0.1
N569	0.3	0	0.1
N570	0.4	0	0.1
N571	0.1	0.02	0.1
N572	0.2	0.02	0.1
N573	0.3	0.02	0.1
N574	0.4	0.02	0.1
N575	0.1	0.04	0.1
N576	0.2	0.04	0.1
N577	0.3	0.04	0.1
N578	0.4	0.04	0.1
N579	0.1	0.06	0.1
N580	0.2	0.06	0.1
N581	0.3	0.06	0.1
N582	0.4	0.06	0.1
N583	0.1	-0.06	0.08
N584	0.2	-0.06	0.08
N585	0.3	-0.06	0.08
N586	0.4	-0.06	0.08
N587	0.1	-0.04	0.08
N588	0.2	-0.04	0.08
N589	0.3	-0.04	0.08
N590	0.4	-0.04	0.08
N591	0.1	-0.02	0.08
N592	0.2	-0.02	0.08
N593	0.3	-0.02	0.08
N594	0.4	-0.02	0.08
N595	0.1	6.93889e-18	0.08
N596	0.2	0	0.08
N597	0.3	0	0.08
N598	0.4	0	0.08
N599	0.1	0.02	0.08
N600	0.2	0.02	0.08
N601	0.3	0.02	0.08
N602	0.4	0.02	0.08
N603	0.1	0.04	0.08
N604	0.2	0.04	0.08
N605	0.3	0.04	0.08
N606	0.4	0.04	0.08
N607	0.1	0.06	0.08
N608	0.2	0.06	0.08
N609	0.3	0.06	0.08
N610	0.4	0.06	0.08
N611	0.1	-0.06	0.06
N612	0.2	-0.06	0.06
N613	0.3	-0.06	0.06
N614	0.4	-0.06	0.06
N615	0.1	-0.04	0.06
N616	0.2	-0.04	0.06
N617	0.3	-0.04	0.06
N618	0.4	-0.04	0.06
N619	0.1	-0.02	0.06
N620	0.2	-0.02	0.06
N621	0.3	-0.02	0.06
N622	0.4	-0.02	0.06
N623	0.1	2.91434e-17	0.06
N624	0.2	1.66533e-17	0.06
N625	0.3	1.11022e-17	0.06
N626	0.4	5.55112e-18	0.06
N627	0.1	0.02	0.06
N628	0.2	0.02	0.06
N629	0.3	0.02	0.06
N630	0.4	0.02	0.06
N631	0.1	0.04	0.06
N632	0.2	0.04	0.06
N633	0.3	0.04	0.06
N634	0.4	0.04	0.06
N635	0.1	0.06	0.06
N636	0.2	0.06	0.06
N637	0.3	0.06	0.06
N638	0.4	0.06	0.06
N639	0.1	-0.06	0.04
N640	0.2	-0.06	0.04
N641	0.3	-0.06	0.04
N642	0.4	-0.06	0.04
N643	0.1	-0.04	0.04
N644	0.2	-0.04	0.04
N645	0.3	-0.04	0.04
N646	0.4	-0.04	0.04
N647	0.1	-0.02	0.04
N648	0.2	-0.02	0.04
N649	0.3	-0.02	0.04
N650	0.4	-0.02	0.04
N651	0.1	9.71445e-18	0.04
N652	0.2	5.55112e-18	0.04
N653	0.3	8.32667e-18	0.04
N654	0.4	1.11022e-17	0.04
N655	0.1	0.02	0.04
N656	0.2	0.02	0.04
N657	0.3	0.02	0.04
N658	0.4	0.02	0.04
N659	0.1	0.04	0.04
N660	0.2	0.04	0.04
N661	0.3	0.04	0.04
N662	0.4	0.04	0.04
N663	0.1	0.06	0.04
N664	0.2	0.06	0.04
N665	0.3	0.06	0.04
N666	0.4	0.06	0.04
N667	0.1	-0.06	0.02
N668	0.2	-0.06	0.02
N669	0.3	-0.06	0.02
N670	0.4	-0.06	0.02
N671	0.1	-0.04	0.02
N672	0.2	-0.04	0.02
N673	0.3	-0.04	0.02
N674	0.4	-0.04	0.02
N675	0.1	-0.02	0.02
N676	0.2	-0.02	0.02
N677	0.3	-0.02	0.02
N678	0.4	-0.02	0.02
N679	0.1	1.38778e-17	0.02
N680	0.2	0	0.02
N681	0.3	0	0.02
N682	0.4	0	0.02
N683	0.1	0.02	0.02
N684	0.2	0.02	0.02
N685	0.3	0.02	0.02
N686	0.4	0.02	0.02
N687	0.1	0.04	0.02
N688	0.2	0.04	0.02
N689	0.3	0.04	0.02
N690	0.4	0.04	0.02
N691	0.1	0.06	0.02
N692	0.2	0.06	0.02
N693	0.3	0.06	0.02
N694	0.4	0.06	0.02
N695	0.1	-0.06	4.16334e-17
N696	0.2	-0.06	2.77556e-17
N697	0.3	-0.06	2.77556e-17
N698	0.4	-0.06	1.38778e-17
N699	0.1	-0.04	0
N700	0.2	-0.04	0
N701	0.3	-0.04	0
N702	0.4	-0.04	0
N703	0.1	-0.02	0
N704	0.2	-0.02	0
N705	0.3	-0.02	0
N706	0.4	-0.02	0
N707	0.1	1.38778e-17	0
N708	0.2	0	0
N709	0.3	0	0
N710	0.4	0	0
N711	0.1	0.02	0
N712	0.2	0.02	0
N713	0.3	0.02	0
N714	0.4	0.02	0
N715	0.1	0.04	0
N716	0.2	0.04	0
N717	0.3	0.04	0
N718	0.4	0.04	0
N719	0.1	0.06	0
N720	0.2	0.06	0
N721	0.3	0.06	0
N722	0.4	0.06	0
N723	0.1	-0.06	-0.02
N724	0.2	-0.06	-0.02
N725	0.3	-0.06	-0.02
N726	0.4	-0.06	-0.02
N727	0.1	-0.04	-0.02
N728	0.2	-0.04	-0.02
N729	0.3	-0.04	-0.02
N730	0.4	-0.04	-0.02
N731	0.1	-0.02	-0.02
N732	0.2	-0.02	-0.02
N733	0.3	-0.02	-0.02
N734	0.4	-0.02	-0.02
N735	0.1	1.38778e-17	-0.02
N736	0.2	0	-0.02
N737	0.3	0	-0.02
N738	0.4	0	-0.02
N739	0.1	0.02	-0.02
N740	0.2	0.02	-0.02
N741	0.3	0.02	-0.02
N742	0.4	0.02	-0.02
N743	0.1	0.04	-0.02
N744	0.2	0.04	-0.02
N745	0.3	0.04	-0.02
N746	0.4	0.04	-0.02
N747	0.1	0.06	-0.02
N748	0.2	0.06	-0.02
N749	0.3	0.06	-0.02
N750	0.4	0.06	-0.02
N751	0.1	-0.06	-0.04
N752	0.2	-0.06	-0.04
N753	0.3	-0.06	-0.04
N754	0.4	-0.06	-0.04
N755	0.1	-0.04	-0.04
N756	0.2	-0.04	-0.04
N757	0.3	-0.04	-0.04
N758	0.4	-0.04	-0.04
N759	0.1	-0.02	-0.04
N760	0.2	-0.02	-0.04
N761	0.3	-0.02	-0.04
N762	0.4	-0.02	-0.04
N763	0.1	2.08167e-17	-0.04
N764	0.2	0	-0.04
N765	0.3	0	-0.04
N766	0.4	0	-0.04
N767	0.1	0.02	-0.04
N768	0.2	0.02	-0.04
N769	0.3	0.02	-0.04
N770	0.4	0.02	-0.04
N771	0.1	0.04	-0.04
N772	0.2	0.04	-0.04
N773	0.3	0.04	-0.04
N774	0.4	0.04	-0.04
N775	0.1	0.06	-0.04
N776	0.2	0.06	-0.04
N777	0.3	0.06	-0.04
N778	0.4	0.06	-0.04
N779	0.1	-0.06	-0.06
N780	0.2	-0.06	-0.06
N781	0.3	-0.06	-0.06
N782	0.4	-0.06	-0.06
N783	0.1	-0.04	-0.06
N784	0.2	-0.04	-0.06
N785	0.3	-0.04	-0.06
N786	0.4	-0.04	-0.06
N787	0.1	-0.02	-0.06
N788	0.2	-0.02	-0.06
N789	0.3	-0.02	-0.06
N790	0.4	-0.02	-0.06
N791	0.1	2.08167e-17	-0.06
N792	0.2	0	-0.06
N793	0.3	0	-0.06
N794	0.4	0	-0.06
N795	0.1	0.02	-0.06
N796	0.2	0.02	-0.06
N797	0.3	0.02	-0.06
N798	0.4	0.02	-0.06
N799	0.1	0.04	-0.06
N800	0.2	0.04	-0.06
N801	0.3	0.04	-0.06
N802	0.4	0.04	-0.06
N803	0.1	0.06	-0.06
N804	0.2	0.06	-0.06
N805	0.3	0.06	-0.06
N806	0.4	0.06	-0.06
N807	0.1	-0.06	-0.08
N808	0.2	-0.06	-0.08
N809	0.3	-0.06	-0.08
N810	0.4	-0.06	-0.08
N811	0.1	-0.04	-0.08
N812	0.2	-0.04	-0.08
N813	0.3	-0.04	-0.08
N814	0.4	-0.04	-0.08
N815	0.1	-0.02	-0.08
N816	0.2	-0.02	-0.08
N817	0.3	-0.02	-0.08
N818	0.4	-0.02	-0.08
N819	0.1	2.08167e-17	-0.08
N820	0.2	0	-0.08
N821	0.3	0	-0.08
N822	0.4	0	-0.08
N823	0.1	0.02	-0.08
N824	0.2	0.02	-0.08
N825	0.3	0.02	-0.08
N826	0.4	0.02	-0.08
N827	0.1	0.04	-0.08
N828	0.2	0.04	-0.08
N829	0.3	0.04	-0.08
N830	0.4	0.04	-0.08
N831	0.1	0.06	-0.08
N832	0.2	0.06	-0.08
N833	0.3	0.06	-0.08
N834	0.4	0.06	-0.08
N835	0.1	-0.06	-0.1
N836	0.2	-0.06	-0.1
N837	0.3	-0.06	-0.1
N838	0.4	-0.06	-0.1
N839	0.1	-0.04	-0.1
N840	0.2	-0.04	-0.1
N841	0.3	-0.04	-0.1
N842	0.4	-0.04	-0.1
N843	0.1	-0.02	-0.1
N844	0.2	-0.02	-0.1
N845	0.3	-0.02	-0.1
N846	0.4	-0.02	-0.1
N847	0.1	2.63678e-17	-0.1
N848	0.2	1.11022e-17	-0.1
N849	0.3	1.66533e-17	-0.1
N850	0.4	2.22045e-17	-0.1
N851	0.1	0.02	-0.1
N852	0.2	0.02	-0.1
N853	0.3	0.02	-0.1
N854	0.4	0.02	-0.1
N855	0.1	0.04	-0.1
N856	0.2	0.04	-0.1
N857	0.3	0.04	-0.1
N858	0.4	0.04	-0.1
N859	0.1	0.06	-0.1
N860	0.2	0.06	-0.1
N861	0.3	0.06	-0.1
N862	0.4	0.06	-0.1
N863	0.1	-0.06	-0.12
N864	0.2	-0.06	-0.12
N865	0.3	-0.06	-0.12
N866	0.4	-0.06	-0.12
N867	0.1	-0.04	-0.12
N868	0.2	-0.04	-0.12
N869	0.3	-0.04	-0.12
N870	0.4	-0.04	-0.12
N871	0.1	-0.02	-0.12
N872	0.2	-0.02	-0.12
N873	0.3	-0.02	-0.12
N874	0.4	-0.02	-0.12
N875	0.1	2.77556e-17	-0.12
N876	0.2	0	-0.12
N877	0.3	0	-0.12
N878	0.4	0	-0.12
N879	0.1	0.02	-0.12
N880	0.2	0.02	-0.12
N881	0.3	0.02	-0.12
N882	0.4	0.02	-0.12
N883	0.1	0.04	-0.12
N884	0.2	0.04	-0.12
N885	0.3	0.04	-0.12
N886	0.4	0.04	-0.12
N887	0.1	0.06	-0.12
N888	0.2	0.06	-0.12
N889	0.3	0.06	-0.12
N890	0.4	0.06	-0.12
N891	0.1	-0.06	-0.14
N892	0.2	-0.06	-0.14
N893	0.3	-0.06	-0.14
N894	0.4	-0.06	-0.14
N895	0.1	-0.04	-0.14
N896	0.2	-0.04	-0.14
N897	0.3	-0.04	-0.14
N898	0.4	-0.04	-0.14
N899	0.1	-0.02	-0.14
N900	0.2	-0.02	-0.14
N901	0.3	-0.02	-0.14
N902	0.4	-0.02	-0.14
N903	0.1	2.77556e-17	-0.14
N904	0.2	0	-0.14
N905	0.3	0	-0.14
N906	0.4	0	-0.14
N907	0.1	0.02	-0.14
N908	0.2	0.02	-0.14
N909	0.3	0.02	-0.14
N910	0.4	0.02	-0.14
N911	0.1	0.04	-0.14
N912	0.2	0.04	-0.14
N913	0.3	0.04	-0.14
N914	0.4	0.04	-0.14
N915	0.1	0.06	-0.14
N916	0.2	0.06	-0.14
N917	0.3	0.06	-0.14
N918	0.4	0.06	-0.14
