{
    "meshType"      : "MED",
    "meshFile"      : "./Box_dir_X_w40_h10_l05_hex20.med",
    "matrixFormat"  : "NPZ",
    "KMatrix"       : "./Stiff_X_0d.npz",
    "MMatrix"       : "./Mass_X_0d.npz",
    "lowerMatrix"   : false,
    "DOFfile"       : "NA",
    "R1name"        : "R1",
    "R2name"        : "R2",
    "p1"            : [0.0, 0.0, 0.0],
    "p2"            : [0.5, 0.0, 0.0],
    "writeInertia"  : "./mass_X_0d_hex20.txt",
    "inertiaThresh" : 1e-4,
    "writeElastic"  : "./stiff_X_0d_hex20.txt",
    "elasticThresh" : 1e-4,
    "writeStressData" : "SR_Box_X_0d_w40_h10_l05_hex20.npz"
}
